%!PS-Adobe-3.0 EPSF-3.0
%%Creator: (MATLAB, The Mathworks, Inc. Version 9.6.0.1472908 \(R2019a\) Update 9. Operating System: Windows 7)
%%Title: E:/Documentation/phdthesis/fig/DB/kMeansSynthetic_nStrength.eps
%%CreationDate: 2021-03-16T11:01:32
%%Pages: (atend)
%%BoundingBox: 0 0 1159 454
%%LanguageLevel: 3
%%EndComments
%%BeginProlog
%%BeginResource: procset (Apache XML Graphics Std ProcSet) 1.2 0
%%Version: 1.2 0
%%Copyright: (Copyright 2001-2003,2010 The Apache Software Foundation. License terms: http://www.apache.org/licenses/LICENSE-2.0)
/bd{bind def}bind def
/ld{load def}bd
/GR/grestore ld
/GS/gsave ld
/RM/rmoveto ld
/C/curveto ld
/t/show ld
/L/lineto ld
/ML/setmiterlimit ld
/CT/concat ld
/f/fill ld
/N/newpath ld
/S/stroke ld
/CC/setcmykcolor ld
/A/ashow ld
/cp/closepath ld
/RC/setrgbcolor ld
/LJ/setlinejoin ld
/GC/setgray ld
/LW/setlinewidth ld
/M/moveto ld
/re {4 2 roll M
1 index 0 rlineto
0 exch rlineto
neg 0 rlineto
cp } bd
/_ctm matrix def
/_tm matrix def
/BT { _ctm currentmatrix pop matrix _tm copy pop 0 0 moveto } bd
/ET { _ctm setmatrix } bd
/iTm { _ctm setmatrix _tm concat } bd
/Tm { _tm astore pop iTm 0 0 moveto } bd
/ux 0.0 def
/uy 0.0 def
/F {
  /Tp exch def
  /Tf exch def
  Tf findfont Tp scalefont setfont
  /cf Tf def  /cs Tp def
} bd
/ULS {currentpoint /uy exch def /ux exch def} bd
/ULE {
  /Tcx currentpoint pop def
  gsave
  newpath
  cf findfont cs scalefont dup
  /FontMatrix get 0 get /Ts exch def /FontInfo get dup
  /UnderlinePosition get Ts mul /To exch def
  /UnderlineThickness get Ts mul /Tt exch def
  ux uy To add moveto  Tcx uy To add lineto
  Tt setlinewidth stroke
  grestore
} bd
/OLE {
  /Tcx currentpoint pop def
  gsave
  newpath
  cf findfont cs scalefont dup
  /FontMatrix get 0 get /Ts exch def /FontInfo get dup
  /UnderlinePosition get Ts mul /To exch def
  /UnderlineThickness get Ts mul /Tt exch def
  ux uy To add cs add moveto Tcx uy To add cs add lineto
  Tt setlinewidth stroke
  grestore
} bd
/SOE {
  /Tcx currentpoint pop def
  gsave
  newpath
  cf findfont cs scalefont dup
  /FontMatrix get 0 get /Ts exch def /FontInfo get dup
  /UnderlinePosition get Ts mul /To exch def
  /UnderlineThickness get Ts mul /Tt exch def
  ux uy To add cs 10 mul 26 idiv add moveto Tcx uy To add cs 10 mul 26 idiv add lineto
  Tt setlinewidth stroke
  grestore
} bd
/QT {
/Y22 exch store
/X22 exch store
/Y21 exch store
/X21 exch store
currentpoint
/Y21 load 2 mul add 3 div exch
/X21 load 2 mul add 3 div exch
/X21 load 2 mul /X22 load add 3 div
/Y21 load 2 mul /Y22 load add 3 div
/X22 load /Y22 load curveto
} bd
/SSPD {
dup length /d exch dict def
{
/v exch def
/k exch def
currentpagedevice k known {
/cpdv currentpagedevice k get def
v cpdv ne {
/upd false def
/nullv v type /nulltype eq def
/nullcpdv cpdv type /nulltype eq def
nullv nullcpdv or
{
/upd true def
} {
/sametype v type cpdv type eq def
sametype {
v type /arraytype eq {
/vlen v length def
/cpdvlen cpdv length def
vlen cpdvlen eq {
0 1 vlen 1 sub {
/i exch def
/obj v i get def
/cpdobj cpdv i get def
obj cpdobj ne {
/upd true def
exit
} if
} for
} {
/upd true def
} ifelse
} {
v type /dicttype eq {
v {
/dv exch def
/dk exch def
/cpddv cpdv dk get def
dv cpddv ne {
/upd true def
exit
} if
} forall
} {
/upd true def
} ifelse
} ifelse
} if
} ifelse
upd true eq {
d k v put
} if
} if
} if
} forall
d length 0 gt {
d setpagedevice
} if
} bd
/RE { % /NewFontName [NewEncodingArray] /FontName RE -
  findfont dup length dict begin
  {
    1 index /FID ne
    {def} {pop pop} ifelse
  } forall
  /Encoding exch def
  /FontName 1 index def
  currentdict definefont pop
  end
} bind def
%%EndResource
%%BeginResource: procset (Apache XML Graphics EPS ProcSet) 1.0 0
%%Version: 1.0 0
%%Copyright: (Copyright 2002-2003 The Apache Software Foundation. License terms: http://www.apache.org/licenses/LICENSE-2.0)
/BeginEPSF { %def
/b4_Inc_state save def         % Save state for cleanup
/dict_count countdictstack def % Count objects on dict stack
/op_count count 1 sub def      % Count objects on operand stack
userdict begin                 % Push userdict on dict stack
/showpage { } def              % Redefine showpage, { } = null proc
0 setgray 0 setlinecap         % Prepare graphics state
1 setlinewidth 0 setlinejoin
10 setmiterlimit [ ] 0 setdash newpath
/languagelevel where           % If level not equal to 1 then
{pop languagelevel             % set strokeadjust and
1 ne                           % overprint to their defaults.
{false setstrokeadjust false setoverprint
} if
} if
} bd
/EndEPSF { %def
count op_count sub {pop} repeat            % Clean up stacks
countdictstack dict_count sub {end} repeat
b4_Inc_state restore
} bd
%%EndResource
%FOPBeginFontDict
%%IncludeResource: font Courier-Oblique
%%IncludeResource: font Courier-BoldOblique
%%IncludeResource: font Courier-Bold
%%IncludeResource: font ZapfDingbats
%%IncludeResource: font Symbol
%%IncludeResource: font Helvetica
%%IncludeResource: font Helvetica-Oblique
%%IncludeResource: font Helvetica-Bold
%%IncludeResource: font Helvetica-BoldOblique
%%IncludeResource: font Times-Roman
%%IncludeResource: font Times-Italic
%%IncludeResource: font Times-Bold
%%IncludeResource: font Times-BoldItalic
%%IncludeResource: font Courier
%FOPEndFontDict
%%BeginResource: encoding WinAnsiEncoding
/WinAnsiEncoding [
/.notdef /.notdef /.notdef /.notdef /.notdef
/.notdef /.notdef /.notdef /.notdef /.notdef
/.notdef /.notdef /.notdef /.notdef /.notdef
/.notdef /.notdef /.notdef /.notdef /.notdef
/.notdef /.notdef /.notdef /.notdef /.notdef
/.notdef /.notdef /.notdef /.notdef /.notdef
/.notdef /.notdef /space /exclam /quotedbl
/numbersign /dollar /percent /ampersand /quotesingle
/parenleft /parenright /asterisk /plus /comma
/hyphen /period /slash /zero /one
/two /three /four /five /six
/seven /eight /nine /colon /semicolon
/less /equal /greater /question /at
/A /B /C /D /E
/F /G /H /I /J
/K /L /M /N /O
/P /Q /R /S /T
/U /V /W /X /Y
/Z /bracketleft /backslash /bracketright /asciicircum
/underscore /quoteleft /a /b /c
/d /e /f /g /h
/i /j /k /l /m
/n /o /p /q /r
/s /t /u /v /w
/x /y /z /braceleft /bar
/braceright /asciitilde /bullet /Euro /bullet
/quotesinglbase /florin /quotedblbase /ellipsis /dagger
/daggerdbl /circumflex /perthousand /Scaron /guilsinglleft
/OE /bullet /Zcaron /bullet /bullet
/quoteleft /quoteright /quotedblleft /quotedblright /bullet
/endash /emdash /asciitilde /trademark /scaron
/guilsinglright /oe /bullet /zcaron /Ydieresis
/space /exclamdown /cent /sterling /currency
/yen /brokenbar /section /dieresis /copyright
/ordfeminine /guillemotleft /logicalnot /sfthyphen /registered
/macron /degree /plusminus /twosuperior /threesuperior
/acute /mu /paragraph /middot /cedilla
/onesuperior /ordmasculine /guillemotright /onequarter /onehalf
/threequarters /questiondown /Agrave /Aacute /Acircumflex
/Atilde /Adieresis /Aring /AE /Ccedilla
/Egrave /Eacute /Ecircumflex /Edieresis /Igrave
/Iacute /Icircumflex /Idieresis /Eth /Ntilde
/Ograve /Oacute /Ocircumflex /Otilde /Odieresis
/multiply /Oslash /Ugrave /Uacute /Ucircumflex
/Udieresis /Yacute /Thorn /germandbls /agrave
/aacute /acircumflex /atilde /adieresis /aring
/ae /ccedilla /egrave /eacute /ecircumflex
/edieresis /igrave /iacute /icircumflex /idieresis
/eth /ntilde /ograve /oacute /ocircumflex
/otilde /odieresis /divide /oslash /ugrave
/uacute /ucircumflex /udieresis /yacute /thorn
/ydieresis
] def
%%EndResource
%FOPBeginFontReencode
/Courier-Oblique findfont
dup length dict begin
  {1 index /FID ne {def} {pop pop} ifelse} forall
  /Encoding WinAnsiEncoding def
  currentdict
end
/Courier-Oblique exch definefont pop
/Courier-BoldOblique findfont
dup length dict begin
  {1 index /FID ne {def} {pop pop} ifelse} forall
  /Encoding WinAnsiEncoding def
  currentdict
end
/Courier-BoldOblique exch definefont pop
/Courier-Bold findfont
dup length dict begin
  {1 index /FID ne {def} {pop pop} ifelse} forall
  /Encoding WinAnsiEncoding def
  currentdict
end
/Courier-Bold exch definefont pop
/Helvetica findfont
dup length dict begin
  {1 index /FID ne {def} {pop pop} ifelse} forall
  /Encoding WinAnsiEncoding def
  currentdict
end
/Helvetica exch definefont pop
/Helvetica-Oblique findfont
dup length dict begin
  {1 index /FID ne {def} {pop pop} ifelse} forall
  /Encoding WinAnsiEncoding def
  currentdict
end
/Helvetica-Oblique exch definefont pop
/Helvetica-Bold findfont
dup length dict begin
  {1 index /FID ne {def} {pop pop} ifelse} forall
  /Encoding WinAnsiEncoding def
  currentdict
end
/Helvetica-Bold exch definefont pop
/Helvetica-BoldOblique findfont
dup length dict begin
  {1 index /FID ne {def} {pop pop} ifelse} forall
  /Encoding WinAnsiEncoding def
  currentdict
end
/Helvetica-BoldOblique exch definefont pop
/Times-Roman findfont
dup length dict begin
  {1 index /FID ne {def} {pop pop} ifelse} forall
  /Encoding WinAnsiEncoding def
  currentdict
end
/Times-Roman exch definefont pop
/Times-Italic findfont
dup length dict begin
  {1 index /FID ne {def} {pop pop} ifelse} forall
  /Encoding WinAnsiEncoding def
  currentdict
end
/Times-Italic exch definefont pop
/Times-Bold findfont
dup length dict begin
  {1 index /FID ne {def} {pop pop} ifelse} forall
  /Encoding WinAnsiEncoding def
  currentdict
end
/Times-Bold exch definefont pop
/Times-BoldItalic findfont
dup length dict begin
  {1 index /FID ne {def} {pop pop} ifelse} forall
  /Encoding WinAnsiEncoding def
  currentdict
end
/Times-BoldItalic exch definefont pop
/Courier findfont
dup length dict begin
  {1 index /FID ne {def} {pop pop} ifelse} forall
  /Encoding WinAnsiEncoding def
  currentdict
end
/Courier exch definefont pop
%FOPEndFontReencode
%%EndProlog
%%Page: 1 1
%%PageBoundingBox: 0 0 1159 454
%%BeginPageSetup
[1 0 0 -1 0 454] CT
%%EndPageSetup
GS
[0.75 0 0 0.75 0 0.25] CT
N
0 0 M
1545 0 L
1545 605 L
0 605 L
0 0 L
cp
clip
1 GC
N
0 0 1545 605 re
f
GR
GS
[0.75 0 0 0.75 0 0.25] CT
1 GC
N
0 0 1545 605 re
f
GR
GS
[0.75 0 0 0.75 0 0.25] CT
1 GC
N
201 538 M
718 538 L
718 45 L
201 45 L
cp
f
GR
GS
[0.75 0 0 0.75 0 0.25] CT
0.775 GC
[1 3] 0 setdash
2 LJ
0.667 LW
N
213.925 538 M
213.925 45 L
S
GR
GS
[0.75 0 0 0.75 0 0.25] CT
0.775 GC
[1 3] 0 setdash
2 LJ
0.667 LW
N
226.85 538 M
226.85 45 L
S
GR
GS
[0.75 0 0 0.75 0 0.25] CT
0.775 GC
[1 3] 0 setdash
2 LJ
0.667 LW
N
239.775 538 M
239.775 45 L
S
GR
GS
[0.75 0 0 0.75 0 0.25] CT
0.775 GC
[1 3] 0 setdash
2 LJ
0.667 LW
N
265.625 538 M
265.625 45 L
S
GR
GS
[0.75 0 0 0.75 0 0.25] CT
0.775 GC
[1 3] 0 setdash
2 LJ
0.667 LW
N
278.55 538 M
278.55 45 L
S
GR
GS
[0.75 0 0 0.75 0 0.25] CT
0.775 GC
[1 3] 0 setdash
2 LJ
0.667 LW
N
291.475 538 M
291.475 45 L
S
GR
GS
[0.75 0 0 0.75 0 0.25] CT
0.775 GC
[1 3] 0 setdash
2 LJ
0.667 LW
N
317.325 538 M
317.325 45 L
S
GR
GS
[0.75 0 0 0.75 0 0.25] CT
0.775 GC
[1 3] 0 setdash
2 LJ
0.667 LW
N
330.25 538 M
330.25 45 L
S
GR
GS
[0.75 0 0 0.75 0 0.25] CT
0.775 GC
[1 3] 0 setdash
2 LJ
0.667 LW
N
343.175 538 M
343.175 45 L
S
GR
GS
[0.75 0 0 0.75 0 0.25] CT
0.775 GC
[1 3] 0 setdash
2 LJ
0.667 LW
N
369.025 538 M
369.025 45 L
S
GR
GS
[0.75 0 0 0.75 0 0.25] CT
0.775 GC
[1 3] 0 setdash
2 LJ
0.667 LW
N
381.95 538 M
381.95 45 L
S
GR
GS
[0.75 0 0 0.75 0 0.25] CT
0.775 GC
[1 3] 0 setdash
2 LJ
0.667 LW
N
394.875 538 M
394.875 45 L
S
GR
GS
[0.75 0 0 0.75 0 0.25] CT
0.775 GC
[1 3] 0 setdash
2 LJ
0.667 LW
N
420.725 538 M
420.725 45 L
S
GR
GS
[0.75 0 0 0.75 0 0.25] CT
0.775 GC
[1 3] 0 setdash
2 LJ
0.667 LW
N
433.65 538 M
433.65 45 L
S
GR
GS
[0.75 0 0 0.75 0 0.25] CT
0.775 GC
[1 3] 0 setdash
2 LJ
0.667 LW
N
446.575 538 M
446.575 45 L
S
GR
GS
[0.75 0 0 0.75 0 0.25] CT
0.775 GC
[1 3] 0 setdash
2 LJ
0.667 LW
N
472.425 538 M
472.425 45 L
S
GR
GS
[0.75 0 0 0.75 0 0.25] CT
0.775 GC
[1 3] 0 setdash
2 LJ
0.667 LW
N
485.35 538 M
485.35 45 L
S
GR
GS
[0.75 0 0 0.75 0 0.25] CT
0.775 GC
[1 3] 0 setdash
2 LJ
0.667 LW
N
498.275 538 M
498.275 45 L
S
GR
GS
[0.75 0 0 0.75 0 0.25] CT
0.775 GC
[1 3] 0 setdash
2 LJ
0.667 LW
N
524.125 538 M
524.125 45 L
S
GR
GS
[0.75 0 0 0.75 0 0.25] CT
0.775 GC
[1 3] 0 setdash
2 LJ
0.667 LW
N
537.05 538 M
537.05 45 L
S
GR
GS
[0.75 0 0 0.75 0 0.25] CT
0.775 GC
[1 3] 0 setdash
2 LJ
0.667 LW
N
549.975 538 M
549.975 45 L
S
GR
GS
[0.75 0 0 0.75 0 0.25] CT
0.775 GC
[1 3] 0 setdash
2 LJ
0.667 LW
N
575.825 538 M
575.825 45 L
S
GR
GS
[0.75 0 0 0.75 0 0.25] CT
0.775 GC
[1 3] 0 setdash
2 LJ
0.667 LW
N
588.75 538 M
588.75 45 L
S
GR
GS
[0.75 0 0 0.75 0 0.25] CT
0.775 GC
[1 3] 0 setdash
2 LJ
0.667 LW
N
601.675 538 M
601.675 45 L
S
GR
GS
[0.75 0 0 0.75 0 0.25] CT
0.775 GC
[1 3] 0 setdash
2 LJ
0.667 LW
N
627.525 538 M
627.525 45 L
S
GR
GS
[0.75 0 0 0.75 0 0.25] CT
0.775 GC
[1 3] 0 setdash
2 LJ
0.667 LW
N
640.45 538 M
640.45 45 L
S
GR
GS
[0.75 0 0 0.75 0 0.25] CT
0.775 GC
[1 3] 0 setdash
2 LJ
0.667 LW
N
653.375 538 M
653.375 45 L
S
GR
GS
[0.75 0 0 0.75 0 0.25] CT
0.775 GC
[1 3] 0 setdash
2 LJ
0.667 LW
N
679.225 538 M
679.225 45 L
S
GR
GS
[0.75 0 0 0.75 0 0.25] CT
0.775 GC
[1 3] 0 setdash
2 LJ
0.667 LW
N
692.15 538 M
692.15 45 L
S
GR
GS
[0.75 0 0 0.75 0 0.25] CT
0.775 GC
[1 3] 0 setdash
2 LJ
0.667 LW
N
705.075 538 M
705.075 45 L
S
GR
GS
[0.75 0 0 0.75 0 0.25] CT
0.873 GC
1 LJ
0.667 LW
N
201 538 M
201 45 L
S
GR
GS
[0.75 0 0 0.75 0 0.25] CT
0.873 GC
1 LJ
0.667 LW
N
252.7 538 M
252.7 45 L
S
GR
GS
[0.75 0 0 0.75 0 0.25] CT
0.873 GC
1 LJ
0.667 LW
N
304.4 538 M
304.4 45 L
S
GR
GS
[0.75 0 0 0.75 0 0.25] CT
0.873 GC
1 LJ
0.667 LW
N
356.1 538 M
356.1 45 L
S
GR
GS
[0.75 0 0 0.75 0 0.25] CT
0.873 GC
1 LJ
0.667 LW
N
407.8 538 M
407.8 45 L
S
GR
GS
[0.75 0 0 0.75 0 0.25] CT
0.873 GC
1 LJ
0.667 LW
N
459.5 538 M
459.5 45 L
S
GR
GS
[0.75 0 0 0.75 0 0.25] CT
0.873 GC
1 LJ
0.667 LW
N
511.2 538 M
511.2 45 L
S
GR
GS
[0.75 0 0 0.75 0 0.25] CT
0.873 GC
1 LJ
0.667 LW
N
562.9 538 M
562.9 45 L
S
GR
GS
[0.75 0 0 0.75 0 0.25] CT
0.873 GC
1 LJ
0.667 LW
N
614.6 538 M
614.6 45 L
S
GR
GS
[0.75 0 0 0.75 0 0.25] CT
0.873 GC
1 LJ
0.667 LW
N
666.3 538 M
666.3 45 L
S
GR
GS
[0.75 0 0 0.75 0 0.25] CT
0.873 GC
1 LJ
0.667 LW
N
718 538 M
718 45 L
S
GR
GS
[0.75 0 0 0.75 0 0.25] CT
0.775 GC
[1 3] 0 setdash
2 LJ
0.667 LW
N
718 523.914 M
201 523.914 L
S
GR
GS
[0.75 0 0 0.75 0 0.25] CT
0.775 GC
[1 3] 0 setdash
2 LJ
0.667 LW
N
718 509.829 M
201 509.829 L
S
GR
GS
[0.75 0 0 0.75 0 0.25] CT
0.775 GC
[1 3] 0 setdash
2 LJ
0.667 LW
N
718 495.743 M
201 495.743 L
S
GR
GS
[0.75 0 0 0.75 0 0.25] CT
0.775 GC
[1 3] 0 setdash
2 LJ
0.667 LW
N
718 481.657 M
201 481.657 L
S
GR
GS
[0.75 0 0 0.75 0 0.25] CT
0.775 GC
[1 3] 0 setdash
2 LJ
0.667 LW
N
718 453.486 M
201 453.486 L
S
GR
GS
[0.75 0 0 0.75 0 0.25] CT
0.775 GC
[1 3] 0 setdash
2 LJ
0.667 LW
N
718 439.4 M
201 439.4 L
S
GR
GS
[0.75 0 0 0.75 0 0.25] CT
0.775 GC
[1 3] 0 setdash
2 LJ
0.667 LW
N
718 425.314 M
201 425.314 L
S
GR
GS
[0.75 0 0 0.75 0 0.25] CT
0.775 GC
[1 3] 0 setdash
2 LJ
0.667 LW
N
718 411.229 M
201 411.229 L
S
GR
GS
[0.75 0 0 0.75 0 0.25] CT
0.775 GC
[1 3] 0 setdash
2 LJ
0.667 LW
N
718 383.057 M
201 383.057 L
S
GR
GS
[0.75 0 0 0.75 0 0.25] CT
0.775 GC
[1 3] 0 setdash
2 LJ
0.667 LW
N
718 368.971 M
201 368.971 L
S
GR
GS
[0.75 0 0 0.75 0 0.25] CT
0.775 GC
[1 3] 0 setdash
2 LJ
0.667 LW
N
718 354.886 M
201 354.886 L
S
GR
GS
[0.75 0 0 0.75 0 0.25] CT
0.775 GC
[1 3] 0 setdash
2 LJ
0.667 LW
N
718 340.8 M
201 340.8 L
S
GR
GS
[0.75 0 0 0.75 0 0.25] CT
0.775 GC
[1 3] 0 setdash
2 LJ
0.667 LW
N
718 312.629 M
201 312.629 L
S
GR
GS
[0.75 0 0 0.75 0 0.25] CT
0.775 GC
[1 3] 0 setdash
2 LJ
0.667 LW
N
718 298.543 M
201 298.543 L
S
GR
GS
[0.75 0 0 0.75 0 0.25] CT
0.775 GC
[1 3] 0 setdash
2 LJ
0.667 LW
N
718 284.457 M
201 284.457 L
S
GR
GS
[0.75 0 0 0.75 0 0.25] CT
0.775 GC
[1 3] 0 setdash
2 LJ
0.667 LW
N
718 270.371 M
201 270.371 L
S
GR
GS
[0.75 0 0 0.75 0 0.25] CT
0.775 GC
[1 3] 0 setdash
2 LJ
0.667 LW
N
718 242.2 M
201 242.2 L
S
GR
GS
[0.75 0 0 0.75 0 0.25] CT
0.775 GC
[1 3] 0 setdash
2 LJ
0.667 LW
N
718 228.114 M
201 228.114 L
S
GR
GS
[0.75 0 0 0.75 0 0.25] CT
0.775 GC
[1 3] 0 setdash
2 LJ
0.667 LW
N
718 214.029 M
201 214.029 L
S
GR
GS
[0.75 0 0 0.75 0 0.25] CT
0.775 GC
[1 3] 0 setdash
2 LJ
0.667 LW
N
718 199.943 M
201 199.943 L
S
GR
GS
[0.75 0 0 0.75 0 0.25] CT
0.775 GC
[1 3] 0 setdash
2 LJ
0.667 LW
N
718 171.772 M
201 171.772 L
S
GR
GS
[0.75 0 0 0.75 0 0.25] CT
0.775 GC
[1 3] 0 setdash
2 LJ
0.667 LW
N
718 157.686 M
201 157.686 L
S
GR
GS
[0.75 0 0 0.75 0 0.25] CT
0.775 GC
[1 3] 0 setdash
2 LJ
0.667 LW
N
718 143.6 M
201 143.6 L
S
GR
GS
[0.75 0 0 0.75 0 0.25] CT
0.775 GC
[1 3] 0 setdash
2 LJ
0.667 LW
N
718 129.514 M
201 129.514 L
S
GR
GS
[0.75 0 0 0.75 0 0.25] CT
0.775 GC
[1 3] 0 setdash
2 LJ
0.667 LW
N
718 101.343 M
201 101.343 L
S
GR
GS
[0.75 0 0 0.75 0 0.25] CT
0.775 GC
[1 3] 0 setdash
2 LJ
0.667 LW
N
718 87.257 M
201 87.257 L
S
GR
GS
[0.75 0 0 0.75 0 0.25] CT
0.775 GC
[1 3] 0 setdash
2 LJ
0.667 LW
N
718 73.171 M
201 73.171 L
S
GR
GS
[0.75 0 0 0.75 0 0.25] CT
0.775 GC
[1 3] 0 setdash
2 LJ
0.667 LW
N
718 59.086 M
201 59.086 L
S
GR
GS
[0.75 0 0 0.75 0 0.25] CT
0.873 GC
1 LJ
0.667 LW
N
718 538 M
201 538 L
S
GR
GS
[0.75 0 0 0.75 0 0.25] CT
0.873 GC
1 LJ
0.667 LW
N
718 467.571 M
201 467.571 L
S
GR
GS
[0.75 0 0 0.75 0 0.25] CT
0.873 GC
1 LJ
0.667 LW
N
718 397.143 M
201 397.143 L
S
GR
GS
[0.75 0 0 0.75 0 0.25] CT
0.873 GC
1 LJ
0.667 LW
N
718 326.714 M
201 326.714 L
S
GR
GS
[0.75 0 0 0.75 0 0.25] CT
0.873 GC
1 LJ
0.667 LW
N
718 256.286 M
201 256.286 L
S
GR
GS
[0.75 0 0 0.75 0 0.25] CT
0.873 GC
1 LJ
0.667 LW
N
718 185.857 M
201 185.857 L
S
GR
GS
[0.75 0 0 0.75 0 0.25] CT
0.873 GC
1 LJ
0.667 LW
N
718 115.429 M
201 115.429 L
S
GR
GS
[0.75 0 0 0.75 0 0.25] CT
0.873 GC
1 LJ
0.667 LW
N
718 45 M
201 45 L
S
GR
GS
[0.75 0 0 0.75 0 0.25] CT
0.149 GC
2 setlinecap
1 LJ
0.667 LW
N
201 538 M
718 538 L
S
GR
GS
[0.75 0 0 0.75 0 0.25] CT
0.149 GC
2 setlinecap
1 LJ
0.667 LW
N
201 538 M
201 532.83 L
S
GR
GS
[0.75 0 0 0.75 0 0.25] CT
0.149 GC
2 setlinecap
1 LJ
0.667 LW
N
252.7 538 M
252.7 532.83 L
S
GR
GS
[0.75 0 0 0.75 0 0.25] CT
0.149 GC
2 setlinecap
1 LJ
0.667 LW
N
304.4 538 M
304.4 532.83 L
S
GR
GS
[0.75 0 0 0.75 0 0.25] CT
0.149 GC
2 setlinecap
1 LJ
0.667 LW
N
356.1 538 M
356.1 532.83 L
S
GR
GS
[0.75 0 0 0.75 0 0.25] CT
0.149 GC
2 setlinecap
1 LJ
0.667 LW
N
407.8 538 M
407.8 532.83 L
S
GR
GS
[0.75 0 0 0.75 0 0.25] CT
0.149 GC
2 setlinecap
1 LJ
0.667 LW
N
459.5 538 M
459.5 532.83 L
S
GR
GS
[0.75 0 0 0.75 0 0.25] CT
0.149 GC
2 setlinecap
1 LJ
0.667 LW
N
511.2 538 M
511.2 532.83 L
S
GR
GS
[0.75 0 0 0.75 0 0.25] CT
0.149 GC
2 setlinecap
1 LJ
0.667 LW
N
562.9 538 M
562.9 532.83 L
S
GR
GS
[0.75 0 0 0.75 0 0.25] CT
0.149 GC
2 setlinecap
1 LJ
0.667 LW
N
614.6 538 M
614.6 532.83 L
S
GR
GS
[0.75 0 0 0.75 0 0.25] CT
0.149 GC
2 setlinecap
1 LJ
0.667 LW
N
666.3 538 M
666.3 532.83 L
S
GR
GS
[0.75 0 0 0.75 0 0.25] CT
0.149 GC
2 setlinecap
1 LJ
0.667 LW
N
718 538 M
718 532.83 L
S
GR
GS
[0.75 0 0 0.75 150.75 407.74998] CT
0.149 GC
/Helvetica 13.333 F
GS
[1 0 0 1 0 0] CT
-4 14 moveto 
1 -1 scale
(0) t 
GR
GR
GS
[0.75 0 0 0.75 189.525 407.74998] CT
0.149 GC
/Helvetica 13.333 F
GS
[1 0 0 1 0 0] CT
-9.5 14 moveto 
1 -1 scale
(0.2) t 
GR
GR
GS
[0.75 0 0 0.75 228.3 407.74998] CT
0.149 GC
/Helvetica 13.333 F
GS
[1 0 0 1 0 0] CT
-9.5 14 moveto 
1 -1 scale
(0.4) t 
GR
GR
GS
[0.75 0 0 0.75 267.075 407.74998] CT
0.149 GC
/Helvetica 13.333 F
GS
[1 0 0 1 0 0] CT
-9.5 14 moveto 
1 -1 scale
(0.6) t 
GR
GR
GS
[0.75 0 0 0.75 305.85001 407.74998] CT
0.149 GC
/Helvetica 13.333 F
GS
[1 0 0 1 0 0] CT
-9.5 14 moveto 
1 -1 scale
(0.8) t 
GR
GR
GS
[0.75 0 0 0.75 344.625 407.74998] CT
0.149 GC
/Helvetica 13.333 F
GS
[1 0 0 1 0 0] CT
-4 14 moveto 
1 -1 scale
(1) t 
GR
GR
GS
[0.75 0 0 0.75 383.40001 407.74998] CT
0.149 GC
/Helvetica 13.333 F
GS
[1 0 0 1 0 0] CT
-9.5 14 moveto 
1 -1 scale
(1.2) t 
GR
GR
GS
[0.75 0 0 0.75 422.17497 407.74998] CT
0.149 GC
/Helvetica 13.333 F
GS
[1 0 0 1 0 0] CT
-9.5 14 moveto 
1 -1 scale
(1.4) t 
GR
GR
GS
[0.75 0 0 0.75 460.95003 407.74998] CT
0.149 GC
/Helvetica 13.333 F
GS
[1 0 0 1 0 0] CT
-9.5 14 moveto 
1 -1 scale
(1.6) t 
GR
GR
GS
[0.75 0 0 0.75 499.72499 407.74998] CT
0.149 GC
/Helvetica 13.333 F
GS
[1 0 0 1 0 0] CT
-9.5 14 moveto 
1 -1 scale
(1.8) t 
GR
GR
GS
[0.75 0 0 0.75 538.5 407.74998] CT
0.149 GC
/Helvetica 13.333 F
GS
[1 0 0 1 0 0] CT
-4 14 moveto 
1 -1 scale
(2) t 
GR
GR
GS
[0.75 0 0 0.75 0 0.25] CT
0.149 GC
2 setlinecap
1 LJ
0.667 LW
N
201 538 M
201 45 L
S
GR
GS
[0.75 0 0 0.75 0 0.25] CT
0.149 GC
2 setlinecap
1 LJ
0.667 LW
N
201 538 M
206.17 538 L
S
GR
GS
[0.75 0 0 0.75 0 0.25] CT
0.149 GC
2 setlinecap
1 LJ
0.667 LW
N
201 467.571 M
206.17 467.571 L
S
GR
GS
[0.75 0 0 0.75 0 0.25] CT
0.149 GC
2 setlinecap
1 LJ
0.667 LW
N
201 397.143 M
206.17 397.143 L
S
GR
GS
[0.75 0 0 0.75 0 0.25] CT
0.149 GC
2 setlinecap
1 LJ
0.667 LW
N
201 326.714 M
206.17 326.714 L
S
GR
GS
[0.75 0 0 0.75 0 0.25] CT
0.149 GC
2 setlinecap
1 LJ
0.667 LW
N
201 256.286 M
206.17 256.286 L
S
GR
GS
[0.75 0 0 0.75 0 0.25] CT
0.149 GC
2 setlinecap
1 LJ
0.667 LW
N
201 185.857 M
206.17 185.857 L
S
GR
GS
[0.75 0 0 0.75 0 0.25] CT
0.149 GC
2 setlinecap
1 LJ
0.667 LW
N
201 115.429 M
206.17 115.429 L
S
GR
GS
[0.75 0 0 0.75 0 0.25] CT
0.149 GC
2 setlinecap
1 LJ
0.667 LW
N
201 45 M
206.17 45 L
S
GR
GS
[0.75 0 0 0.75 146.75 403.75] CT
0.149 GC
/Helvetica 13.333 F
GS
[1 0 0 1 0 0] CT
-19 5.5 moveto 
1 -1 scale
(0.8) t 
GR
GR
GS
[0.75 0 0 0.75 146.75 350.92854] CT
0.149 GC
/Helvetica 13.333 F
GS
[1 0 0 1 0 0] CT
-26 5.5 moveto 
1 -1 scale
(0.85) t 
GR
GR
GS
[0.75 0 0 0.75 146.75 298.10716] CT
0.149 GC
/Helvetica 13.333 F
GS
[1 0 0 1 0 0] CT
-19 5.5 moveto 
1 -1 scale
(0.9) t 
GR
GR
GS
[0.75 0 0 0.75 146.75 245.28572] CT
0.149 GC
/Helvetica 13.333 F
GS
[1 0 0 1 0 0] CT
-26 5.5 moveto 
1 -1 scale
(0.95) t 
GR
GR
GS
[0.75 0 0 0.75 146.75 192.46428] CT
0.149 GC
/Helvetica 13.333 F
GS
[1 0 0 1 0 0] CT
-8 5.5 moveto 
1 -1 scale
(1) t 
GR
GR
GS
[0.75 0 0 0.75 146.75 139.64291] CT
0.149 GC
/Helvetica 13.333 F
GS
[1 0 0 1 0 0] CT
-26 5.5 moveto 
1 -1 scale
(1.05) t 
GR
GR
GS
[0.75 0 0 0.75 146.75 86.8214] CT
0.149 GC
/Helvetica 13.333 F
GS
[1 0 0 1 0 0] CT
-19 5.5 moveto 
1 -1 scale
(1.1) t 
GR
GR
GS
[0.75 0 0 0.75 146.75 34.00003] CT
0.149 GC
/Helvetica 13.333 F
GS
[1 0 0 1 0 0] CT
-26 5.5 moveto 
1 -1 scale
(1.15) t 
GR
GR
GS
[0.75 0 0 0.75 344.62532 31.93757] CT
/Helvetica-Bold 14.667 F
GS
[1 0 0 1 0 0] CT
-63.5 -4 moveto 
1 -1 scale
(Noise Distribution) t 
GR
GR
GS
[0.75 0 0 0.75 0 0.25] CT
1 0 0 RC
1 LJ
2.667 LW
N
201 275.941 M
201 320.281 L
S
GR
GS
[0.75 0 0 0.75 0 0.25] CT
1 0 0 RC
1 LJ
2.667 LW
N
459.5 280.521 M
459.5 337.322 L
S
GR
GS
[0.75 0 0 0.75 0 0.25] CT
1 0 0 RC
1 LJ
2.667 LW
N
718 281.849 M
718 336.13 L
S
GR
GS
[0.75 0 0 0.75 0 0.25] CT
1 0 0 RC
1 LJ
2.667 LW
N
201 275.941 M
201 231.601 L
S
GR
GS
[0.75 0 0 0.75 0 0.25] CT
1 0 0 RC
1 LJ
2.667 LW
N
459.5 280.521 M
459.5 223.721 L
S
GR
GS
[0.75 0 0 0.75 0 0.25] CT
1 0 0 RC
1 LJ
2.667 LW
N
718 281.849 M
718 227.568 L
S
GR
GS
[0.75 0 0 0.75 0 0.25] CT
1 0 0 RC
1 LJ
2.667 LW
N
201 275.941 M
459.5 280.521 L
718 281.849 L
S
GR
GS
[0.75 0 0 0.75 150.75 240.46073] CT
1 0 0 RC
N
-4 0 M
4 0 L
f
GR
GS
[0.75 0 0 0.75 150.75 240.46073] CT
1 0 0 RC
10.0 ML
2.667 LW
N
-4 0 M
4 0 L
S
GR
GS
[0.75 0 0 0.75 344.625 253.24136] CT
1 0 0 RC
N
/f-401390582{-4 0 M
4 0 L}def
f-401390582
f
GR
GS
[0.75 0 0 0.75 344.625 253.24136] CT
1 0 0 RC
10.0 ML
2.667 LW
N
-4 0 M
4 0 L
S
GR
GS
[0.75 0 0 0.75 538.5 252.34771] CT
1 0 0 RC
N
f-401390582
f
GR
GS
[0.75 0 0 0.75 538.5 252.34771] CT
1 0 0 RC
10.0 ML
2.667 LW
N
-4 0 M
4 0 L
S
GR
GS
[0.75 0 0 0.75 150.75 173.95092] CT
1 0 0 RC
N
f-401390582
f
GR
GS
[0.75 0 0 0.75 150.75 173.95092] CT
1 0 0 RC
10.0 ML
2.667 LW
N
-4 0 M
4 0 L
S
GR
GS
[0.75 0 0 0.75 344.625 168.04074] CT
1 0 0 RC
N
f-401390582
f
GR
GS
[0.75 0 0 0.75 344.625 168.04074] CT
1 0 0 RC
10.0 ML
2.667 LW
N
-4 0 M
4 0 L
S
GR
GS
[0.75 0 0 0.75 538.5 170.92581] CT
1 0 0 RC
N
f-401390582
f
GR
GS
[0.75 0 0 0.75 538.5 170.92581] CT
1 0 0 RC
10.0 ML
2.667 LW
N
-4 0 M
4 0 L
S
GR
GS
[0.75 0 0 0.75 0 0.25] CT
0 0 1 RC
1 LJ
1.333 LW
N
201 275.941 M
201 320.281 L
S
GR
GS
[0.75 0 0 0.75 0 0.25] CT
0 0 1 RC
1 LJ
1.333 LW
N
459.5 311.87 M
459.5 514.916 L
S
GR
GS
[0.75 0 0 0.75 0 0.25] CT
0 0 1 RC
1 LJ
1.333 LW
N
718 315.093 M
718 525.278 L
S
GR
GS
[0.75 0 0 0.75 0 0.25] CT
0 0 1 RC
1 LJ
1.333 LW
N
201 275.941 M
201 231.601 L
S
GR
GS
[0.75 0 0 0.75 0 0.25] CT
0 0 1 RC
1 LJ
1.333 LW
N
459.5 311.87 M
459.5 108.823 L
S
GR
GS
[0.75 0 0 0.75 0 0.25] CT
0 0 1 RC
1 LJ
1.333 LW
N
718 315.093 M
718 104.908 L
S
GR
GS
[0.75 0 0 0.75 0 0.25] CT
0 0 1 RC
1 LJ
1.333 LW
N
201 275.941 M
459.5 311.87 L
718 315.093 L
S
GR
GS
[0.75 0 0 0.75 150.75 240.46073] CT
0 0 1 RC
N
f-401390582
f
GR
GS
[0.75 0 0 0.75 150.75 240.46073] CT
0 0 1 RC
10.0 ML
1.333 LW
N
-4 0 M
4 0 L
S
GR
GS
[0.75 0 0 0.75 344.625 386.43687] CT
0 0 1 RC
N
f-401390582
f
GR
GS
[0.75 0 0 0.75 344.625 386.43687] CT
0 0 1 RC
10.0 ML
1.333 LW
N
-4 0 M
4 0 L
S
GR
GS
[0.75 0 0 0.75 538.5 394.20865] CT
0 0 1 RC
N
f-401390582
f
GR
GS
[0.75 0 0 0.75 538.5 394.20865] CT
0 0 1 RC
10.0 ML
1.333 LW
N
-4 0 M
4 0 L
S
GR
GS
[0.75 0 0 0.75 150.75 173.95092] CT
0 0 1 RC
N
f-401390582
f
GR
GS
[0.75 0 0 0.75 150.75 173.95092] CT
0 0 1 RC
10.0 ML
1.333 LW
N
-4 0 M
4 0 L
S
GR
GS
[0.75 0 0 0.75 344.625 81.86758] CT
0 0 1 RC
N
f-401390582
f
GR
GS
[0.75 0 0 0.75 344.625 81.86758] CT
0 0 1 RC
10.0 ML
1.333 LW
N
-4 0 M
4 0 L
S
GR
GS
[0.75 0 0 0.75 538.5 78.93063] CT
0 0 1 RC
N
f-401390582
f
GR
GS
[0.75 0 0 0.75 538.5 78.93063] CT
0 0 1 RC
10.0 ML
1.333 LW
N
-4 0 M
4 0 L
S
GR
GS
[0.75 0 0 0.75 0 0.25] CT
1 GC
N
/f-1570171290{675 441 M
675 405 L
573 405 L
573 441 L
cp}def
f-1570171290
f
GR
GS
[0.75 0 0 0.75 465 311.39725] CT
/Helvetica 12 F
GS
[1 0 0 1 0 0] CT
0 5 moveto 
1 -1 scale
(Gaussian) t 
GR
GR
GS
[0.75 0 0 0.75 0 0.25] CT
1 0 0 RC
1 LJ
2.667 LW
N
577 414.863 M
617 414.863 L
S
GR
GS
[0.75 0 0 0.75 447.75 315.83562] CT
1 0 0 RC
N
f-401390582
f
GR
GS
[0.75 0 0 0.75 447.75 315.83562] CT
1 0 0 RC
10.0 ML
2.667 LW
N
-4 0 M
4 0 L
S
GR
GS
[0.75 0 0 0.75 447.75 306.95889] CT
1 0 0 RC
N
f-401390582
f
GR
GS
[0.75 0 0 0.75 447.75 306.95889] CT
1 0 0 RC
10.0 ML
2.667 LW
N
-4 0 M
4 0 L
S
GR
GS
[0.75 0 0 0.75 0 0.25] CT
1 0 0 RC
1 LJ
2.667 LW
N
597 420.781 M
597 408.945 L
S
GR
GS
[0.75 0 0 0.75 465 323.60275] CT
/Helvetica 12 F
GS
[1 0 0 1 0 0] CT
0 5 moveto 
1 -1 scale
(Uniform) t 
GR
GR
GS
[0.75 0 0 0.75 0 0.25] CT
0 0 1 RC
1 LJ
1.333 LW
N
577 431.137 M
617 431.137 L
S
GR
GS
[0.75 0 0 0.75 447.75 328.04111] CT
0 0 1 RC
N
f-401390582
f
GR
GS
[0.75 0 0 0.75 447.75 328.04111] CT
0 0 1 RC
10.0 ML
1.333 LW
N
-4 0 M
4 0 L
S
GR
GS
[0.75 0 0 0.75 447.75 319.16438] CT
0 0 1 RC
N
f-401390582
f
GR
GS
[0.75 0 0 0.75 447.75 319.16438] CT
0 0 1 RC
10.0 ML
1.333 LW
N
-4 0 M
4 0 L
S
GR
GS
[0.75 0 0 0.75 0 0.25] CT
0 0 1 RC
1 LJ
1.333 LW
N
597 437.055 M
597 425.219 L
S
GR
GS
[0.75 0 0 0.75 0 0.25] CT
0.149 GC
10.0 ML
0.667 LW
N
573 441 M
573 405 L
675 405 L
675 441 L
cp
S
GR
GS
[0.75 0 0 0.75 0 0.25] CT
1 GC
N
/f-174876628{881 538 M
1398 538 L
1398 45 L
881 45 L
cp}def
f-174876628
f
GR
GS
[0.75 0 0 0.75 0 0.25] CT
0.775 GC
[1 3] 0 setdash
2 LJ
0.667 LW
N
893.925 538 M
893.925 45 L
S
GR
GS
[0.75 0 0 0.75 0 0.25] CT
0.775 GC
[1 3] 0 setdash
2 LJ
0.667 LW
N
906.85 538 M
906.85 45 L
S
GR
GS
[0.75 0 0 0.75 0 0.25] CT
0.775 GC
[1 3] 0 setdash
2 LJ
0.667 LW
N
919.775 538 M
919.775 45 L
S
GR
GS
[0.75 0 0 0.75 0 0.25] CT
0.775 GC
[1 3] 0 setdash
2 LJ
0.667 LW
N
945.625 538 M
945.625 45 L
S
GR
GS
[0.75 0 0 0.75 0 0.25] CT
0.775 GC
[1 3] 0 setdash
2 LJ
0.667 LW
N
958.55 538 M
958.55 45 L
S
GR
GS
[0.75 0 0 0.75 0 0.25] CT
0.775 GC
[1 3] 0 setdash
2 LJ
0.667 LW
N
971.475 538 M
971.475 45 L
S
GR
GS
[0.75 0 0 0.75 0 0.25] CT
0.775 GC
[1 3] 0 setdash
2 LJ
0.667 LW
N
997.325 538 M
997.325 45 L
S
GR
GS
[0.75 0 0 0.75 0 0.25] CT
0.775 GC
[1 3] 0 setdash
2 LJ
0.667 LW
N
1010.25 538 M
1010.25 45 L
S
GR
GS
[0.75 0 0 0.75 0 0.25] CT
0.775 GC
[1 3] 0 setdash
2 LJ
0.667 LW
N
1023.175 538 M
1023.175 45 L
S
GR
GS
[0.75 0 0 0.75 0 0.25] CT
0.775 GC
[1 3] 0 setdash
2 LJ
0.667 LW
N
1049.025 538 M
1049.025 45 L
S
GR
GS
[0.75 0 0 0.75 0 0.25] CT
0.775 GC
[1 3] 0 setdash
2 LJ
0.667 LW
N
1061.95 538 M
1061.95 45 L
S
GR
GS
[0.75 0 0 0.75 0 0.25] CT
0.775 GC
[1 3] 0 setdash
2 LJ
0.667 LW
N
1074.875 538 M
1074.875 45 L
S
GR
GS
[0.75 0 0 0.75 0 0.25] CT
0.775 GC
[1 3] 0 setdash
2 LJ
0.667 LW
N
1100.725 538 M
1100.725 45 L
S
GR
GS
[0.75 0 0 0.75 0 0.25] CT
0.775 GC
[1 3] 0 setdash
2 LJ
0.667 LW
N
1113.65 538 M
1113.65 45 L
S
GR
GS
[0.75 0 0 0.75 0 0.25] CT
0.775 GC
[1 3] 0 setdash
2 LJ
0.667 LW
N
1126.575 538 M
1126.575 45 L
S
GR
GS
[0.75 0 0 0.75 0 0.25] CT
0.775 GC
[1 3] 0 setdash
2 LJ
0.667 LW
N
1152.425 538 M
1152.425 45 L
S
GR
GS
[0.75 0 0 0.75 0 0.25] CT
0.775 GC
[1 3] 0 setdash
2 LJ
0.667 LW
N
1165.35 538 M
1165.35 45 L
S
GR
GS
[0.75 0 0 0.75 0 0.25] CT
0.775 GC
[1 3] 0 setdash
2 LJ
0.667 LW
N
1178.275 538 M
1178.275 45 L
S
GR
GS
[0.75 0 0 0.75 0 0.25] CT
0.775 GC
[1 3] 0 setdash
2 LJ
0.667 LW
N
1204.125 538 M
1204.125 45 L
S
GR
GS
[0.75 0 0 0.75 0 0.25] CT
0.775 GC
[1 3] 0 setdash
2 LJ
0.667 LW
N
1217.05 538 M
1217.05 45 L
S
GR
GS
[0.75 0 0 0.75 0 0.25] CT
0.775 GC
[1 3] 0 setdash
2 LJ
0.667 LW
N
1229.975 538 M
1229.975 45 L
S
GR
GS
[0.75 0 0 0.75 0 0.25] CT
0.775 GC
[1 3] 0 setdash
2 LJ
0.667 LW
N
1255.825 538 M
1255.825 45 L
S
GR
GS
[0.75 0 0 0.75 0 0.25] CT
0.775 GC
[1 3] 0 setdash
2 LJ
0.667 LW
N
1268.75 538 M
1268.75 45 L
S
GR
GS
[0.75 0 0 0.75 0 0.25] CT
0.775 GC
[1 3] 0 setdash
2 LJ
0.667 LW
N
1281.675 538 M
1281.675 45 L
S
GR
GS
[0.75 0 0 0.75 0 0.25] CT
0.775 GC
[1 3] 0 setdash
2 LJ
0.667 LW
N
1307.525 538 M
1307.525 45 L
S
GR
GS
[0.75 0 0 0.75 0 0.25] CT
0.775 GC
[1 3] 0 setdash
2 LJ
0.667 LW
N
1320.45 538 M
1320.45 45 L
S
GR
GS
[0.75 0 0 0.75 0 0.25] CT
0.775 GC
[1 3] 0 setdash
2 LJ
0.667 LW
N
1333.375 538 M
1333.375 45 L
S
GR
GS
[0.75 0 0 0.75 0 0.25] CT
0.775 GC
[1 3] 0 setdash
2 LJ
0.667 LW
N
1359.225 538 M
1359.225 45 L
S
GR
GS
[0.75 0 0 0.75 0 0.25] CT
0.775 GC
[1 3] 0 setdash
2 LJ
0.667 LW
N
1372.15 538 M
1372.15 45 L
S
GR
GS
[0.75 0 0 0.75 0 0.25] CT
0.775 GC
[1 3] 0 setdash
2 LJ
0.667 LW
N
1385.075 538 M
1385.075 45 L
S
GR
GS
[0.75 0 0 0.75 0 0.25] CT
0.873 GC
1 LJ
0.667 LW
N
881 538 M
881 45 L
S
GR
GS
[0.75 0 0 0.75 0 0.25] CT
0.873 GC
1 LJ
0.667 LW
N
932.7 538 M
932.7 45 L
S
GR
GS
[0.75 0 0 0.75 0 0.25] CT
0.873 GC
1 LJ
0.667 LW
N
984.4 538 M
984.4 45 L
S
GR
GS
[0.75 0 0 0.75 0 0.25] CT
0.873 GC
1 LJ
0.667 LW
N
1036.1 538 M
1036.1 45 L
S
GR
GS
[0.75 0 0 0.75 0 0.25] CT
0.873 GC
1 LJ
0.667 LW
N
1087.8 538 M
1087.8 45 L
S
GR
GS
[0.75 0 0 0.75 0 0.25] CT
0.873 GC
1 LJ
0.667 LW
N
1139.5 538 M
1139.5 45 L
S
GR
GS
[0.75 0 0 0.75 0 0.25] CT
0.873 GC
1 LJ
0.667 LW
N
1191.2 538 M
1191.2 45 L
S
GR
GS
[0.75 0 0 0.75 0 0.25] CT
0.873 GC
1 LJ
0.667 LW
N
1242.9 538 M
1242.9 45 L
S
GR
GS
[0.75 0 0 0.75 0 0.25] CT
0.873 GC
1 LJ
0.667 LW
N
1294.6 538 M
1294.6 45 L
S
GR
GS
[0.75 0 0 0.75 0 0.25] CT
0.873 GC
1 LJ
0.667 LW
N
1346.3 538 M
1346.3 45 L
S
GR
GS
[0.75 0 0 0.75 0 0.25] CT
0.873 GC
1 LJ
0.667 LW
N
1398 538 M
1398 45 L
S
GR
GS
[0.75 0 0 0.75 0 0.25] CT
0.775 GC
[1 3] 0 setdash
2 LJ
0.667 LW
N
1398 525.675 M
881 525.675 L
S
GR
GS
[0.75 0 0 0.75 0 0.25] CT
0.775 GC
[1 3] 0 setdash
2 LJ
0.667 LW
N
1398 513.35 M
881 513.35 L
S
GR
GS
[0.75 0 0 0.75 0 0.25] CT
0.775 GC
[1 3] 0 setdash
2 LJ
0.667 LW
N
1398 501.025 M
881 501.025 L
S
GR
GS
[0.75 0 0 0.75 0 0.25] CT
0.775 GC
[1 3] 0 setdash
2 LJ
0.667 LW
N
1398 488.7 M
881 488.7 L
S
GR
GS
[0.75 0 0 0.75 0 0.25] CT
0.775 GC
[1 3] 0 setdash
2 LJ
0.667 LW
N
1398 464.05 M
881 464.05 L
S
GR
GS
[0.75 0 0 0.75 0 0.25] CT
0.775 GC
[1 3] 0 setdash
2 LJ
0.667 LW
N
1398 451.725 M
881 451.725 L
S
GR
GS
[0.75 0 0 0.75 0 0.25] CT
0.775 GC
[1 3] 0 setdash
2 LJ
0.667 LW
N
1398 439.4 M
881 439.4 L
S
GR
GS
[0.75 0 0 0.75 0 0.25] CT
0.775 GC
[1 3] 0 setdash
2 LJ
0.667 LW
N
1398 427.075 M
881 427.075 L
S
GR
GS
[0.75 0 0 0.75 0 0.25] CT
0.775 GC
[1 3] 0 setdash
2 LJ
0.667 LW
N
1398 402.425 M
881 402.425 L
S
GR
GS
[0.75 0 0 0.75 0 0.25] CT
0.775 GC
[1 3] 0 setdash
2 LJ
0.667 LW
N
1398 390.1 M
881 390.1 L
S
GR
GS
[0.75 0 0 0.75 0 0.25] CT
0.775 GC
[1 3] 0 setdash
2 LJ
0.667 LW
N
1398 377.775 M
881 377.775 L
S
GR
GS
[0.75 0 0 0.75 0 0.25] CT
0.775 GC
[1 3] 0 setdash
2 LJ
0.667 LW
N
1398 365.45 M
881 365.45 L
S
GR
GS
[0.75 0 0 0.75 0 0.25] CT
0.775 GC
[1 3] 0 setdash
2 LJ
0.667 LW
N
1398 340.8 M
881 340.8 L
S
GR
GS
[0.75 0 0 0.75 0 0.25] CT
0.775 GC
[1 3] 0 setdash
2 LJ
0.667 LW
N
1398 328.475 M
881 328.475 L
S
GR
GS
[0.75 0 0 0.75 0 0.25] CT
0.775 GC
[1 3] 0 setdash
2 LJ
0.667 LW
N
1398 316.15 M
881 316.15 L
S
GR
GS
[0.75 0 0 0.75 0 0.25] CT
0.775 GC
[1 3] 0 setdash
2 LJ
0.667 LW
N
1398 303.825 M
881 303.825 L
S
GR
GS
[0.75 0 0 0.75 0 0.25] CT
0.775 GC
[1 3] 0 setdash
2 LJ
0.667 LW
N
1398 279.175 M
881 279.175 L
S
GR
GS
[0.75 0 0 0.75 0 0.25] CT
0.775 GC
[1 3] 0 setdash
2 LJ
0.667 LW
N
1398 266.85 M
881 266.85 L
S
GR
GS
[0.75 0 0 0.75 0 0.25] CT
0.775 GC
[1 3] 0 setdash
2 LJ
0.667 LW
N
1398 254.525 M
881 254.525 L
S
GR
GS
[0.75 0 0 0.75 0 0.25] CT
0.775 GC
[1 3] 0 setdash
2 LJ
0.667 LW
N
1398 242.2 M
881 242.2 L
S
GR
GS
[0.75 0 0 0.75 0 0.25] CT
0.775 GC
[1 3] 0 setdash
2 LJ
0.667 LW
N
1398 217.55 M
881 217.55 L
S
GR
GS
[0.75 0 0 0.75 0 0.25] CT
0.775 GC
[1 3] 0 setdash
2 LJ
0.667 LW
N
1398 205.225 M
881 205.225 L
S
GR
GS
[0.75 0 0 0.75 0 0.25] CT
0.775 GC
[1 3] 0 setdash
2 LJ
0.667 LW
N
1398 192.9 M
881 192.9 L
S
GR
GS
[0.75 0 0 0.75 0 0.25] CT
0.775 GC
[1 3] 0 setdash
2 LJ
0.667 LW
N
1398 180.575 M
881 180.575 L
S
GR
GS
[0.75 0 0 0.75 0 0.25] CT
0.775 GC
[1 3] 0 setdash
2 LJ
0.667 LW
N
1398 155.925 M
881 155.925 L
S
GR
GS
[0.75 0 0 0.75 0 0.25] CT
0.775 GC
[1 3] 0 setdash
2 LJ
0.667 LW
N
1398 143.6 M
881 143.6 L
S
GR
GS
[0.75 0 0 0.75 0 0.25] CT
0.775 GC
[1 3] 0 setdash
2 LJ
0.667 LW
N
1398 131.275 M
881 131.275 L
S
GR
GS
[0.75 0 0 0.75 0 0.25] CT
0.775 GC
[1 3] 0 setdash
2 LJ
0.667 LW
N
1398 118.95 M
881 118.95 L
S
GR
GS
[0.75 0 0 0.75 0 0.25] CT
0.775 GC
[1 3] 0 setdash
2 LJ
0.667 LW
N
1398 94.3 M
881 94.3 L
S
GR
GS
[0.75 0 0 0.75 0 0.25] CT
0.775 GC
[1 3] 0 setdash
2 LJ
0.667 LW
N
1398 81.975 M
881 81.975 L
S
GR
GS
[0.75 0 0 0.75 0 0.25] CT
0.775 GC
[1 3] 0 setdash
2 LJ
0.667 LW
N
1398 69.65 M
881 69.65 L
S
GR
GS
[0.75 0 0 0.75 0 0.25] CT
0.775 GC
[1 3] 0 setdash
2 LJ
0.667 LW
N
1398 57.325 M
881 57.325 L
S
GR
GS
[0.75 0 0 0.75 0 0.25] CT
0.873 GC
1 LJ
0.667 LW
N
1398 538 M
881 538 L
S
GR
GS
[0.75 0 0 0.75 0 0.25] CT
0.873 GC
1 LJ
0.667 LW
N
1398 476.375 M
881 476.375 L
S
GR
GS
[0.75 0 0 0.75 0 0.25] CT
0.873 GC
1 LJ
0.667 LW
N
1398 414.75 M
881 414.75 L
S
GR
GS
[0.75 0 0 0.75 0 0.25] CT
0.873 GC
1 LJ
0.667 LW
N
1398 353.125 M
881 353.125 L
S
GR
GS
[0.75 0 0 0.75 0 0.25] CT
0.873 GC
1 LJ
0.667 LW
N
1398 291.5 M
881 291.5 L
S
GR
GS
[0.75 0 0 0.75 0 0.25] CT
0.873 GC
1 LJ
0.667 LW
N
1398 229.875 M
881 229.875 L
S
GR
GS
[0.75 0 0 0.75 0 0.25] CT
0.873 GC
1 LJ
0.667 LW
N
1398 168.25 M
881 168.25 L
S
GR
GS
[0.75 0 0 0.75 0 0.25] CT
0.873 GC
1 LJ
0.667 LW
N
1398 106.625 M
881 106.625 L
S
GR
GS
[0.75 0 0 0.75 0 0.25] CT
0.873 GC
1 LJ
0.667 LW
N
1398 45 M
881 45 L
S
GR
GS
[0.75 0 0 0.75 0 0.25] CT
0.149 GC
2 setlinecap
1 LJ
0.667 LW
N
881 538 M
1398 538 L
S
GR
GS
[0.75 0 0 0.75 0 0.25] CT
0.149 GC
2 setlinecap
1 LJ
0.667 LW
N
881 538 M
881 532.83 L
S
GR
GS
[0.75 0 0 0.75 0 0.25] CT
0.149 GC
2 setlinecap
1 LJ
0.667 LW
N
932.7 538 M
932.7 532.83 L
S
GR
GS
[0.75 0 0 0.75 0 0.25] CT
0.149 GC
2 setlinecap
1 LJ
0.667 LW
N
984.4 538 M
984.4 532.83 L
S
GR
GS
[0.75 0 0 0.75 0 0.25] CT
0.149 GC
2 setlinecap
1 LJ
0.667 LW
N
1036.1 538 M
1036.1 532.83 L
S
GR
GS
[0.75 0 0 0.75 0 0.25] CT
0.149 GC
2 setlinecap
1 LJ
0.667 LW
N
1087.8 538 M
1087.8 532.83 L
S
GR
GS
[0.75 0 0 0.75 0 0.25] CT
0.149 GC
2 setlinecap
1 LJ
0.667 LW
N
1139.5 538 M
1139.5 532.83 L
S
GR
GS
[0.75 0 0 0.75 0 0.25] CT
0.149 GC
2 setlinecap
1 LJ
0.667 LW
N
1191.2 538 M
1191.2 532.83 L
S
GR
GS
[0.75 0 0 0.75 0 0.25] CT
0.149 GC
2 setlinecap
1 LJ
0.667 LW
N
1242.9 538 M
1242.9 532.83 L
S
GR
GS
[0.75 0 0 0.75 0 0.25] CT
0.149 GC
2 setlinecap
1 LJ
0.667 LW
N
1294.6 538 M
1294.6 532.83 L
S
GR
GS
[0.75 0 0 0.75 0 0.25] CT
0.149 GC
2 setlinecap
1 LJ
0.667 LW
N
1346.3 538 M
1346.3 532.83 L
S
GR
GS
[0.75 0 0 0.75 0 0.25] CT
0.149 GC
2 setlinecap
1 LJ
0.667 LW
N
1398 538 M
1398 532.83 L
S
GR
GS
[0.75 0 0 0.75 660.75 407.74998] CT
0.149 GC
/Helvetica 13.333 F
GS
[1 0 0 1 0 0] CT
-4 14 moveto 
1 -1 scale
(0) t 
GR
GR
GS
[0.75 0 0 0.75 699.52501 407.74998] CT
0.149 GC
/Helvetica 13.333 F
GS
[1 0 0 1 0 0] CT
-9.5 14 moveto 
1 -1 scale
(0.2) t 
GR
GR
GS
[0.75 0 0 0.75 738.30002 407.74998] CT
0.149 GC
/Helvetica 13.333 F
GS
[1 0 0 1 0 0] CT
-9.5 14 moveto 
1 -1 scale
(0.4) t 
GR
GR
GS
[0.75 0 0 0.75 777.07498 407.74998] CT
0.149 GC
/Helvetica 13.333 F
GS
[1 0 0 1 0 0] CT
-9.5 14 moveto 
1 -1 scale
(0.6) t 
GR
GR
GS
[0.75 0 0 0.75 815.85004 407.74998] CT
0.149 GC
/Helvetica 13.333 F
GS
[1 0 0 1 0 0] CT
-9.5 14 moveto 
1 -1 scale
(0.8) t 
GR
GR
GS
[0.75 0 0 0.75 854.625 407.74998] CT
0.149 GC
/Helvetica 13.333 F
GS
[1 0 0 1 0 0] CT
-4 14 moveto 
1 -1 scale
(1) t 
GR
GR
GS
[0.75 0 0 0.75 893.40005 407.74998] CT
0.149 GC
/Helvetica 13.333 F
GS
[1 0 0 1 0 0] CT
-9.5 14 moveto 
1 -1 scale
(1.2) t 
GR
GR
GS
[0.75 0 0 0.75 932.17502 407.74998] CT
0.149 GC
/Helvetica 13.333 F
GS
[1 0 0 1 0 0] CT
-9.5 14 moveto 
1 -1 scale
(1.4) t 
GR
GR
GS
[0.75 0 0 0.75 970.94998 407.74998] CT
0.149 GC
/Helvetica 13.333 F
GS
[1 0 0 1 0 0] CT
-9.5 14 moveto 
1 -1 scale
(1.6) t 
GR
GR
GS
[0.75 0 0 0.75 1009.72495 407.74998] CT
0.149 GC
/Helvetica 13.333 F
GS
[1 0 0 1 0 0] CT
-9.5 14 moveto 
1 -1 scale
(1.8) t 
GR
GR
GS
[0.75 0 0 0.75 1048.5 407.74998] CT
0.149 GC
/Helvetica 13.333 F
GS
[1 0 0 1 0 0] CT
-4 14 moveto 
1 -1 scale
(2) t 
GR
GR
GS
[0.75 0 0 0.75 0 0.25] CT
0.149 GC
2 setlinecap
1 LJ
0.667 LW
N
881 538 M
881 45 L
S
GR
GS
[0.75 0 0 0.75 0 0.25] CT
0.149 GC
2 setlinecap
1 LJ
0.667 LW
N
881 538 M
886.17 538 L
S
GR
GS
[0.75 0 0 0.75 0 0.25] CT
0.149 GC
2 setlinecap
1 LJ
0.667 LW
N
881 476.375 M
886.17 476.375 L
S
GR
GS
[0.75 0 0 0.75 0 0.25] CT
0.149 GC
2 setlinecap
1 LJ
0.667 LW
N
881 414.75 M
886.17 414.75 L
S
GR
GS
[0.75 0 0 0.75 0 0.25] CT
0.149 GC
2 setlinecap
1 LJ
0.667 LW
N
881 353.125 M
886.17 353.125 L
S
GR
GS
[0.75 0 0 0.75 0 0.25] CT
0.149 GC
2 setlinecap
1 LJ
0.667 LW
N
881 291.5 M
886.17 291.5 L
S
GR
GS
[0.75 0 0 0.75 0 0.25] CT
0.149 GC
2 setlinecap
1 LJ
0.667 LW
N
881 229.875 M
886.17 229.875 L
S
GR
GS
[0.75 0 0 0.75 0 0.25] CT
0.149 GC
2 setlinecap
1 LJ
0.667 LW
N
881 168.25 M
886.17 168.25 L
S
GR
GS
[0.75 0 0 0.75 0 0.25] CT
0.149 GC
2 setlinecap
1 LJ
0.667 LW
N
881 106.625 M
886.17 106.625 L
S
GR
GS
[0.75 0 0 0.75 0 0.25] CT
0.149 GC
2 setlinecap
1 LJ
0.667 LW
N
881 45 M
886.17 45 L
S
GR
GS
[0.75 0 0 0.75 656.75002 403.75] CT
0.149 GC
/Helvetica 13.333 F
GS
[1 0 0 1 0 0] CT
-26 5.5 moveto 
1 -1 scale
(0.75) t 
GR
GR
GS
[0.75 0 0 0.75 656.75002 357.53125] CT
0.149 GC
/Helvetica 13.333 F
GS
[1 0 0 1 0 0] CT
-19 5.5 moveto 
1 -1 scale
(0.8) t 
GR
GR
GS
[0.75 0 0 0.75 656.75002 311.31248] CT
0.149 GC
/Helvetica 13.333 F
GS
[1 0 0 1 0 0] CT
-26 5.5 moveto 
1 -1 scale
(0.85) t 
GR
GR
GS
[0.75 0 0 0.75 656.75002 265.09377] CT
0.149 GC
/Helvetica 13.333 F
GS
[1 0 0 1 0 0] CT
-19 5.5 moveto 
1 -1 scale
(0.9) t 
GR
GR
GS
[0.75 0 0 0.75 656.75002 218.875] CT
0.149 GC
/Helvetica 13.333 F
GS
[1 0 0 1 0 0] CT
-26 5.5 moveto 
1 -1 scale
(0.95) t 
GR
GR
GS
[0.75 0 0 0.75 656.75002 172.65625] CT
0.149 GC
/Helvetica 13.333 F
GS
[1 0 0 1 0 0] CT
-8 5.5 moveto 
1 -1 scale
(1) t 
GR
GR
GS
[0.75 0 0 0.75 656.75002 126.43755] CT
0.149 GC
/Helvetica 13.333 F
GS
[1 0 0 1 0 0] CT
-26 5.5 moveto 
1 -1 scale
(1.05) t 
GR
GR
GS
[0.75 0 0 0.75 656.75002 80.21873] CT
0.149 GC
/Helvetica 13.333 F
GS
[1 0 0 1 0 0] CT
-19 5.5 moveto 
1 -1 scale
(1.1) t 
GR
GR
GS
[0.75 0 0 0.75 656.75002 34.00002] CT
0.149 GC
/Helvetica 13.333 F
GS
[1 0 0 1 0 0] CT
-26 5.5 moveto 
1 -1 scale
(1.15) t 
GR
GR
GS
[0.75 0 0 0.75 854.62582 31.93752] CT
/Helvetica-Bold 14.667 F
GS
[1 0 0 1 0 0] CT
-43.5 -4 moveto 
1 -1 scale
(Noise Model) t 
GR
GR
GS
[0.75 0 0 0.75 0 0.25] CT
1 0 0 RC
1 LJ
4 LW
N
881 247.073 M
881 285.887 L
S
GR
GS
[0.75 0 0 0.75 0 0.25] CT
1 0 0 RC
1 LJ
4 LW
N
1139.5 284.465 M
1139.5 494.985 L
S
GR
GS
[0.75 0 0 0.75 0 0.25] CT
1 0 0 RC
1 LJ
4 LW
N
1398 291.463 M
1398 512.026 L
S
GR
GS
[0.75 0 0 0.75 0 0.25] CT
1 0 0 RC
1 LJ
4 LW
N
881 247.073 M
881 208.26 L
S
GR
GS
[0.75 0 0 0.75 0 0.25] CT
1 0 0 RC
1 LJ
4 LW
N
1139.5 284.465 M
1139.5 73.946 L
S
GR
GS
[0.75 0 0 0.75 0 0.25] CT
1 0 0 RC
1 LJ
4 LW
N
1398 291.463 M
1398 70.9 L
S
GR
GS
[0.75 0 0 0.75 0 0.25] CT
1 0 0 RC
1 LJ
4 LW
N
881 247.073 M
1139.5 284.465 L
1398 291.463 L
S
GR
GS
[0.75 0 0 0.75 660.75 214.66531] CT
1 0 0 RC
N
f-401390582
f
GR
GS
[0.75 0 0 0.75 660.75 214.66531] CT
1 0 0 RC
10.0 ML
4 LW
N
-4 0 M
4 0 L
S
GR
GS
[0.75 0 0 0.75 854.625 371.48897] CT
1 0 0 RC
N
f-401390582
f
GR
GS
[0.75 0 0 0.75 854.625 371.48897] CT
1 0 0 RC
10.0 ML
4 LW
N
-4 0 M
4 0 L
S
GR
GS
[0.75 0 0 0.75 1048.5 384.26918] CT
1 0 0 RC
N
f-401390582
f
GR
GS
[0.75 0 0 0.75 1048.5 384.26918] CT
1 0 0 RC
10.0 ML
4 LW
N
-4 0 M
4 0 L
S
GR
GS
[0.75 0 0 0.75 660.75 156.44482] CT
1 0 0 RC
N
f-401390582
f
GR
GS
[0.75 0 0 0.75 660.75 156.44482] CT
1 0 0 RC
10.0 ML
4 LW
N
-4 0 M
4 0 L
S
GR
GS
[0.75 0 0 0.75 854.625 55.70914] CT
1 0 0 RC
N
f-401390582
f
GR
GS
[0.75 0 0 0.75 854.625 55.70914] CT
1 0 0 RC
10.0 ML
4 LW
N
-4 0 M
4 0 L
S
GR
GS
[0.75 0 0 0.75 1048.5 53.42504] CT
1 0 0 RC
N
f-401390582
f
GR
GS
[0.75 0 0 0.75 1048.5 53.42504] CT
1 0 0 RC
10.0 ML
4 LW
N
-4 0 M
4 0 L
S
GR
GS
[0.75 0 0 0.75 0 0.25] CT
0 0 1 RC
1 LJ
2.667 LW
N
881 247.073 M
881 285.887 L
S
GR
GS
[0.75 0 0 0.75 0 0.25] CT
0 0 1 RC
1 LJ
2.667 LW
N
1139.5 257.444 M
1139.5 322.967 L
S
GR
GS
[0.75 0 0 0.75 0 0.25] CT
0 0 1 RC
1 LJ
2.667 LW
N
1398 255.038 M
1398 304.412 L
S
GR
GS
[0.75 0 0 0.75 0 0.25] CT
0 0 1 RC
1 LJ
2.667 LW
N
881 247.073 M
881 208.26 L
S
GR
GS
[0.75 0 0 0.75 0 0.25] CT
0 0 1 RC
1 LJ
2.667 LW
N
1139.5 257.444 M
1139.5 191.922 L
S
GR
GS
[0.75 0 0 0.75 0 0.25] CT
0 0 1 RC
1 LJ
2.667 LW
N
1398 255.038 M
1398 205.664 L
S
GR
GS
[0.75 0 0 0.75 0 0.25] CT
0 0 1 RC
1 LJ
2.667 LW
N
881 247.073 M
1139.5 257.444 L
1398 255.038 L
S
GR
GS
[0.75 0 0 0.75 660.75 214.66531] CT
0 0 1 RC
N
f-401390582
f
GR
GS
[0.75 0 0 0.75 660.75 214.66531] CT
0 0 1 RC
10.0 ML
2.667 LW
N
-4 0 M
4 0 L
S
GR
GS
[0.75 0 0 0.75 854.625 242.47489] CT
0 0 1 RC
N
f-401390582
f
GR
GS
[0.75 0 0 0.75 854.625 242.47489] CT
0 0 1 RC
10.0 ML
2.667 LW
N
-4 0 M
4 0 L
S
GR
GS
[0.75 0 0 0.75 1048.5 228.55881] CT
0 0 1 RC
N
f-401390582
f
GR
GS
[0.75 0 0 0.75 1048.5 228.55881] CT
0 0 1 RC
10.0 ML
2.667 LW
N
-4 0 M
4 0 L
S
GR
GS
[0.75 0 0 0.75 660.75 156.44482] CT
0 0 1 RC
N
f-401390582
f
GR
GS
[0.75 0 0 0.75 660.75 156.44482] CT
0 0 1 RC
10.0 ML
2.667 LW
N
-4 0 M
4 0 L
S
GR
GS
[0.75 0 0 0.75 854.625 144.19135] CT
0 0 1 RC
N
f-401390582
f
GR
GS
[0.75 0 0 0.75 854.625 144.19135] CT
0 0 1 RC
10.0 ML
2.667 LW
N
-4 0 M
4 0 L
S
GR
GS
[0.75 0 0 0.75 1048.5 154.49792] CT
0 0 1 RC
N
f-401390582
f
GR
GS
[0.75 0 0 0.75 1048.5 154.49792] CT
0 0 1 RC
10.0 ML
2.667 LW
N
-4 0 M
4 0 L
S
GR
GS
[0.75 0 0 0.75 0 0.25] CT
0 1 0 RC
1 LJ
1.333 LW
N
881 247.073 M
881 285.887 L
S
GR
GS
[0.75 0 0 0.75 0 0.25] CT
0 1 0 RC
1 LJ
1.333 LW
N
1139.5 252.479 M
1139.5 302.028 L
S
GR
GS
[0.75 0 0 0.75 0 0.25] CT
0 1 0 RC
1 LJ
1.333 LW
N
1398 253.861 M
1398 306.763 L
S
GR
GS
[0.75 0 0 0.75 0 0.25] CT
0 1 0 RC
1 LJ
1.333 LW
N
881 247.073 M
881 208.26 L
S
GR
GS
[0.75 0 0 0.75 0 0.25] CT
0 1 0 RC
1 LJ
1.333 LW
N
1139.5 252.479 M
1139.5 202.93 L
S
GR
GS
[0.75 0 0 0.75 0 0.25] CT
0 1 0 RC
1 LJ
1.333 LW
N
1398 253.861 M
1398 200.958 L
S
GR
GS
[0.75 0 0 0.75 0 0.25] CT
0 1 0 RC
1 LJ
1.333 LW
N
881 247.073 M
1139.5 252.479 L
1398 253.861 L
S
GR
GS
[0.75 0 0 0.75 660.75 214.66531] CT
0 1 0 RC
N
f-401390582
f
GR
GS
[0.75 0 0 0.75 660.75 214.66531] CT
0 1 0 RC
10.0 ML
1.333 LW
N
-4 0 M
4 0 L
S
GR
GS
[0.75 0 0 0.75 854.625 226.77065] CT
0 1 0 RC
N
f-401390582
f
GR
GS
[0.75 0 0 0.75 854.625 226.77065] CT
0 1 0 RC
10.0 ML
1.333 LW
N
-4 0 M
4 0 L
S
GR
GS
[0.75 0 0 0.75 1048.5 230.32253] CT
0 1 0 RC
N
f-401390582
f
GR
GS
[0.75 0 0 0.75 1048.5 230.32253] CT
0 1 0 RC
10.0 ML
1.333 LW
N
-4 0 M
4 0 L
S
GR
GS
[0.75 0 0 0.75 660.75 156.44482] CT
0 1 0 RC
N
f-401390582
f
GR
GS
[0.75 0 0 0.75 660.75 156.44482] CT
0 1 0 RC
10.0 ML
1.333 LW
N
-4 0 M
4 0 L
S
GR
GS
[0.75 0 0 0.75 854.625 152.44743] CT
0 1 0 RC
N
f-401390582
f
GR
GS
[0.75 0 0 0.75 854.625 152.44743] CT
0 1 0 RC
10.0 ML
1.333 LW
N
-4 0 M
4 0 L
S
GR
GS
[0.75 0 0 0.75 1048.5 150.9684] CT
0 1 0 RC
N
f-401390582
f
GR
GS
[0.75 0 0 0.75 1048.5 150.9684] CT
0 1 0 RC
10.0 ML
1.333 LW
N
-4 0 M
4 0 L
S
GR
GS
[0.75 0 0 0.75 0 0.25] CT
1 GC
N
/f-302004274{1370 422 M
1370 369 L
1175 369 L
1175 422 L
cp}def
f-302004274
f
GR
GS
[0.75 0 0 0.75 916.5 284.5] CT
/Helvetica 12 F
GS
[1 0 0 1 0 0] CT
0 5 moveto 
1 -1 scale
(Feature Added) t 
GR
GR
GS
[0.75 0 0 0.75 0 0.25] CT
1 0 0 RC
1 LJ
2.667 LW
N
1179 379 M
1219 379 L
S
GR
GS
[0.75 0 0 0.75 899.25 289] CT
1 0 0 RC
N
f-401390582
f
GR
GS
[0.75 0 0 0.75 899.25 289] CT
1 0 0 RC
10.0 ML
2.667 LW
N
-4 0 M
4 0 L
S
GR
GS
[0.75 0 0 0.75 899.25 280] CT
1 0 0 RC
N
f-401390582
f
GR
GS
[0.75 0 0 0.75 899.25 280] CT
1 0 0 RC
10.0 ML
2.667 LW
N
-4 0 M
4 0 L
S
GR
GS
[0.75 0 0 0.75 0 0.25] CT
1 0 0 RC
1 LJ
2.667 LW
N
1199 385 M
1199 373 L
S
GR
GS
[0.75 0 0 0.75 916.5 296.875] CT
/Helvetica 12 F
GS
[1 0 0 1 0 0] CT
0 5 moveto 
1 -1 scale
(Blur Feature) t 
GR
GR
GS
[0.75 0 0 0.75 0 0.25] CT
0 0 1 RC
1 LJ
2.667 LW
N
1179 395.5 M
1219 395.5 L
S
GR
GS
[0.75 0 0 0.75 899.25 301.375] CT
0 0 1 RC
N
f-401390582
f
GR
GS
[0.75 0 0 0.75 899.25 301.375] CT
0 0 1 RC
10.0 ML
2.667 LW
N
-4 0 M
4 0 L
S
GR
GS
[0.75 0 0 0.75 899.25 292.375] CT
0 0 1 RC
N
f-401390582
f
GR
GS
[0.75 0 0 0.75 899.25 292.375] CT
0 0 1 RC
10.0 ML
2.667 LW
N
-4 0 M
4 0 L
S
GR
GS
[0.75 0 0 0.75 0 0.25] CT
0 0 1 RC
1 LJ
2.667 LW
N
1199 401.5 M
1199 389.5 L
S
GR
GS
[0.75 0 0 0.75 916.5 309.25] CT
/Helvetica 12 F
GS
[1 0 0 1 0 0] CT
0 5 moveto 
1 -1 scale
(Blur Cluster based Feature) t 
GR
GR
GS
[0.75 0 0 0.75 0 0.25] CT
0 1 0 RC
1 LJ
1.333 LW
N
1179 412 M
1219 412 L
S
GR
GS
[0.75 0 0 0.75 899.25 313.75] CT
0 1 0 RC
N
f-401390582
f
GR
GS
[0.75 0 0 0.75 899.25 313.75] CT
0 1 0 RC
10.0 ML
1.333 LW
N
-4 0 M
4 0 L
S
GR
GS
[0.75 0 0 0.75 899.25 304.75] CT
0 1 0 RC
N
f-401390582
f
GR
GS
[0.75 0 0 0.75 899.25 304.75] CT
0 1 0 RC
10.0 ML
1.333 LW
N
-4 0 M
4 0 L
S
GR
GS
[0.75 0 0 0.75 0 0.25] CT
0 1 0 RC
1 LJ
1.333 LW
N
1199 418 M
1199 406 L
S
GR
GS
[0.75 0 0 0.75 0 0.25] CT
0.149 GC
10.0 ML
0.667 LW
N
1175 422 M
1175 369 L
1370 369 L
1370 422 L
cp
S
GR
GS
[0.75 0 0 0.75 599.62541 421.50002] CT
0.149 GC
/Helvetica 14.667 F
GS
[1 0 0 1 0 0] CT
-183 15 moveto 
1 -1 scale
(Noise Strength: 0- No Noise, 1- Half Noise, 2- Full Noise) t 
GR
GR
GS
[0.75 0 0 0.75 599.62541 421.50002] CT
0.149 GC
/Helvetica 14.667 F
GS
[1 0 0 1 0 0] CT
-139 34 moveto 
1 -1 scale
(Dataset: Synthetic\(Gaussian mixed model\)) t 
GR
GR
GS
[0 -0.75 0.75 0 129.5 218.87482] CT
0 0.447 0.741 RC
/Helvetica 14.667 F
GS
[1 0 0 1 0 0] CT
-41 -4 moveto 
1 -1 scale
(RAND Index) t 
GR
GR
%%Trailer
%%Pages: 1
%%EOF
