\relax 
\citation{*}
\bibstyle{unsrt}
\bibdata{references}
\bibcite{kim2005missing}{{1}{}{{}}{{}}}
\bibcite{li2006sentence}{{2}{}{{}}{{}}}
\bibcite{li2009adaptive}{{3}{}{{}}{{}}}
\bibcite{skalak1994prototype}{{4}{}{{}}{{}}}
\bibcite{yoon2007robust}{{5}{}{{}}{{}}}
\bibcite{bo2004lsimpute}{{6}{}{{}}{{}}}
\bibcite{gan2006microarray}{{7}{}{{}}{{}}}
\bibcite{ouyang2004gaussian}{{8}{}{{}}{{}}}
\bibcite{troyanskaya2001missing}{{9}{}{{}}{{}}}
\bibcite{farmer2004large}{{10}{}{{}}{{}}}
\bibcite{}{{11}{}{{}}{{}}}
\@writefile{toc}{\contentsline {section}{\numberline {1}Section 1}{1}}
\bibcite{ling2009estimation}{{12}{}{{}}{{}}}
\bibcite{pudil1994floating}{{13}{}{{}}{{}}}
\bibcite{yom2002feature}{{14}{}{{}}{{}}}
\bibcite{goyal2014improving}{{15}{}{{}}{{}}}
\bibcite{pena1999empirical}{{16}{}{{}}{{}}}
\bibcite{grung1998missing}{{17}{}{{}}{{}}}
\bibcite{little2019statistical}{{18}{}{{}}{{}}}
\bibcite{acock2005working}{{19}{}{{}}{{}}}
\bibcite{abdallah2013distance}{{20}{}{{}}{{}}}
\bibcite{eirola2013distance}{{21}{}{{}}{{}}}
\bibcite{chen2000nearest}{{22}{}{{}}{{}}}
\bibcite{beretta2016nearest}{{23}{}{{}}{{}}}
\bibcite{jonsson2004evaluation}{{24}{}{{}}{{}}}
\bibcite{wasito2005nearest}{{25}{}{{}}{{}}}
\bibcite{rubin2004multiple}{{26}{}{{}}{{}}}
\bibcite{rubin1996multiple}{{27}{}{{}}{{}}}
\bibcite{dempster1977maximum}{{28}{}{{}}{{}}}
\bibcite{van2014incomplete}{{29}{}{{}}{{}}}
\bibcite{rubin1987statistical}{{30}{}{{}}{{}}}
\bibcite{little1989analysis}{{31}{}{{}}{{}}}
\bibcite{dixon1979pattern}{{32}{}{{}}{{}}}
\bibcite{hathaway2001fuzzy}{{33}{}{{}}{{}}}
\bibcite{jing2007entropy}{{34}{}{{}}{{}}}
\bibcite{cai2005document}{{35}{}{{}}{{}}}
\bibcite{steinbach2004challenges}{{36}{}{{}}{{}}}
\bibcite{huang2008weighting}{{37}{}{{}}{{}}}
\bibcite{huang2005automated}{{38}{}{{}}{{}}}
\bibcite{chan2004optimization}{{39}{}{{}}{{}}}
\bibcite{modha2003feature}{{40}{}{{}}{{}}}
\bibcite{desarbo1984constrained}{{41}{}{{}}{{}}}
\bibcite{de1988ovwtre}{{42}{}{{}}{{}}}
\bibcite{desarbo1984synthesized}{{43}{}{{}}{{}}}
\bibcite{wettschereck1997review}{{44}{}{{}}{{}}}
\bibcite{singh2019hybridization}{{45}{}{{}}{{}}}
\bibcite{yaramakala2005speculative}{{46}{}{{}}{{}}}
\bibcite{basu2004probabilistic}{{47}{}{{}}{{}}}
\bibcite{wang2017efficient}{{48}{}{{}}{{}}}
\bibcite{yang2018semi}{{49}{}{{}}{{}}}
\bibcite{benabdeslem2013efficient}{{50}{}{{}}{{}}}
\bibcite{bilenko2004integrating}{{51}{}{{}}{{}}}
\bibcite{basu2002semi}{{52}{}{{}}{{}}}
\bibcite{8717648}{{53}{}{{}}{{}}}
\bibcite{cai2018feature}{{54}{}{{}}{{}}}
\bibcite{zhu2015unsupervised}{{55}{}{{}}{{}}}
\bibcite{lattanzi2019better}{{56}{}{{}}{{}}}
\bibcite{donoho2008fast}{{57}{}{{}}{{}}}
\bibcite{zhu2017non}{{58}{}{{}}{{}}}
\bibcite{yi2016unsupervised}{{59}{}{{}}{{}}}
\bibcite{wang2017unsupervised}{{60}{}{{}}{{}}}
\bibcite{tang2018robust}{{61}{}{{}}{{}}}
\bibcite{luo2017adaptive}{{62}{}{{}}{{}}}
\bibcite{saxena2010evolutionary}{{63}{}{{}}{{}}}
\bibcite{li2008novel}{{64}{}{{}}{{}}}
\bibcite{mitra2002unsupervised}{{65}{}{{}}{{}}}
\bibcite{kononenko1994estimating}{{66}{}{{}}{{}}}
\bibcite{dash1999handling}{{67}{}{{}}{{}}}
\bibcite{vandenbroucke2000unsupervised}{{68}{}{{}}{{}}}
\bibcite{kohavi1997wrappers}{{69}{}{{}}{{}}}
\bibcite{dy2004feature}{{70}{}{{}}{{}}}
\bibcite{fowlkes1988variable}{{71}{}{{}}{{}}}
\bibcite{carmone1999hinov}{{72}{}{{}}{{}}}
\bibcite{brusco2001variable}{{73}{}{{}}{{}}}
\bibcite{brusco2004clustering}{{74}{}{{}}{{}}}
\bibcite{stoddard1979standardization}{{75}{}{{}}{{}}}
\bibcite{mohamad2013standardization}{{76}{}{{}}{{}}}
\bibcite{ismail2017improving}{{77}{}{{}}{{}}}
\bibcite{milligan1988study}{{78}{}{{}}{{}}}
\bibcite{DillonWR1989}{{79}{}{{}}{{}}}
\bibcite{schaffer1996empirical}{{80}{}{{}}{{}}}
\bibcite{steinley2004standardizing}{{81}{}{{}}{{}}}
\bibcite{rohlf1982consensus}{{82}{}{{}}{{}}}
\bibcite{unlu2019estimating}{{83}{}{{}}{{}}}
\bibcite{alibuhtto2020distance}{{84}{}{{}}{{}}}
\bibcite{fu2020estimating}{{85}{}{{}}{{}}}
\bibcite{macqueen1967some}{{86}{}{{}}{{}}}
\bibcite{ball1965isodata}{{87}{}{{}}{{}}}
\bibcite{wishert1969mode}{{88}{}{{}}{{}}}
\bibcite{steinley2006k}{{89}{}{{}}{{}}}
\bibcite{mirkin2011choosing}{{90}{}{{}}{{}}}
\bibcite{gupta2019pk}{{91}{}{{}}{{}}}
\bibcite{negi2018k}{{92}{}{{}}{{}}}
\bibcite{stetco2015fuzzy}{{93}{}{{}}{{}}}
\bibcite{chan2017efficient}{{94}{}{{}}{{}}}
\bibcite{arthur2006k}{{95}{}{{}}{{}}}
\bibcite{wagstaff2001constrained}{{96}{}{{}}{{}}}
\bibcite{hartigan1979k}{{97}{}{{}}{{}}}
\bibcite{forgy1965cluster}{{98}{}{{}}{{}}}
\bibcite{steinley2003local}{{99}{}{{}}{{}}}
\bibcite{astrahan1970speech}{{100}{}{{}}{{}}}
\bibcite{falkenauer2001using}{{101}{}{{}}{{}}}
\bibcite{wardGrouping1963}{{102}{}{{}}{{}}}
\bibcite{milligan1980examination}{{103}{}{{}}{{}}}
\bibcite{arabie1992combinatorial}{{104}{}{{}}{{}}}
\bibcite{belbin1987use}{{105}{}{{}}{{}}}
\bibcite{milligan1980two}{{106}{}{{}}{{}}}
\bibcite{cormack1971review}{{107}{}{{}}{{}}}
\bibcite{cox1957note}{{108}{}{{}}{{}}}
\bibcite{anderberg2014cluster}{{109}{}{{}}{{}}}
\bibcite{fisher1958grouping}{{110}{}{{}}{{}}}
\bibcite{lattin2003analyzing}{{111}{}{{}}{{}}}
\bibcite{schoen2013}{{112}{}{{}}{{}}}
\bibcite{cattell1943description}{{113}{}{{}}{{}}}
\bibcite{mirkin1996mathematical}{{114}{}{{}}{{}}}
\bibcite{ball1967clustering}{{115}{}{{}}{{}}}
\bibcite{mandel1988clustering}{{116}{}{{}}{{}}}
\bibcite{driver1932quantitative}{{117}{}{{}}{{}}}
\bibcite{amorim2013constrained}{{118}{}{{}}{{}}}
\bibcite{sneath1973numerical}{{119}{}{{}}{{}}}
\bibcite{holzinger1941factor}{{120}{}{{}}{{}}}
\bibcite{duda1973pattern}{{121}{}{{}}{{}}}
\bibcite{jain1999data}{{122}{}{{}}{{}}}
\bibcite{ding2001min}{{123}{}{{}}{{}}}
\bibcite{blumenson1960derivation}{{124}{}{{}}{{}}}
\bibcite{kalnins1996superintegrability}{{125}{}{{}}{{}}}
\bibcite{myRef123}{{126}{}{{}}{{}}}
\bibcite{myRef1234}{{127}{}{{}}{{}}}
\bibcite{myRef12345}{{128}{}{{}}{{}}}
\bibcite{myRef6}{{129}{}{{}}{{}}}
\bibcite{hamerly2007pg}{{130}{}{{}}{{}}}
\bibcite{welling2006bayesian}{{131}{}{{}}{{}}}
\bibcite{marriott1971practical}{{132}{}{{}}{{}}}
\bibcite{sugar1998techniques}{{133}{}{{}}{{}}}
\bibcite{sugar1999application}{{134}{}{{}}{{}}}
\bibcite{tibshirani2001estimating}{{135}{}{{}}{{}}}
\bibcite{hamerly2004learning}{{136}{}{{}}{{}}}
\bibcite{krzanowski1988criterion}{{137}{}{{}}{{}}}
\bibcite{pelleg2000x}{{138}{}{{}}{{}}}
\bibcite{sledge2008automatic}{{139}{}{{}}{{}}}
\bibcite{bezdek2002vat}{{140}{}{{}}{{}}}
\bibcite{huband2005bigvat}{{141}{}{{}}{{}}}
\bibcite{hathaway2006scalable}{{142}{}{{}}{{}}}
\bibcite{de2012minkowski}{{143}{}{{}}{{}}}
\bibcite{sugar2003finding}{{144}{}{{}}{{}}}
\bibcite{hartigan1975clustering}{{145}{}{{}}{{}}}
\bibcite{muller2009evaluating}{{146}{}{{}}{{}}}
\bibcite{svetlova2013mfwk}{{147}{}{{}}{{}}}
\bibcite{bock2007clustering}{{148}{}{{}}{{}}}
\bibcite{chiang2007experiments}{{149}{}{{}}{{}}}
\bibcite{marroquin1993some}{{150}{}{{}}{{}}}
\bibcite{bellot1999clustering}{{151}{}{{}}{{}}}
\bibcite{steinley2007initializing}{{152}{}{{}}{{}}}
\bibcite{wang2009automatically}{{153}{}{{}}{{}}}
\bibcite{arbelaitz2013extensive}{{154}{}{{}}{{}}}
\bibcite{de2015recovering}{{155}{}{{}}{{}}}
\bibcite{witten2005data}{{156}{}{{}}{{}}}
\bibcite{banerjee2001clickstream}{{157}{}{{}}{{}}}
\bibcite{haralick1985image}{{158}{}{{}}{{}}}
\bibcite{jain1988algorithms}{{159}{}{{}}{{}}}
\bibcite{havens2013scalable}{{160}{}{{}}{{}}}
\bibcite{king1967step}{{161}{}{{}}{{}}}
\bibcite{murtagh1983survey}{{162}{}{{}}{{}}}
\bibcite{silhouteeIndex}{{163}{}{{}}{{}}}
\bibcite{chIndex}{{164}{}{{}}{{}}}
\bibcite{BMirkinCForDM2005}{{165}{}{{}}{{}}}
\bibcite{renatoWardp}{{166}{}{{}}{{}}}
\bibcite{amorimPartitionMalware}{{167}{}{{}}{{}}}
\bibcite{PangTan2014}{{168}{}{{}}{{}}}
\bibcite{dunn1974some}{{169}{}{{}}{{}}}
\bibcite{rokach2005clustering}{{170}{}{{}}{{}}}
\bibcite{de2015survey}{{171}{}{{}}{{}}}
\bibcite{mufti2005determining}{{172}{}{{}}{{}}}
\bibcite{bertrand2006loevinger}{{173}{}{{}}{{}}}
\bibcite{de2012empirical}{{174}{}{{}}{{}}}
\bibcite{mirkin2012}{{175}{}{{}}{{}}}
\bibcite{lamirel2017novel}{{176}{}{{}}{{}}}
\bibcite{lamirel2015federating}{{177}{}{{}}{{}}}
\bibcite{liu2010feature}{{178}{}{{}}{{}}}
\bibcite{chandrashekar2014survey}{{179}{}{{}}{{}}}
\bibcite{guyon2003introduction}{{180}{}{{}}{{}}}
\bibcite{alelyani2013feature}{{181}{}{{}}{{}}}
\bibcite{melvin2016uncovering}{{182}{}{{}}{{}}}
\bibcite{rousseeuw1987silhouettes}{{183}{}{{}}{{}}}
\bibcite{hubert1985comparing}{{184}{}{{}}{{}}}
\bibcite{rand1971objective}{{185}{}{{}}{{}}}
\bibcite{hastie2009elements}{{186}{}{{}}{{}}}
\bibcite{efron2004least}{{187}{}{{}}{{}}}
\bibcite{belkin2001laplacian}{{188}{}{{}}{{}}}
\bibcite{jain2010data}{{189}{}{{}}{{}}}
\bibcite{amorim2016survey}{{190}{}{{}}{{}}}
\bibcite{de2012removing}{{191}{}{{}}{{}}}
\bibcite{de2016clustering}{{192}{}{{}}{{}}}
\bibcite{von2007tutorial}{{193}{}{{}}{{}}}
\bibcite{shi2000normalized}{{194}{}{{}}{{}}}
\bibcite{ng2002spectral}{{195}{}{{}}{{}}}
\bibcite{khalid2014survey}{{196}{}{{}}{{}}}
\bibcite{bezdek2013pattern}{{197}{}{{}}{{}}}
\bibcite{liu2009adaptive}{{198}{}{{}}{{}}}
\bibcite{celebi2013comparative}{{199}{}{{}}{{}}}
\bibcite{chiang2010intelligent}{{200}{}{{}}{{}}}
\bibcite{peng2005feature}{{201}{}{{}}{{}}}
\bibcite{kira1992practical}{{202}{}{{}}{{}}}
\bibcite{mirkin2012clustering}{{203}{}{{}}{{}}}
\bibcite{de1986optimal}{{204}{}{{}}{{}}}
\bibcite{pruzansky1964talker}{{205}{}{{}}{{}}}
\bibcite{das1971feature}{{206}{}{{}}{{}}}
\bibcite{pal2004pattern}{{207}{}{{}}{{}}}
\bibcite{dy2008unsupervised}{{208}{}{{}}{{}}}
\bibcite{blake1998uci}{{209}{}{{}}{{}}}
\bibcite{kumar2015feature}{{210}{}{{}}{{}}}
\bibcite{pavlenko2003feature}{{211}{}{{}}{{}}}
\bibcite{pestov2000geometry}{{212}{}{{}}{{}}}
\bibcite{chavez2003probabilistic}{{213}{}{{}}{{}}}
\bibcite{de2012constrained}{{214}{}{{}}{{}}}
\bibcite{de2012initializations}{{215}{}{{}}{{}}}
\bibcite{ben1999clustering}{{216}{}{{}}{{}}}
\bibcite{tseng2003pre}{{217}{}{{}}{{}}}
\bibcite{hernandez1998real}{{218}{}{{}}{{}}}
\bibcite{halkidi2001clustering}{{219}{}{{}}{{}}}
\bibcite{patil2010missing}{{220}{}{{}}{{}}}
\bibcite{himmelspach2010clustering}{{221}{}{{}}{{}}}
\bibcite{santos2009use}{{222}{}{{}}{{}}}
\bibcite{wagstaff2004clustering}{{223}{}{{}}{{}}}
\bibcite{cai2010unsupervised}{{224}{}{{}}{{}}}
\bibcite{cordeiro2013removing}{{225}{}{{}}{{}}}
\bibcite{bezdek1984fcm}{{226}{}{{}}{{}}}
\bibcite{maitra2011systematic}{{227}{}{{}}{{}}}
\bibcite{frigui2004unsupervised}{{228}{}{{}}{{}}}
\bibcite{das1969method}{{229}{}{{}}{{}}}
\bibcite{xiao2011restoration}{{230}{}{{}}{{}}}
\bibcite{clason2012fitting}{{231}{}{{}}{{}}}
\bibcite{zhu2004class}{{232}{}{{}}{{}}}
\bibcite{quinlan1986effect}{{233}{}{{}}{{}}}
\bibcite{banfield1993model}{{234}{}{{}}{{}}}
\bibcite{celeux1993gaussian}{{235}{}{{}}{{}}}
\bibcite{hennig2010methods}{{236}{}{{}}{{}}}
\bibcite{sripad1977necessary}{{237}{}{{}}{{}}}
\providecommand\NAT@force@numbers{}\NAT@force@numbers
