\relax 
\providecommand\hyper@newdestlabel[2]{}
\providecommand\HyperFirstAtBeginDocument{\AtBeginDocument}
\HyperFirstAtBeginDocument{\ifx\hyper@anchor\@undefined
\global\let\oldcontentsline\contentsline
\gdef\contentsline#1#2#3#4{\oldcontentsline{#1}{#2}{#3}}
\global\let\oldnewlabel\newlabel
\gdef\newlabel#1#2{\newlabelxx{#1}#2}
\gdef\newlabelxx#1#2#3#4#5#6{\oldnewlabel{#1}{{#2}{#3}}}
\AtEndDocument{\ifx\hyper@anchor\@undefined
\let\contentsline\oldcontentsline
\let\newlabel\oldnewlabel
\fi}
\fi}
\global\let\hyper@last\relax 
\gdef\HyperFirstAtBeginDocument#1{#1}
\providecommand\HyField@AuxAddToFields[1]{}
\providecommand\HyField@AuxAddToCoFields[2]{}
\bibstyle{plainyr-rev}
\providecommand \oddpage@label [2]{}
\@writefile{toc}{\contentsline {chapter}{Abstract}{i}{Doc-Start}}
\@writefile{toc}{\contentsline {chapter}{Acknowledgement}{i}{Doc-Start}}
\@writefile{toc}{\contentsline {chapter}{Publications}{i}{Doc-Start}}
\citation{dy2004feature}
\@writefile{toc}{\contentsline {chapter}{List of Figures}{v}{chapter*.2}}
\@writefile{toc}{\contentsline {chapter}{List of Tables}{viii}{chapter*.3}}
\citation{panday2018feature}
\citation{panday2019using}
\@writefile{toc}{\contentsline {chapter}{\numberline {1}Introdution}{1}{chapter.1}}
\@writefile{lof}{\addvspace {10\p@ }}
\@writefile{lot}{\addvspace {10\p@ }}
\newlabel{ch:Introduction}{{1}{1}{Introdution}{chapter.1}{}}
\@writefile{toc}{\contentsline {section}{\numberline {1.1}Introduction and Objective}{1}{section.1.1}}
\@writefile{toc}{\contentsline {section}{\numberline {1.2}Contribution}{2}{section.1.2}}
\@writefile{toc}{\contentsline {section}{\numberline {1.3}Thesis Structure}{2}{section.1.3}}
\citation{mirkin2012clustering}
\citation{jain2010data}
\citation{steinley2006k}
\citation{sneath1973numerical}
\citation{holzinger1941factor}
\citation{duda1973pattern}
\citation{huang2008weighting}
\citation{BMirkinCForDM2005}
\citation{witten2005data}
\citation{banerjee2001clickstream}
\citation{haralick1985image}
\citation{jain1988algorithms}
\citation{driver1932quantitative}
\citation{sneath1973numerical}
\citation{jain1988algorithms}
\@writefile{toc}{\contentsline {chapter}{\numberline {2}Literature Review}{4}{chapter.2}}
\@writefile{lof}{\addvspace {10\p@ }}
\@writefile{lot}{\addvspace {10\p@ }}
\newlabel{ch:LectureReview}{{2}{4}{Literature Review}{chapter.2}{}}
\@writefile{toc}{\contentsline {section}{\numberline {2.1}Topology of Clustering Algorithm}{4}{section.2.1}}
\providecommand*\caption@xref[2]{\@setref\relax\@undefined{#1}}
\newlabel{TopolotyOfCA}{{\caption@xref {TopolotyOfCA}{ on input line 12}}{4}{Topology of Clustering Algorithm}{figure.caption.4}{}}
\@writefile{lof}{\contentsline {figure}{\numberline {2.1}{\ignorespaces Topology of clustering algorithms\relax }}{4}{figure.caption.4}}
\citation{mirkin1996mathematical}
\citation{mandel1988clustering}
\citation{mirkin1996mathematical}
\citation{macqueen1967some}
\citation{ball1967clustering}
\citation{cormack1971review}
\citation{hartigan1975clustering}
\citation{fisher1958grouping}
\citation{cox1957note}
\citation{ball1967clustering}
\citation{macqueen1967some}
\citation{anderberg2014cluster}
\citation{hartigan1975clustering}
\citation{lattin2003analyzing}
\citation{duda1973pattern}
\citation{hartigan1979k}
\citation{macqueen1967some}
\citation{goyal2014improving}
\citation{pena1999empirical}
\citation{falkenauer2001using}
\citation{hartigan1975clustering}
\citation{steinley2006k}
\@writefile{toc}{\contentsline {section}{\numberline {2.2}Clustering Algorithms}{5}{section.2.2}}
\@writefile{toc}{\contentsline {subsection}{\numberline {2.2.1} \textit  {k}-Means}{5}{subsection.2.2.1}}
\@writefile{toc}{\contentsline {subsection}{\numberline {2.2.2}Initialization of centroids}{5}{subsection.2.2.2}}
\citation{steinley2003local}
\citation{gupta2019pk}
\citation{astrahan1970speech}
\citation{arabie1992combinatorial}
\citation{milligan1980two}
\citation{milligan1980examination}
\citation{wardGrouping1963}
\citation{wagstaff2001constrained}
\citation{arthur2006k}
\citation{arthur2006k}
\citation{lattanzi2019better}
\citation{negi2018k}
\citation{chan2017efficient}
\citation{mirkin2011choosing}
\citation{steinley2006k}
\citation{steinley2006k}
\citation{wishert1969mode}
\citation{macqueen1967some}
\citation{ball1965isodata}
\citation{pelleg2000x}
\citation{hamerly2007pg}
\citation{welling2006bayesian}
\citation{BMirkinCForDM2005}
\citation{chiang2010intelligent}
\citation{BMirkinCForDM2005}
\citation{hartigan1975clustering}
\@writefile{toc}{\contentsline {subsection}{\numberline {2.2.3}Finding K in \textit  {k}-Means}{6}{subsection.2.2.3}}
\citation{tibshirani2001estimating}
\citation{sugar2003finding}
\citation{sugar1998techniques}
\citation{hamerly2004learning}
\citation{hamerly2007pg}
\citation{unlu2019estimating}
\citation{rohlf1982consensus}
\citation{zhu2015unsupervised}
\citation{chavez2003probabilistic}
\citation{pavlenko2003feature}
\citation{pestov2000geometry}
\citation{dy2004feature}
\citation{dy2004feature}
\citation{lamirel2017novel}
\citation{lamirel2015federating}
\citation{chandrashekar2014survey}
\citation{liu2010feature}
\citation{guyon2003introduction}
\citation{dy2008unsupervised}
\citation{yom2002feature}
\citation{pudil1994floating}
\citation{dy2008unsupervised}
\citation{farmer2004large}
\citation{skalak1994prototype}
\@writefile{toc}{\contentsline {section}{\numberline {2.3}Dimension Reduction}{7}{section.2.3}}
\@writefile{lof}{\contentsline {figure}{\numberline {2.2}{\ignorespaces Taxonomy of dimension reduction\cite  {dy2004feature}.\relax }}{7}{figure.caption.5}}
\newlabel{fig:TaxnomyOfDimensionReduction}{{2.2}{7}{Taxonomy of dimension reduction\cite {dy2004feature}.\relax }{figure.caption.5}{}}
\@writefile{toc}{\contentsline {subsection}{\numberline {2.3.1}Feature Selection}{7}{subsection.2.3.1}}
\citation{fowlkes1988variable}
\citation{carmone1999hinov}
\citation{carmone1999hinov}
\citation{carmone1999hinov}
\citation{carmone1999hinov}
\citation{fowlkes1988variable}
\citation{fowlkes1988variable}
\citation{dash1999handling}
\citation{kononenko1994estimating}
\citation{vandenbroucke2000unsupervised}
\citation{mitra2002unsupervised}
\citation{cai2010unsupervised}
\citation{von2007tutorial}
\citation{donoho2008fast}
\citation{zhu2015unsupervised}
\citation{zhu2017non}
\citation{yi2016unsupervised}
\citation{tang2018robust}
\@writefile{toc}{\contentsline {subsubsection}{Some Common Practice in Feature Selection}{8}{section*.6}}
\citation{8717648}
\citation{basu2004probabilistic}
\citation{basu2002semi}
\citation{bilenko2004integrating}
\citation{yang2018semi}
\citation{wang2017efficient}
\citation{benabdeslem2013efficient}
\citation{wang2017efficient}
\citation{yaramakala2005speculative}
\citation{wettschereck1997review}
\citation{sneath1973numerical}
\citation{fowlkes1988variable}
\citation{desarbo1984synthesized}
\citation{de1988ovwtre}
\citation{de1986optimal}
\citation{desarbo1984constrained}
\citation{modha2003feature}
\citation{chan2004optimization}
\@writefile{toc}{\contentsline {subsubsection}{Semi-Supervised Feature Selection }{9}{section*.7}}
\@writefile{toc}{\contentsline {section}{\numberline {2.4}Feature Weighting}{9}{section.2.4}}
\citation{huang2005automated}
\citation{huang2008weighting}
\citation{cai2005document}
\citation{steinbach2004challenges}
\citation{jain1999data}
\citation{jing2007entropy}
\citation{huang2008weighting}
\citation{huang2005automated}
\citation{de2012minkowski}
\newlabel{eq:AWK_objective}{{2.4}{10}{Feature Weighting}{equation.2.4.4}{}}
\citation{little2019statistical}
\citation{dempster1977maximum}
\citation{rubin2004multiple}
\citation{rubin1996multiple}
\citation{wasito2005nearest}
\citation{acock2005working}
\citation{acock2005working}
\citation{acock2005working}
\citation{abdallah2013distance}
\citation{beretta2016nearest}
\citation{chen2000nearest}
\citation{jonsson2004evaluation}
\citation{ling2009estimation}
\citation{eirola2013distance}
\citation{van2014incomplete}
\citation{troyanskaya2001missing}
\citation{bo2004lsimpute}
\citation{kim2005missing}
\citation{ouyang2004gaussian}
\citation{gan2006microarray}
\citation{yoon2007robust}
\@writefile{toc}{\contentsline {section}{\numberline {2.5}Missing Values}{11}{section.2.5}}
\@writefile{toc}{\contentsline {chapter}{\numberline {3}Methodology}{13}{chapter.3}}
\@writefile{lof}{\addvspace {10\p@ }}
\@writefile{lot}{\addvspace {10\p@ }}
\newlabel{ch:Methology}{{3}{13}{Methodology}{chapter.3}{}}
\@writefile{toc}{\contentsline {section}{\numberline {3.1}Similarity Measurement}{13}{section.3.1}}
\newlabel{Sec:M_similarityMeasure}{{3.1}{13}{Similarity Measurement}{section.3.1}{}}
\citation{mohamad2013standardization}
\citation{milligan1988study}
\citation{schaffer1996empirical}
\citation{}
\citation{stoddard1979standardization}
\citation{steinley2004standardizing}
\citation{steinley2004standardizing}
\citation{mohamad2013standardization}
\citation{ismail2017improving}
\newlabel{eq:MinkDist}{{3.4}{14}{Similarity Measurement}{equation.3.1.4}{}}
\@writefile{lof}{\contentsline {figure}{\numberline {3.1}{\ignorespaces Different shape of clusters, in two dimension, defined by distance coefficient p, displayed in 2-norm. Each cluster has a spherical shape in the particular p-norm i.e. data points lying on the circumference of the cluster are equidistant from its centroid. This figure is taken from the public domain https://en.wikipedia.org/wiki/Minkowski\_distance\relax }}{14}{figure.caption.8}}
\@writefile{toc}{\contentsline {section}{\numberline {3.2}Data Standardization}{14}{section.3.2}}
\newlabel{sec:M_DataStandar}{{3.2}{14}{Data Standardization}{section.3.2}{}}
\citation{de1986optimal}
\citation{frigui2004unsupervised}
\@writefile{toc}{\contentsline {section}{\numberline {3.3}Feature Weighting}{15}{section.3.3}}
\newlabel{sec:M_FeatuereW}{{3.3}{15}{Feature Weighting}{section.3.3}{}}
\newlabel{eq:featureWeight}{{3.7}{15}{Feature Weighting}{equation.3.3.7}{}}
\newlabel{eq:Dispersion}{{3.8}{15}{Feature Weighting}{equation.3.3.8}{}}
\newlabel{eq:featureWeightK}{{3.9}{15}{Feature Weighting}{equation.3.3.9}{}}
\newlabel{eq:DispersionK}{{3.10}{15}{Feature Weighting}{equation.3.3.10}{}}
\@writefile{lof}{\contentsline {figure}{\numberline {3.2}{\ignorespaces A cluster of data points which have higher dispersion along x-axis than y-axis is created using the GUI where + and * represent data points and centroids respectively.\relax }}{15}{table.caption.9}}
\newlabel{fig:FeatureWeightGUI_1}{{3.2}{15}{A cluster of data points which have higher dispersion along x-axis than y-axis is created using the GUI where + and * represent data points and centroids respectively.\relax }{table.caption.9}{}}
\@writefile{lof}{\contentsline {figure}{\numberline {3.3}{\ignorespaces Two different clusters- red and green are created using the GUI. Red cluster has data points with higher dispersion along x-axis whereas green cluster has data points with higher dispersion along y-axis.\relax }}{15}{table.caption.9}}
\newlabel{fig:FeatureWeightGUI_2}{{3.3}{15}{Two different clusters- red and green are created using the GUI. Red cluster has data points with higher dispersion along x-axis whereas green cluster has data points with higher dispersion along y-axis.\relax }{table.caption.9}{}}
\citation{ball1967clustering}
\citation{macqueen1967some}
\@writefile{toc}{\contentsline {section}{\numberline {3.4}\textit  {k}-Means algorithms and its weighting variant}{16}{section.3.4}}
\newlabel{sec:M_KMeans}{{3.4}{16}{\textit {k}-Means algorithms and its weighting variant}{section.3.4}{}}
\@writefile{toc}{\contentsline {subsection}{\numberline {3.4.1}Generic \textit  {k}-Means}{16}{subsection.3.4.1}}
\newlabel{eq:K-MeansObjective}{{3.11}{16}{Generic \textit {k}-Means}{equation.3.4.11}{}}
\newlabel{eq:dissimilarity}{{3.12}{16}{Generic \textit {k}-Means}{equation.3.4.12}{}}
\newlabel{eq:Centroid-K-Mean}{{3.13}{16}{Generic \textit {k}-Means}{equation.3.4.13}{}}
\newlabel{eq:K-MeansObjectiveFinal}{{3.14}{16}{Generic \textit {k}-Means}{equation.3.4.14}{}}
\citation{BMirkinCForDM2005}
\citation{chiang2007experiments}
\citation{de1986optimal}
\citation{frigui2004unsupervised}
\@writefile{toc}{\contentsline {subsection}{\numberline {3.4.2}\textit  {ik}-Means}{17}{subsection.3.4.2}}
\@writefile{toc}{\contentsline {subsection}{\numberline {3.4.3}\textit  {Wk}-Means}{17}{subsection.3.4.3}}
\newlabel{eq:WDist}{{3.15}{17}{\textit {Wk}-Means}{equation.3.4.15}{}}
\newlabel{eq:Centroid-WK-Mean}{{3.16}{17}{\textit {Wk}-Means}{equation.3.4.16}{}}
\citation{de2012minkowski}
\citation{amorim2013constrained}
\citation{silhouteeIndex}
\citation{chIndex}
\newlabel{eq:WK-MeansObjective}{{3.17}{18}{\textit {Wk}-Means}{equation.3.4.17}{}}
\@writefile{toc}{\contentsline {subsection}{\numberline {3.4.4}\textit  {MWk}-Means}{18}{subsection.3.4.4}}
\newlabel{eq:MWDist}{{3.18}{18}{\textit {MWk}-Means}{equation.3.4.18}{}}
\newlabel{eq:MWDist}{{3.4.4}{18}{\textit {MWk}-Means}{equation.3.4.18}{}}
\newlabel{eq:MWK-MeansObjective}{{3.19}{18}{\textit {MWk}-Means}{equation.3.4.19}{}}
\newlabel{eq:MWK-MeansObjective}{{3.4.4}{18}{\textit {MWk}-Means}{equation.3.4.19}{}}
\@writefile{toc}{\contentsline {section}{\numberline {3.5}Cluster Validity}{18}{section.3.5}}
\newlabel{sec:M_ClusterV}{{3.5}{18}{Cluster Validity}{section.3.5}{}}
\newlabel{silhouetteEq}{{3.20}{18}{Cluster Validity}{equation.3.5.20}{}}
\newlabel{chEqu}{{3.21}{18}{Cluster Validity}{equation.3.5.21}{}}
\citation{de2016clustering}
\citation{mitra2002unsupervised}
\newlabel{eq:randIndex}{{3.22}{19}{Cluster Validity}{equation.3.5.22}{}}
\@writefile{toc}{\contentsline {section}{\numberline {3.6}Feature Selection}{19}{section.3.6}}
\@writefile{toc}{\contentsline {subsection}{\numberline {3.6.1}intelligent K-Means Feature Selection(ikFS)}{19}{subsection.3.6.1}}
\newlabel{eq:findingFk}{{3.6.1}{19}{intelligent K-Means Feature Selection(ikFS)}{equation.3.6.23}{}}
\@writefile{toc}{\contentsline {subsection}{\numberline {3.6.2}Feature selection using feature similarity}{19}{subsection.3.6.2}}
\citation{belkin2001laplacian}
\citation{ng2002spectral}
\citation{efron2004least}
\citation{hastie2009elements}
\citation{cai2010unsupervised}
\newlabel{eq:MIC}{{3.24}{20}{Feature selection using feature similarity}{equation.3.6.24}{}}
\@writefile{toc}{\contentsline {subsection}{\numberline {3.6.3}Multi-Cluster Feature Selection}{20}{subsection.3.6.3}}
\citation{cai2010unsupervised}
\@writefile{toc}{\contentsline {subsection}{\numberline {3.6.4}Feature selection via Feature Weighting}{21}{subsection.3.6.4}}
\newlabel{Sec:NewMethods}{{3.6.4}{21}{Feature selection via Feature Weighting}{subsection.3.6.4}{}}
\newlabel{Eq:Crisp_Selection}{{3.25}{21}{Feature selection via Feature Weighting}{equation.3.6.25}{}}
\@writefile{toc}{\contentsline {section}{\numberline {3.7}Missing Data}{21}{section.3.7}}
\newlabel{sec:M_MissingD}{{3.7}{21}{Missing Data}{section.3.7}{}}
\@writefile{toc}{\contentsline {subsection}{\numberline {3.7.1}Missing Data Patterns}{21}{subsection.3.7.1}}
\@writefile{lof}{\contentsline {figure}{\numberline {3.4}{\ignorespaces Examples of missing-data patterns. Rows and columns correspond to observations and variables respectively. Data rows and columns are sorted according to the pattern of missing data.\relax }}{22}{figure.caption.10}}
\newlabel{fig:MissingPatterns}{{3.4}{22}{Examples of missing-data patterns. Rows and columns correspond to observations and variables respectively. Data rows and columns are sorted according to the pattern of missing data.\relax }{figure.caption.10}{}}
\@writefile{toc}{\contentsline {subsection}{\numberline {3.7.2}Missing-data Mechanism}{23}{subsection.3.7.2}}
\newlabel{subsec:MissingData_Mechanism}{{3.7.2}{23}{Missing-data Mechanism}{subsection.3.7.2}{}}
\@writefile{lof}{\contentsline {figure}{\numberline {3.5}{\ignorespaces Examples of missing data mechanism.\relax }}{23}{figure.caption.11}}
\newlabel{fig:MissingMechansim}{{3.5}{23}{Examples of missing data mechanism.\relax }{figure.caption.11}{}}
\newlabel{term:MCAR}{{1}{23}{Missing-data Mechanism}{Item.49}{}}
\newlabel{term:MAR}{{2}{23}{Missing-data Mechanism}{Item.50}{}}
\newlabel{term:NMAR}{{3}{23}{Missing-data Mechanism}{Item.51}{}}
\@writefile{toc}{\contentsline {subsection}{\numberline {3.7.3}Dealing with Missing Attribute Values}{23}{subsection.3.7.3}}
\@writefile{toc}{\contentsline {subsubsection}{Imputation Methods}{23}{section*.12}}
\@writefile{toc}{\contentsline {subsubsection}{Attribute mean value}{23}{section*.13}}
\@writefile{toc}{\contentsline {subsubsection}{\textit  {k}-Nearest Neighbour Techniques}{24}{section*.14}}
\@writefile{lof}{\contentsline {figure}{\numberline {3.6}{\ignorespaces An example set for complete case kNN (\textit  {CC}-kNN) imputation in a dataset with univariate missing pattern and MCAR missing mechanism to impute missing values in entity $y_1$\relax }}{24}{figure.caption.15}}
\newlabel{fig:CompleteCasekNN}{{3.6}{24}{An example set for complete case kNN (\textit {CC}-kNN) imputation in a dataset with univariate missing pattern and MCAR missing mechanism to impute missing values in entity $y_1$\relax }{figure.caption.15}{}}
\citation{shi2000normalized}
\citation{tseng2003pre}
\@writefile{lof}{\contentsline {figure}{\numberline {3.7}{\ignorespaces Example of incomplete case kNN, \textit  {iC}-kNN in a dataset with univariate missing pattern with MCAR missing mechanism.\relax }}{25}{figure.caption.16}}
\newlabel{fig:IncompleteCasekNN}{{3.7}{25}{Example of incomplete case kNN, \textit {iC}-kNN in a dataset with univariate missing pattern with MCAR missing mechanism.\relax }{figure.caption.16}{}}
\@writefile{toc}{\contentsline {subsubsection}{Regression Based Imputation}{25}{section*.17}}
\citation{himmelspach2010clustering}
\@writefile{toc}{\contentsline {subsubsection}{No Imputation}{26}{section*.18}}
\@writefile{toc}{\contentsline {subsubsection}{Partial Distance}{26}{section*.19}}
\newlabel{eq:PartialDistance}{{3.26}{26}{Partial Distance}{equation.3.7.26}{}}
\newlabel{eq:PartialDistance$L_p$}{{3.28}{26}{Partial Distance}{equation.3.7.28}{}}
\citation{de2012initializations}
\citation{de2015recovering}
\newlabel{eq:K-MeanCentroidPD}{{3.29}{27}{Partial Distance}{equation.3.7.29}{}}
\newlabel{ses:wk-meansPD}{{2}{27}{Partial Distance}{Item.66}{}}
\newlabel{eq:weightedPD}{{3.31}{27}{Partial Distance}{equation.3.7.31}{}}
\@writefile{toc}{\contentsline {section}{\numberline {3.8}Dataset}{27}{section.3.8}}
\@writefile{toc}{\contentsline {subsection}{\numberline {3.8.1}Synthetic Gaussian Distribution}{27}{subsection.3.8.1}}
\citation{xiao2011restoration}
\citation{liu2009adaptive}
\citation{clason2012fitting}
\citation{sripad1977necessary}
\@writefile{lot}{\contentsline {table}{\numberline {3.1}{\ignorespaces The experiment of synthetic mixed-model Gaussian distribution contains 50 different datasets with 1000 data instance in each. The distribution has spherical Gaussian clusters with diagonal covariance matrices of 0.5 \relax }}{28}{table.caption.20}}
\@writefile{toc}{\contentsline {subsection}{\numberline {3.8.2}Real Data}{28}{subsection.3.8.2}}
\@writefile{lot}{\contentsline {table}{\numberline {3.2}{\ignorespaces Real-world datasets used in our experiments\relax }}{28}{table.caption.21}}
\@writefile{toc}{\contentsline {subsection}{\numberline {3.8.3}Noise}{28}{subsection.3.8.3}}
\@writefile{toc}{\contentsline {subsection}{\numberline {3.8.4}Noise Strength}{28}{subsection.3.8.4}}
\citation{zhu2004class}
\citation{quinlan1986effect}
\@writefile{toc}{\contentsline {subsection}{\numberline {3.8.5}Noise Distribution}{29}{subsection.3.8.5}}
\@writefile{lof}{\contentsline {figure}{\numberline {3.8}{\ignorespaces Uniform noise generated in the range [0,1]. \relax }}{29}{figure.3.8}}
\newlabel{fig:FeatureWeightGUI_1}{{3.8}{29}{Uniform noise generated in the range [0,1]. \relax }{figure.3.8}{}}
\@writefile{lof}{\contentsline {figure}{\numberline {3.9}{\ignorespaces Noise generated from Gaussian distribution with mean = 0 and standard deviation = 1.\relax }}{29}{figure.3.9}}
\newlabel{fig:FeatureWeightGUI_2}{{3.9}{29}{Noise generated from Gaussian distribution with mean = 0 and standard deviation = 1.\relax }{figure.3.9}{}}
\@writefile{toc}{\contentsline {subsection}{\numberline {3.8.6}Noise Model}{29}{subsection.3.8.6}}
\citation{de2012minkowski}
\citation{chiang2010intelligent}
\citation{de2012minkowski}
\citation{de2012initializations}
\citation{santos2009use}
\@writefile{toc}{\contentsline {section}{\numberline {3.9}Introduction}{30}{section.3.9}}
\@writefile{toc}{\contentsline {section}{\numberline {3.10}Aim}{30}{section.3.10}}
\@writefile{toc}{\contentsline {section}{\numberline {3.11}Transform of dataset to different p-norms }{30}{section.3.11}}
\newlabel{sec:M_pNorms}{{3.11}{30}{Transform of dataset to different p-norms}{section.3.11}{}}
\newlabel{algo:p1Top2Cartesian}{{\caption@xref {algo:p1Top2Cartesian}{ on input line 32}}{30}{Transform of dataset to different p-norms}{section.3.11}{}}
\@writefile{loa}{\contentsline {algorithm}{\numberline {1}{\ignorespaces \textit  {$pNorm$}TransInCartesian\relax }}{30}{algorithm.1}}
\citation{de2015recovering}
\@writefile{toc}{\contentsline {subsection}{\numberline {3.11.1}Transformation of a dataset from $p_1$-norm to $p_2$-norm}{31}{subsection.3.11.1}}
\newlabel{Sec:Translation2normLp}{{3.11.1}{31}{Transformation of a dataset from $p_1$-norm to $p_2$-norm}{subsection.3.11.1}{}}
\newlabel{SC@1}{{\caption@xref {??}{ on input line 53}}{31}{Transformation of a dataset from $p_1$-norm to $p_2$-norm}{figure.caption.22}{}}
\@writefile{lof}{\contentsline {figure}{\numberline {3.10}{\ignorespaces Transformation of a 2D cluster with center at (10,5) from 2-norm space to 0.5p-norm space. The process is carried out in six steps from top left (a) to bottom right (e).\relax }}{31}{figure.caption.22}}
\newlabel{fig:ReshapingClusterWithP}{{3.10}{31}{Transformation of a 2D cluster with center at (10,5) from 2-norm space to 0.5p-norm space. The process is carried out in six steps from top left (a) to bottom right (e).\relax }{figure.caption.22}{}}
\newlabel{algo:p12p2Ploar}{{\caption@xref {algo:p12p2Ploar}{ on input line 55}}{31}{Transformation of a dataset from $p_1$-norm to $p_2$-norm}{figure.caption.22}{}}
\@writefile{loa}{\contentsline {algorithm}{\numberline {2}{\ignorespaces $p_1$-normTo$p_2$-normInPolar\relax }}{31}{algorithm.2}}
\@writefile{toc}{\contentsline {subsection}{\numberline {3.11.2}Validation of transformation process}{32}{subsection.3.11.2}}
\@writefile{toc}{\contentsline {subsubsection}{Visualization of transformation process in 2D}{32}{section*.23}}
\newlabel{SC@2}{{\caption@xref {??}{ on input line 199}}{33}{Visualization of transformation process in 2D}{figure.caption.24}{}}
\@writefile{lof}{\contentsline {figure}{\numberline {3.11}{\ignorespaces Results from moving data points, originally defined in 2-norm with center at 10,5), to p-norms ($p \in [0.05,1,1.5]$ are displayed in each of the sub-plots on left hand side. Results from the reverse process are displayed sub-plots on the right. \relax }}{33}{figure.caption.24}}
\newlabel{fig:changeClusterShape2D_1}{{3.11}{33}{Results from moving data points, originally defined in 2-norm with center at 10,5), to p-norms ($p \in [0.05,1,1.5]$ are displayed in each of the sub-plots on left hand side. Results from the reverse process are displayed sub-plots on the right. \relax }{figure.caption.24}{}}
\newlabel{SC@3}{{\caption@xref {??}{ on input line 236}}{34}{Visualization of transformation process in 2D}{figure.caption.25}{}}
\@writefile{lof}{\contentsline {figure}{\numberline {3.12}{\ignorespaces Data points with center (10,5) defined in two dimensions in Euclidean space is reshaped using a different distance coefficient (\textit  {p}). Each sub plot in the left column represents the data points changed to its respective p-norms. The right column shows the results from reversing the process back to a 2-norm.\relax }}{34}{figure.caption.25}}
\newlabel{fig:changeClusterShape2D_2}{{3.12}{34}{Data points with center (10,5) defined in two dimensions in Euclidean space is reshaped using a different distance coefficient (\textit {p}). Each sub plot in the left column represents the data points changed to its respective p-norms. The right column shows the results from reversing the process back to a 2-norm.\relax }{figure.caption.25}{}}
\citation{de2012initializations}
\citation{de2012minkowski}
\newlabel{SC@4}{{\caption@xref {??}{ on input line 261}}{35}{Visualization of transformation process in 2D}{figure.caption.26}{}}
\@writefile{lof}{\contentsline {figure}{\numberline {3.13}{\ignorespaces A set of data points with center (10,5) defined in the two dimensions in Euclidean space is reshaped using some extreme distance coefficient (\textit  {p}). The values of p are either less than 0.005 or greater than 100. To the right of each sub-plot with a given p, a reverse sub plot shows the results obtained when the process is reversed.\relax }}{35}{figure.caption.26}}
\newlabel{fig:ChangeCluserShape2DEx}{{3.13}{35}{A set of data points with center (10,5) defined in the two dimensions in Euclidean space is reshaped using some extreme distance coefficient (\textit {p}). The values of p are either less than 0.005 or greater than 100. To the right of each sub-plot with a given p, a reverse sub plot shows the results obtained when the process is reversed.\relax }{figure.caption.26}{}}
\@writefile{toc}{\contentsline {subsection}{\numberline {3.11.3}Generation of a Gaussian mixed model in different p-norms}{35}{subsection.3.11.3}}
\newlabel{SC@5}{{\caption@xref {??}{ on input line 302}}{35}{Generation of a Gaussian mixed model in different p-norms}{figure.caption.27}{}}
\@writefile{lof}{\contentsline {figure}{\numberline {3.14}{\ignorespaces First and second PCA components view of three Gaussian clusters generated using the MATLAB Gaussian mixed model.\relax }}{35}{figure.caption.27}}
\newlabel{fig:p2GMMClusters}{{3.14}{35}{First and second PCA components view of three Gaussian clusters generated using the MATLAB Gaussian mixed model.\relax }{figure.caption.27}{}}
\newlabel{algo:p1Top2Cartesian}{{3.11.3}{35}{Generation of a Gaussian mixed model in different p-norms}{figure.caption.27}{}}
\@writefile{lof}{\contentsline {figure}{\numberline {3.15}{\ignorespaces First and Second PCA component view of 3 Gaussian clusters generated using the MATLAB Gaussian mixed model. Centroids for each of these clusters are generated from a Uniform distribution and the GMM has a spherical shape \relax }}{36}{figure.caption.28}}
\newlabel{fig:p2GMMClustersRev}{{3.15}{36}{First and Second PCA component view of 3 Gaussian clusters generated using the MATLAB Gaussian mixed model. Centroids for each of these clusters are generated from a Uniform distribution and the GMM has a spherical shape \relax }{figure.caption.28}{}}
\@writefile{toc}{\contentsline {section}{\numberline {3.12}Effect of p-norms over clustering algorithms}{36}{section.3.12}}
\@writefile{toc}{\contentsline {subsection}{\numberline {3.12.1}Performance of different aggregation functions}{37}{subsection.3.12.1}}
\newlabel{subSec:chkWithKMeans}{{3.12.1}{37}{Performance of different aggregation functions}{subsection.3.12.1}{}}
\@writefile{toc}{\contentsline {subsubsection}{ Average cluster recovery}{38}{section*.29}}
\newlabel{subSec:ARI_CluserRecoveryKMeans_Avg}{{3.12.1}{38}{Average cluster recovery}{section*.29}{}}
\newlabel{SC@6}{{\caption@xref {??}{ on input line 397}}{38}{Average cluster recovery}{figure.caption.30}{}}
\@writefile{lof}{\contentsline {figure}{\numberline {3.16}{\ignorespaces Performance of four different \textit  {k}-Means Type algorithms on GMM datasets defined in different p-norms ranging from 0.5 to 5.\relax }}{38}{figure.caption.30}}
\newlabel{fig:ARI_CluserRecoveryKMeans_Avg}{{3.16}{38}{Performance of four different \textit {k}-Means Type algorithms on GMM datasets defined in different p-norms ranging from 0.5 to 5.\relax }{figure.caption.30}{}}
\@writefile{toc}{\contentsline {subsubsection}{ $p_2$ equals to $p_1$}{38}{section*.31}}
\@writefile{lof}{\contentsline {figure}{\numberline {3.17}{\ignorespaces Performance of different \textit  {MWk}-Means and \textit  {iMWk}-Means on the GMM defined in different p-norms where distance coefficient $p_1$ is equal to p-norm.\relax }}{39}{figure.caption.32}}
\newlabel{fig:ARI_CluserRecoveryKMeans_PeqP}{{3.17}{39}{Performance of different \textit {MWk}-Means and \textit {iMWk}-Means on the GMM defined in different p-norms where distance coefficient $p_1$ is equal to p-norm.\relax }{figure.caption.32}{}}
\@writefile{toc}{\contentsline {subsubsection}{$p_2$ equals to 2}{39}{section*.33}}
\@writefile{lof}{\contentsline {figure}{\numberline {3.18}{\ignorespaces Performance of different \textit  {MWk}-Means and \textit  {iMWk}-Means on the GMM defined in different p-norms where the distance coefficient $p_1$ is equal to 2.\relax }}{40}{figure.caption.34}}
\newlabel{fig:ARI_CluserRecoveryKMeans_Peq2}{{3.18}{40}{Performance of different \textit {MWk}-Means and \textit {iMWk}-Means on the GMM defined in different p-norms where the distance coefficient $p_1$ is equal to 2.\relax }{figure.caption.34}{}}
\@writefile{toc}{\contentsline {subsubsection}{$p_2$ that yield max ARI}{40}{section*.35}}
\@writefile{lof}{\contentsline {figure}{\numberline {3.19}{\ignorespaces Performance of different \textit  {MWk}-Means and \textit  {iMWk}-Means on the GMM defined in different p-norms where the distance coefficient $p_1$ is considered the one which maximize the ARI.\relax }}{41}{figure.caption.36}}
\newlabel{fig:ARI_CluserRecoveryKMean_Max}{{3.19}{41}{Performance of different \textit {MWk}-Means and \textit {iMWk}-Means on the GMM defined in different p-norms where the distance coefficient $p_1$ is considered the one which maximize the ARI.\relax }{figure.caption.36}{}}
\@writefile{toc}{\contentsline {subsection}{\numberline {3.12.2}Compare different aggregation functions}{41}{subsection.3.12.2}}
\newlabel{subSec:chkWithAggregation}{{3.12.2}{41}{Compare different aggregation functions}{subsection.3.12.2}{}}
\@writefile{lof}{\contentsline {figure}{\numberline {3.20}{\ignorespaces Performance of four different combinations of the distance coefficient used in \textit  {MWk}-Means (p1) over different datasets defined using a range of p-norms.\relax }}{42}{figure.caption.37}}
\newlabel{fig:ARI_CluserRecoveryMWKMeans}{{3.20}{42}{Performance of four different combinations of the distance coefficient used in \textit {MWk}-Means (p1) over different datasets defined using a range of p-norms.\relax }{figure.caption.37}{}}
\@writefile{lof}{\contentsline {figure}{\numberline {3.21}{\ignorespaces Performance of four different combination of the distance coefficient used in \textit  {MWk}-Means ($p_1$) in different datasets defined for a range of p-norms.\relax }}{43}{figure.caption.38}}
\newlabel{fig:ARI_CluserRecoveryIMWKMeans}{{3.21}{43}{Performance of four different combination of the distance coefficient used in \textit {MWk}-Means ($p_1$) in different datasets defined for a range of p-norms.\relax }{figure.caption.38}{}}
\@writefile{toc}{\contentsline {subsection}{\numberline {3.12.3}p-norms vs distance coefficient}{43}{subsection.3.12.3}}
\newlabel{subSec:chkP2VsP1}{{3.12.3}{43}{p-norms vs distance coefficient}{subsection.3.12.3}{}}
\@writefile{toc}{\contentsline {subsubsection}{$p_1$ vs $p_2$ in \textit  {MWk}-Means}{44}{section*.39}}
\@writefile{lot}{\contentsline {table}{\numberline {3.3}{\ignorespaces Performance \textit  {MWk}-Means in GMM datasets defined in a range of p-norms. \relax }}{44}{table.caption.40}}
\newlabel{tb:Cov05_NoiseStrengthModel_ARI}{{3.3}{44}{Performance \textit {MWk}-Means in GMM datasets defined in a range of p-norms. \relax }{table.caption.40}{}}
\@writefile{toc}{\contentsline {subsubsection}{p1 vs p2 in \textit  {iMWk}-Means}{44}{section*.41}}
\@writefile{lot}{\contentsline {table}{\numberline {3.4}{\ignorespaces Performance \textit  {iMWk}-Means in GMM datasets defined in a range of p-norms.\relax }}{44}{table.caption.42}}
\@writefile{toc}{\contentsline {subsubsection}{Additional Experiment..... finding best P2 using different index}{45}{section*.43}}
\@writefile{lot}{\contentsline {table}{\numberline {3.5}{\ignorespaces Performance of kMeans variants in different $L_p$. The Performance column contains mean/std .\relax }}{45}{table.caption.44}}
\newlabel{tb:LpKMeansExt}{{3.5}{45}{Performance of kMeans variants in different $L_p$. The Performance column contains mean/std .\relax }{table.caption.44}{}}
\@writefile{toc}{\contentsline {section}{\numberline {3.13}Conclusion}{45}{section.3.13}}
\citation{hernandez1998real}
\@writefile{toc}{\contentsline {chapter}{\numberline {4}Prediction of Missing Values}{46}{chapter.4}}
\@writefile{lof}{\addvspace {10\p@ }}
\@writefile{lot}{\addvspace {10\p@ }}
\newlabel{ch:MissingValues}{{4}{46}{Prediction of Missing Values}{chapter.4}{}}
\@writefile{toc}{\contentsline {subsection}{\numberline {4.0.1}Aim}{46}{subsection.4.0.1}}
\@writefile{toc}{\contentsline {section}{\numberline {4.1}SETTING UP THE EXPERIMENT}{47}{section.4.1}}
\@writefile{toc}{\contentsline {subsection}{\numberline {4.1.1}Setting up dataset}{47}{subsection.4.1.1}}
\@writefile{toc}{\contentsline {subsection}{\numberline {4.1.2}Addition of Missing Values}{47}{subsection.4.1.2}}
\@writefile{toc}{\contentsline {subsection}{\numberline {4.1.3}Selection of Algorithms}{48}{subsection.4.1.3}}
\@writefile{toc}{\contentsline {subsection}{\numberline {4.1.4}Extension to Noise}{48}{subsection.4.1.4}}
\@writefile{toc}{\contentsline {subsection}{\numberline {4.1.5}Listing of All Experiments}{48}{subsection.4.1.5}}
\@writefile{toc}{\contentsline {section}{\numberline {4.2}Reading Results}{49}{section.4.2}}
\@writefile{toc}{\contentsline {subsection}{\numberline {4.2.1}Organization of Results}{49}{subsection.4.2.1}}
\@writefile{toc}{\contentsline {subsection}{\numberline {4.2.2}Reading Header from tables}{50}{subsection.4.2.2}}
\@writefile{toc}{\contentsline {subsubsection}{Results for Imputation Methods}{50}{section*.45}}
\@writefile{toc}{\contentsline {subsubsection}{Results from Different Approaches}{50}{section*.46}}
\@writefile{toc}{\contentsline {section}{\numberline {4.3}Experimental Results}{50}{section.4.3}}
\@writefile{toc}{\contentsline {subsection}{\numberline {4.3.1}Imputation of Different Algorithms for Weighted \textit  {k}-Means and Intelligent Weighted \textit  {k}-Means}{50}{subsection.4.3.1}}
\newlabel{ss:imputation}{{4.3.1}{50}{Imputation of Different Algorithms for Weighted \textit {k}-Means and Intelligent Weighted \textit {k}-Means}{subsection.4.3.1}{}}
\@writefile{toc}{\contentsline {subsubsection}{Missing values with MCAR Mechanism}{50}{section*.47}}
\newlabel{sss:MCAR}{{4.3.1}{50}{Missing values with MCAR Mechanism}{section*.47}{}}
\@writefile{lot}{\contentsline {table}{\numberline {4.1}{\ignorespaces Comparison of four different imputation methods in Gaussian mixed model where missing values have MCAR mechanism and are located in a feature (univariate missing pattern) which has lowest correlation with its dataset.\relax }}{51}{table.caption.48}}
\newlabel{tb:MCAR_UNI_Cov05_MIN}{{4.1}{51}{Comparison of four different imputation methods in Gaussian mixed model where missing values have MCAR mechanism and are located in a feature (univariate missing pattern) which has lowest correlation with its dataset.\relax }{table.caption.48}{}}
\@writefile{lot}{\contentsline {table}{\numberline {4.2}{\ignorespaces Comparison of four different imputation methods in Gaussian mixed models where missing values have a MCAR mechanism and are located in a feature (univariate missing pattern) which has highest correlation with its dataset.\relax }}{52}{table.caption.49}}
\newlabel{tb:MCAR_UNI_Cov05_MAX}{{4.2}{52}{Comparison of four different imputation methods in Gaussian mixed models where missing values have a MCAR mechanism and are located in a feature (univariate missing pattern) which has highest correlation with its dataset.\relax }{table.caption.49}{}}
\@writefile{lot}{\contentsline {table}{\numberline {4.3}{\ignorespaces Comparison of four different imputation methods in the real-world datasets where missing values have a MCAR mechanism and are located in a feature (univariate missing pattern) which has minimum correlation with its dataset.\relax }}{53}{table.caption.50}}
\newlabel{tb:MCAR_UNI_Real_MIN}{{4.3}{53}{Comparison of four different imputation methods in the real-world datasets where missing values have a MCAR mechanism and are located in a feature (univariate missing pattern) which has minimum correlation with its dataset.\relax }{table.caption.50}{}}
\@writefile{lot}{\contentsline {table}{\numberline {4.4}{\ignorespaces Comparison of four different imputation methods in the real-world (UCI) datasets where missing values have MCAR mechanism and are located in a feature (univariate missing pattern) which has maximum correlation with its dataset.\relax }}{55}{table.caption.51}}
\newlabel{tb:MCAR_UNI_Real_MAX}{{4.4}{55}{Comparison of four different imputation methods in the real-world (UCI) datasets where missing values have MCAR mechanism and are located in a feature (univariate missing pattern) which has maximum correlation with its dataset.\relax }{table.caption.51}{}}
\@writefile{toc}{\contentsline {subsubsection}{Missing values with NMAR Mechanism}{56}{section*.52}}
\newlabel{sss:NMAR}{{4.3.1}{56}{Missing values with NMAR Mechanism}{section*.52}{}}
\@writefile{lot}{\contentsline {table}{\numberline {4.5}{\ignorespaces Comparison of four different imputation methods in Gaussian mixed models where missing values have a NMAR mechanism and are located in a feature (univariate missing pattern) which has the lowest correlation with its dataset.\relax }}{56}{table.caption.53}}
\newlabel{tb:NMAR_UNI_Cov05_MIN}{{4.5}{56}{Comparison of four different imputation methods in Gaussian mixed models where missing values have a NMAR mechanism and are located in a feature (univariate missing pattern) which has the lowest correlation with its dataset.\relax }{table.caption.53}{}}
\@writefile{lot}{\contentsline {table}{\numberline {4.6}{\ignorespaces Comparison of four different imputation methods in Gaussian mixed models where missing values have a NMAR mechanism and are located in a feature (univariate missing pattern) which has maximum correlation with its dataset.\relax }}{58}{table.caption.54}}
\newlabel{tb:NMAR_UNI_Cov05_MAX}{{4.6}{58}{Comparison of four different imputation methods in Gaussian mixed models where missing values have a NMAR mechanism and are located in a feature (univariate missing pattern) which has maximum correlation with its dataset.\relax }{table.caption.54}{}}
\@writefile{lot}{\contentsline {table}{\numberline {4.7}{\ignorespaces Comparison of four different imputation methods in the real-world datasets where missing values have a NMAR mechanism and are located in a feature (univariate missing pattern) which has minimum correlation with its dataset.\relax }}{59}{table.caption.55}}
\newlabel{tb:NMAR_UNI_MIN_Real}{{4.7}{59}{Comparison of four different imputation methods in the real-world datasets where missing values have a NMAR mechanism and are located in a feature (univariate missing pattern) which has minimum correlation with its dataset.\relax }{table.caption.55}{}}
\@writefile{lot}{\contentsline {table}{\numberline {4.8}{\ignorespaces Comparison of four different imputation methods in the real-world datasets where missing values have a NMAR mechanism and are located in a feature (univariate missing pattern) which has maximum correlation with its dataset.\relax }}{60}{table.caption.56}}
\newlabel{tb:NMAR_UNI_MAX_Real}{{4.8}{60}{Comparison of four different imputation methods in the real-world datasets where missing values have a NMAR mechanism and are located in a feature (univariate missing pattern) which has maximum correlation with its dataset.\relax }{table.caption.56}{}}
\@writefile{toc}{\contentsline {subsection}{\numberline {4.3.2}Evaluation of Partial Distance against Different Methods in \textit  {k}-Means and Weighted \textit  {k}-Means }{61}{subsection.4.3.2}}
\newlabel{ss:approaches}{{4.3.2}{61}{Evaluation of Partial Distance against Different Methods in \textit {k}-Means and Weighted \textit {k}-Means}{subsection.4.3.2}{}}
\@writefile{toc}{\contentsline {subsubsection}{Missing values with MCAR Mechanism}{61}{section*.57}}
\@writefile{lot}{\contentsline {table}{\numberline {4.9}{\ignorespaces Comparison of two difference clustering algorithms- \textit  {k}-Means and \textit  {Wk}-Means along with three different approaches to handle missing attribute values in Gaussian mixed models. The missing values have a MCAR mechanism and are located in a feature (univariate missing pattern) which has lowest correlation with its dataset.\relax }}{62}{table.caption.58}}
\newlabel{tb:FR_MCAR_UNI_Cov05_MIN}{{4.9}{62}{Comparison of two difference clustering algorithms- \textit {k}-Means and \textit {Wk}-Means along with three different approaches to handle missing attribute values in Gaussian mixed models. The missing values have a MCAR mechanism and are located in a feature (univariate missing pattern) which has lowest correlation with its dataset.\relax }{table.caption.58}{}}
\@writefile{lot}{\contentsline {table}{\numberline {4.10}{\ignorespaces Comparison of two different clustering algorithms- \textit  {k}-Means and \textit  {Wk}-Means along with three different approaches to handle missing attribute values in Gaussian mixed models. The missing values have a MCAR mechanism and are located in a feature (univariate missing pattern) which has maximum correlation with its dataset.\relax }}{63}{table.caption.59}}
\newlabel{tb:FR_MCAR_UNI_Cov05}{{4.10}{63}{Comparison of two different clustering algorithms- \textit {k}-Means and \textit {Wk}-Means along with three different approaches to handle missing attribute values in Gaussian mixed models. The missing values have a MCAR mechanism and are located in a feature (univariate missing pattern) which has maximum correlation with its dataset.\relax }{table.caption.59}{}}
\@writefile{lot}{\contentsline {table}{\numberline {4.11}{\ignorespaces Comparison of two different clustering algorithms- \textit  {k}-Means and \textit  {Wk}-Means along with three different approaches to handle missing attribute values in real-world datasets. The missing values have a MCAR mechanism and are located in a feature (univariate missing pattern) which has minimum correlation with its dataset.\relax }}{65}{table.caption.60}}
\newlabel{tb:FR_MCAR_UNI_MIN_Real}{{4.11}{65}{Comparison of two different clustering algorithms- \textit {k}-Means and \textit {Wk}-Means along with three different approaches to handle missing attribute values in real-world datasets. The missing values have a MCAR mechanism and are located in a feature (univariate missing pattern) which has minimum correlation with its dataset.\relax }{table.caption.60}{}}
\@writefile{lot}{\contentsline {table}{\numberline {4.12}{\ignorespaces Comparison of two different clustering algorithms- \textit  {k}-Means and \textit  {Wk}-Means along with three different approaches to handle missing attribute values in real-world datasets. The missing values have a MCAR mechanism and are located in a feature (univariate missing pattern) which has maximum correlation with its dataset.\relax }}{66}{table.caption.61}}
\@writefile{toc}{\contentsline {subsubsection}{Missing values with NMAR Mechanism}{67}{section*.62}}
\@writefile{lot}{\contentsline {table}{\numberline {4.13}{\ignorespaces Comparison of two different clustering algorithms- \textit  {k}-Means and \textit  {Wk}-Means along with three different approaches to handle missing attribute values in Gaussian mixed models. The missing values have a NMAR mechanism and are located in a feature (univariate missing pattern) which has lowest correlation with its dataset.\relax }}{67}{table.caption.63}}
\newlabel{tb:FR_MCAR_UNI_MIN}{{4.13}{67}{Comparison of two different clustering algorithms- \textit {k}-Means and \textit {Wk}-Means along with three different approaches to handle missing attribute values in Gaussian mixed models. The missing values have a NMAR mechanism and are located in a feature (univariate missing pattern) which has lowest correlation with its dataset.\relax }{table.caption.63}{}}
\@writefile{lot}{\contentsline {table}{\numberline {4.14}{\ignorespaces Comparison of two different clustering algorithms- \textit  {k}-Means and \textit  {Wk}-Means along with three different approaches to handle missing attribute values in a Gaussian mixed model. The missing values have a MCAR mechanism and are located in a feature (univariate missing pattern) which has maximum correlation with its dataset.\relax }}{68}{table.caption.64}}
\newlabel{tb:FR_MCAR_UNI_MAX}{{4.14}{68}{Comparison of two different clustering algorithms- \textit {k}-Means and \textit {Wk}-Means along with three different approaches to handle missing attribute values in a Gaussian mixed model. The missing values have a MCAR mechanism and are located in a feature (univariate missing pattern) which has maximum correlation with its dataset.\relax }{table.caption.64}{}}
\@writefile{lot}{\contentsline {table}{\numberline {4.15}{\ignorespaces Comparison of two difference clustering algorithms- \textit  {k}-Means and \textit  {Wk}-Means along with three different approaches to handle missing attribute values in real-world datasets. The missing values have a MCAR mechanism and are located in a feature (univariate missing pattern) which has minimum correlation with its dataset.\relax }}{70}{table.caption.65}}
\newlabel{tb:FR_MCAR_UNI_MIN_Real}{{4.15}{70}{Comparison of two difference clustering algorithms- \textit {k}-Means and \textit {Wk}-Means along with three different approaches to handle missing attribute values in real-world datasets. The missing values have a MCAR mechanism and are located in a feature (univariate missing pattern) which has minimum correlation with its dataset.\relax }{table.caption.65}{}}
\@writefile{lot}{\contentsline {table}{\numberline {4.16}{\ignorespaces Comparison of two different clustering algorithms- \textit  {k}-Means and \textit  {Wk}-Means along with three different approaches to handle missing attribute values in real-world datasets. The missing values have a MCAR mechanism and are located in a feature (univariate missing pattern) which has minimum correlation with its dataset.\relax }}{71}{table.caption.66}}
\newlabel{tb:FR_MCAR_UNI_MIN_Real}{{4.16}{71}{Comparison of two different clustering algorithms- \textit {k}-Means and \textit {Wk}-Means along with three different approaches to handle missing attribute values in real-world datasets. The missing values have a MCAR mechanism and are located in a feature (univariate missing pattern) which has minimum correlation with its dataset.\relax }{table.caption.66}{}}
\@writefile{toc}{\contentsline {subsubsection}{Conclusion}{72}{section*.67}}
\@writefile{toc}{\contentsline {chapter}{\numberline {5}Dimension Reduction}{74}{chapter.5}}
\@writefile{lof}{\addvspace {10\p@ }}
\@writefile{lot}{\addvspace {10\p@ }}
\newlabel{ch:DimensionReduction}{{5}{74}{Dimension Reduction}{chapter.5}{}}
\@writefile{toc}{\contentsline {section}{\numberline {5.1}Aims}{74}{section.5.1}}
\newlabel{section:Ch4_aim}{{5.1}{74}{Aims}{section.5.1}{}}
\citation{cai2010unsupervised}
\@writefile{toc}{\contentsline {section}{\numberline {5.2}Experimental Set up}{75}{section.5.2}}
\newlabel{section:Ch4_ExpSetup}{{5.2}{75}{Experimental Set up}{section.5.2}{}}
\@writefile{toc}{\contentsline {subsection}{\numberline {5.2.1}Dataset Setting up}{75}{subsection.5.2.1}}
\@writefile{toc}{\contentsline {subsection}{\numberline {5.2.2}Parameter Tuning}{75}{subsection.5.2.2}}
\@writefile{toc}{\contentsline {section}{\numberline {5.3}Result Presentation}{76}{section.5.3}}
\newlabel{section:Ch4_Results}{{5.3}{76}{Result Presentation}{section.5.3}{}}
\@writefile{toc}{\contentsline {subsubsection}{Organization of Results}{76}{section*.68}}
\@writefile{toc}{\contentsline {subsubsection}{Results from Synthetic datasets}{76}{section*.69}}
\@writefile{toc}{\contentsline {subsubsection}{Organizing from real-world datasets}{76}{section*.70}}
\@writefile{toc}{\contentsline {subsubsection}{Table Organization}{77}{section*.71}}
\@writefile{toc}{\contentsline {subsection}{\numberline {5.3.1}Synthetic Dataset}{77}{subsection.5.3.1}}
\@writefile{lot}{\contentsline {table}{\numberline {5.1}{\ignorespaces Comparision of four different feature selection algorithms with original var of \textit  {k}-Means and intelligent Minkowski weighted \textit  {k}-Means in synthetic datasets with and without added noise. Silhoutee index is used for parameter tuning.\relax }}{78}{table.caption.72}}
\newlabel{tb:chFS_Cov05NoiseSummary}{{5.1}{78}{Comparision of four different feature selection algorithms with original var of \textit {k}-Means and intelligent Minkowski weighted \textit {k}-Means in synthetic datasets with and without added noise. Silhoutee index is used for parameter tuning.\relax }{table.caption.72}{}}
\@writefile{lot}{\contentsline {table}{\numberline {5.2}{\ignorespaces Comparison of four different feature selection algorithms with original variate of KMeans and intelligent Minkowski Weighted KMeans in synthetic dataset under the supervised condition (best possible cases).\relax }}{80}{table.caption.73}}
\newlabel{tb:Cov05_NoiseSummary_BEST}{{5.2}{80}{Comparison of four different feature selection algorithms with original variate of KMeans and intelligent Minkowski Weighted KMeans in synthetic dataset under the supervised condition (best possible cases).\relax }{table.caption.73}{}}
\@writefile{lot}{\contentsline {table}{\numberline {5.3}{\ignorespaces Comparision of three values of distance coefficient(p) in the purposed feature selection algorithms. The performance is evaluated using ARI index and are carried out in Gaussian mixed-model.\relax }}{82}{table.caption.74}}
\newlabel{tb:Cov05_NoiseSummary_ALLP}{{5.3}{82}{Comparision of three values of distance coefficient(p) in the purposed feature selection algorithms. The performance is evaluated using ARI index and are carried out in Gaussian mixed-model.\relax }{table.caption.74}{}}
\@writefile{toc}{\contentsline {subsection}{\numberline {5.3.2}UCI datasets}{83}{subsection.5.3.2}}
\@writefile{lot}{\contentsline {table}{\numberline {5.4}{\ignorespaces Comparision of four different feature selection algorithms with original variate of kMeans and intelligent Minkowski Weighted KMeans in real-world dataset with and without added noise where Silhoutee index is used for parameter tuning.\relax }}{84}{table.caption.75}}
\newlabel{tb:Real_NoiseSummary_ARI}{{5.4}{84}{Comparision of four different feature selection algorithms with original variate of kMeans and intelligent Minkowski Weighted KMeans in real-world dataset with and without added noise where Silhoutee index is used for parameter tuning.\relax }{table.caption.75}{}}
\@writefile{lot}{\contentsline {table}{\numberline {5.5}{\ignorespaces Comparison of four different feature selection algorithms with original variate of KMeans and intelligent Minkowski Weighted KMeans in real-world dataset under the supervised condition (best possible cases).\relax }}{86}{table.caption.76}}
\newlabel{tb:Real_NoiseSummary_BEST}{{5.5}{86}{Comparison of four different feature selection algorithms with original variate of KMeans and intelligent Minkowski Weighted KMeans in real-world dataset under the supervised condition (best possible cases).\relax }{table.caption.76}{}}
\@writefile{lot}{\contentsline {table}{\numberline {5.6}{\ignorespaces Comparision of the purposed feature selection algoirthm with three different values of distance coefficient(p). The performance is evaluated using ARI index and are carried out in Gaussian mixed-model.\relax }}{87}{table.caption.77}}
\newlabel{tb:Real_NoiseSummary_ALLP}{{5.6}{87}{Comparision of the purposed feature selection algoirthm with three different values of distance coefficient(p). The performance is evaluated using ARI index and are carried out in Gaussian mixed-model.\relax }{table.caption.77}{}}
\@writefile{toc}{\contentsline {section}{\numberline {5.4}Conclusion}{88}{section.5.4}}
\newlabel{section:Ch4_Conclusion}{{5.4}{88}{Conclusion}{section.5.4}{}}
\citation{panday2018feature}
\@writefile{toc}{\contentsline {chapter}{\numberline {6}Extended Experiments}{89}{chapter.6}}
\@writefile{lof}{\addvspace {10\p@ }}
\@writefile{lot}{\addvspace {10\p@ }}
\newlabel{ch:ExtendedExperimetns}{{6}{89}{Extended Experiments}{chapter.6}{}}
\@writefile{toc}{\contentsline {section}{\numberline {6.1}Experimental set-up}{89}{section.6.1}}
\citation{panday2018feature}
\@writefile{toc}{\contentsline {section}{\numberline {6.2}Extension of feature selection}{90}{section.6.2}}
\@writefile{toc}{\contentsline {subsection}{\numberline {6.2.1}Percentage of noisy feature selection}{90}{subsection.6.2.1}}
\@writefile{toc}{\contentsline {subsubsection}{Synthetic datasets}{90}{section*.78}}
\@writefile{lot}{\contentsline {table}{\numberline {6.1}{\ignorespaces The average percentage of noisy features selected, and their respective standard deviations, in synthetic datasets \relax }}{90}{table.caption.79}}
\newlabel{tbl:FS_NoisePerc_Syn}{{6.1}{90}{The average percentage of noisy features selected, and their respective standard deviations, in synthetic datasets \relax }{table.caption.79}{}}
\@writefile{toc}{\contentsline {subsubsection}{Real-world (UCI) datasets}{90}{section*.80}}
\@writefile{lot}{\contentsline {table}{\numberline {6.2}{\ignorespaces The average percentage of noisy features selected, in the real-world (UCI) datasets.\relax }}{91}{table.caption.81}}
\newlabel{tbl:FS_NoisePerc_Real}{{6.2}{91}{The average percentage of noisy features selected, in the real-world (UCI) datasets.\relax }{table.caption.81}{}}
\@writefile{toc}{\contentsline {subsection}{\numberline {6.2.2}Extending the method to larger datasets}{91}{subsection.6.2.2}}
\@writefile{lot}{\contentsline {table}{\numberline {6.3}{\ignorespaces Performace of feature selection algorithms in UCI datasets with a higher degree of feature space cardinality.\relax }}{91}{table.caption.82}}
\newlabel{tb:FSFS_extPD}{{6.3}{91}{Performace of feature selection algorithms in UCI datasets with a higher degree of feature space cardinality.\relax }{table.caption.82}{}}
\@writefile{toc}{\contentsline {subsection}{\numberline {6.2.3}Performance of classifiers after feature selection}{92}{subsection.6.2.3}}
\@writefile{toc}{\contentsline {subsubsection}{Synthetic datasets}{92}{section*.83}}
\@writefile{lot}{\contentsline {table}{\numberline {6.4}{\ignorespaces The average accuracy of three classifiers, and respective standard deviations, on synthetic data sets containing about $50\%$ or $100\%$ extra features composed of uniformly random noise.\relax }}{92}{table.caption.84}}
\newlabel{tb:CombinedResult}{{6.4}{92}{The average accuracy of three classifiers, and respective standard deviations, on synthetic data sets containing about $50\%$ or $100\%$ extra features composed of uniformly random noise.\relax }{table.caption.84}{}}
\@writefile{toc}{\contentsline {subsubsection}{Real-world (UCI) datasets}{92}{section*.85}}
\@writefile{lot}{\contentsline {table}{\numberline {6.5}{\ignorespaces  The average accuracy of three classifiers, and their respective standard deviations, in real-world data sets containing about $50\%$ or $100\%$ extra features composed of uniformly random noise. \relax }}{93}{table.caption.86}}
\newlabel{tb:CombinedResult-REAL}{{6.5}{93}{The average accuracy of three classifiers, and their respective standard deviations, in real-world data sets containing about $50\%$ or $100\%$ extra features composed of uniformly random noise. \relax }{table.caption.86}{}}
\@writefile{toc}{\contentsline {subsection}{\numberline {6.2.4}Performance of feature selection in $L_p$ space}{93}{subsection.6.2.4}}
\@writefile{lot}{\contentsline {table}{\numberline {6.6}{\ignorespaces The average adjusted Rand Index and its standard deviation for the cluster recovery in synthetic datasets with and without noisy features in different p-norms. Silhouette Index is used for parameter tunning. \relax }}{93}{table.caption.87}}
\newlabel{tb:FSextendedToLP}{{6.6}{93}{The average adjusted Rand Index and its standard deviation for the cluster recovery in synthetic datasets with and without noisy features in different p-norms. Silhouette Index is used for parameter tunning. \relax }{table.caption.87}{}}
\@writefile{toc}{\contentsline {section}{\numberline {6.3}Extension of partial distance to the Minkowski metric }{94}{section.6.3}}
\@writefile{lot}{\contentsline {table}{\numberline {6.7}{\ignorespaces The average adjusted Rand Index and its standard deviation for the cluster recovery in synthetic datasets defined in p-norms. The datasets have missing values in first two features generated using the missing completely at random (MCAR) mechanism. The Performance columns contains mean/std of the ARIs.\relax }}{94}{table.caption.88}}
\newlabel{tb:FSFSextPDnew}{{6.7}{94}{The average adjusted Rand Index and its standard deviation for the cluster recovery in synthetic datasets defined in p-norms. The datasets have missing values in first two features generated using the missing completely at random (MCAR) mechanism. The Performance columns contains mean/std of the ARIs.\relax }{table.caption.88}{}}
\@writefile{toc}{\contentsline {section}{\numberline {6.4}Conclusion}{94}{section.6.4}}
\@writefile{toc}{\contentsline {chapter}{\numberline {7}Discussion and Conclusion }{95}{chapter.7}}
\@writefile{lof}{\addvspace {10\p@ }}
\@writefile{lot}{\addvspace {10\p@ }}
\newlabel{ch:Conclusion}{{7}{95}{Discussion and Conclusion}{chapter.7}{}}
\@writefile{toc}{\contentsline {section}{\numberline {7.1}Research outcomes}{95}{section.7.1}}
\@writefile{toc}{\contentsline {section}{\numberline {7.2}Observations}{95}{section.7.2}}
\citation{mitra2002unsupervised}
\@writefile{toc}{\contentsline {section}{\numberline {7.3}Limitations}{96}{section.7.3}}
\@writefile{toc}{\contentsline {section}{\numberline {7.4}Further research}{96}{section.7.4}}
\citation{kalnins1996superintegrability}
\@writefile{toc}{\contentsline {chapter}{Appendix \numberline {A}Coordinates System}{98}{Appendix.a.A}}
\@writefile{lof}{\addvspace {10\p@ }}
\@writefile{lot}{\addvspace {10\p@ }}
\@writefile{toc}{\contentsline {section}{\numberline {A.1}Cartesian to polar conversion}{98}{section.a.A.1}}
\newlabel{appendix:CartesianToPolar}{{A.1}{98}{Cartesian to polar conversion}{section.a.A.1}{}}
\newlabel{eq:SphericalCoordinate2D}{{A.1}{98}{Cartesian to polar conversion}{equation.a.A.1.1}{}}
\@writefile{toc}{\contentsline {chapter}{Appendix \numberline {B}Gaussian Distribution}{100}{Appendix.a.B}}
\@writefile{lof}{\addvspace {10\p@ }}
\@writefile{lot}{\addvspace {10\p@ }}
\newlabel{PDF_GaussianDist}{{B.1}{100}{Gaussian Distribution}{equation.a.B.0.1}{}}
\@writefile{toc}{\contentsline {subsection}{\numberline {B.0.1}Standard Gaussian Distribution}{100}{subsection.a.B.0.1}}
\@writefile{lof}{\contentsline {figure}{\numberline {B.1}{\ignorespaces Probability density function (PDF) of Gaussian Model with mean = 0 and sigma (standard deviation) = 1.\relax }}{100}{figure.caption.89}}
\newlabel{fig:stdGaussianDist}{{B.1}{100}{Probability density function (PDF) of Gaussian Model with mean = 0 and sigma (standard deviation) = 1.\relax }{figure.caption.89}{}}
\@writefile{toc}{\contentsline {subsection}{\numberline {B.0.2}Gaussian Distribution in two Dimension}{101}{subsection.a.B.0.2}}
\@writefile{lof}{\contentsline {figure}{\numberline {B.2}{\ignorespaces Probability density functions (PDFs) of two Gaussians with two variate random variables x and y. \relax }}{101}{figure.caption.90}}
\newlabel{fig:pdfGMM_2D}{{B.2}{101}{Probability density functions (PDFs) of two Gaussians with two variate random variables x and y. \relax }{figure.caption.90}{}}
\@writefile{toc}{\contentsline {subsection}{\numberline {B.0.3}Generalization of Gaussian Distribution}{101}{subsection.a.B.0.3}}
\newlabel{fig:PDF_GaussianDist}{{B.2}{101}{Generalization of Gaussian Distribution}{equation.a.B.0.2}{}}
\@writefile{lof}{\contentsline {figure}{\numberline {B.3}{\ignorespaces Normalized Gaussian distribution in three dimension. \relax }}{102}{figure.caption.91}}
\newlabel{fig:pdfGMM_3D}{{B.3}{102}{Normalized Gaussian distribution in three dimension. \relax }{figure.caption.91}{}}
\@writefile{toc}{\contentsline {chapter}{Appendix \numberline {C}Gaussian Mixed Model}{103}{Appendix.a.C}}
\@writefile{lof}{\addvspace {10\p@ }}
\@writefile{lot}{\addvspace {10\p@ }}
\@writefile{lof}{\contentsline {figure}{\numberline {C.1}{\ignorespaces Probability density functions (PDFs) of three univariate Gaussian components\relax }}{103}{figure.caption.92}}
\newlabel{fig:pdfGMM2}{{C.1}{103}{Probability density functions (PDFs) of three univariate Gaussian components\relax }{figure.caption.92}{}}
\@writefile{toc}{\contentsline {subsection}{\numberline {C.0.1}Gaussian Mixed Model in one Dimension}{103}{subsection.a.C.0.1}}
\@writefile{lof}{\contentsline {figure}{\numberline {C.2}{\ignorespaces Mixed model Gaussian (GMM) distribution of three univariate Gaussian components is given by a linear combination of the three Gaussians.\relax }}{104}{figure.caption.93}}
\newlabel{fig:pdfGMM_Mixed}{{C.2}{104}{Mixed model Gaussian (GMM) distribution of three univariate Gaussian components is given by a linear combination of the three Gaussians.\relax }{figure.caption.93}{}}
\@writefile{toc}{\contentsline {subsection}{\numberline {C.0.2}Gaussian Mixed Model (GMM) for two Dimensions}{104}{subsection.a.C.0.2}}
\@writefile{lof}{\contentsline {figure}{\numberline {C.3}{\ignorespaces Probability density functions (PDF) of two variate Gaussian components\relax }}{105}{figure.caption.94}}
\newlabel{fig:pdfGMM_2D_Mixed}{{C.3}{105}{Probability density functions (PDF) of two variate Gaussian components\relax }{figure.caption.94}{}}
\citation{rand1971objective}
\@writefile{toc}{\contentsline {chapter}{Appendix \numberline {D}GMM Control Parameters and \textit  {k}}{106}{Appendix.a.D}}
\@writefile{lof}{\addvspace {10\p@ }}
\@writefile{lot}{\addvspace {10\p@ }}
\@writefile{toc}{\contentsline {section}{\numberline {D.1}Control Parameters in GMM}{106}{section.a.D.1}}
\@writefile{toc}{\contentsline {subsection}{\numberline {D.1.1}Visualization of GMM Datasets}{106}{subsection.a.D.1.1}}
\@writefile{lof}{\contentsline {figure}{\numberline {D.1}{\ignorespaces Visualization of the synthetic datasets generated by Gaussian mixed models. These models consist of two GM components and have four variates (features). First two PCA )Principal component analysis) component are used to display the data points.\relax }}{107}{figure.caption.95}}
\newlabel{fig:dataVisualization1}{{D.1}{107}{Visualization of the synthetic datasets generated by Gaussian mixed models. These models consist of two GM components and have four variates (features). First two PCA )Principal component analysis) component are used to display the data points.\relax }{figure.caption.95}{}}
\@writefile{lof}{\contentsline {figure}{\numberline {D.2}{\ignorespaces Visualization of the synthetic datasets generated by spherical shaped Gaussian mixed models. These models consist of four Gaussian components and have four variates (features). First two components of PCA are used to display data points.\relax }}{108}{figure.caption.96}}
\newlabel{fig:dataVisualization2}{{D.2}{108}{Visualization of the synthetic datasets generated by spherical shaped Gaussian mixed models. These models consist of four Gaussian components and have four variates (features). First two components of PCA are used to display data points.\relax }{figure.caption.96}{}}
\@writefile{toc}{\contentsline {subsection}{\numberline {D.1.2}Observation based on cluster recovery}{108}{subsection.a.D.1.2}}
\@writefile{lof}{\contentsline {figure}{\numberline {D.3}{\ignorespaces Performance of \textit  {k}-Means is influenced by the number of features of the Gaussian components. \relax }}{109}{figure.caption.97}}
\@writefile{lof}{\contentsline {figure}{\numberline {D.4}{\ignorespaces Performance of \textit  {k}-Means against the number of Gaussian components.\relax }}{110}{figure.caption.98}}
\@writefile{lof}{\contentsline {figure}{\numberline {D.5}{\ignorespaces Performance of \textit  {k}-Means against the covariance of the Gaussian components.\relax }}{111}{figure.caption.99}}
\@writefile{toc}{\contentsline {chapter}{Appendix \numberline {E}Effect of Noise in \textit  {k}-means}{112}{Appendix.a.E}}
\@writefile{lof}{\addvspace {10\p@ }}
\@writefile{lot}{\addvspace {10\p@ }}
\@writefile{lof}{\contentsline {figure}{\numberline {E.1}{\ignorespaces Effect of noise on the performance of \textit  {k}-Means. Datasets are generated using Gaussian mixed models. Noise i generated from two different distributions: Gaussian and uniform distributions. \relax }}{112}{figure.caption.101}}
\bibdata{bib/references}
\@writefile{lof}{\contentsline {figure}{\numberline {E.2}{\ignorespaces Effect of noise on the performance of \textit  {k}-Means in real-world datasets. Datasets are generated using Gaussian mixed models. Noise are generated from two different distributions: Gaussian and uniform distributions.\relax }}{113}{figure.caption.102}}
\bibcite{8717648}{1}
\bibcite{gupta2019pk}{2}
\bibcite{lattanzi2019better}{3}
\bibcite{little2019statistical}{4}
\bibcite{unlu2019estimating}{5}
\bibcite{negi2018k}{6}
\bibcite{tang2018robust}{7}
\bibcite{yang2018semi}{8}
\bibcite{chan2017efficient}{9}
\bibcite{ismail2017improving}{10}
\bibcite{lamirel2017novel}{11}
\bibcite{wang2017efficient}{12}
\bibcite{zhu2017non}{13}
\bibcite{beretta2016nearest}{14}
\bibcite{de2016clustering}{15}
\bibcite{yi2016unsupervised}{16}
\bibcite{de2015recovering}{17}
\bibcite{lamirel2015federating}{18}
\bibcite{zhu2015unsupervised}{19}
\bibcite{anderberg2014cluster}{20}
\bibcite{chandrashekar2014survey}{21}
\bibcite{goyal2014improving}{22}
\bibcite{van2014incomplete}{23}
\bibcite{abdallah2013distance}{24}
\bibcite{benabdeslem2013efficient}{25}
\bibcite{eirola2013distance}{26}
\bibcite{mohamad2013standardization}{27}
\bibcite{clason2012fitting}{28}
\bibcite{amorim2013constrained}{29}
\bibcite{de2012initializations}{30}
\bibcite{de2012minkowski}{31}
\bibcite{mirkin2012clustering}{32}
\bibcite{mirkin2011choosing}{33}
\bibcite{xiao2011restoration}{34}
\bibcite{cai2010unsupervised}{35}
\bibcite{chiang2010intelligent}{36}
\bibcite{himmelspach2010clustering}{37}
\bibcite{jain2010data}{38}
\bibcite{liu2010feature}{39}
\bibcite{hastie2009elements}{40}
\bibcite{ling2009estimation}{41}
\bibcite{liu2009adaptive}{42}
\bibcite{santos2009use}{43}
\bibcite{donoho2008fast}{44}
\bibcite{dy2008unsupervised}{45}
\bibcite{huang2008weighting}{46}
\bibcite{chiang2007experiments}{47}
\bibcite{hamerly2007pg}{48}
\bibcite{jing2007entropy}{49}
\bibcite{von2007tutorial}{50}
\bibcite{yoon2007robust}{51}
\bibcite{arthur2006k}{52}
\bibcite{gan2006microarray}{53}
\bibcite{steinley2006k}{54}
\bibcite{welling2006bayesian}{55}
\bibcite{acock2005working}{56}
\bibcite{cai2005document}{57}
\bibcite{huang2005automated}{58}
\bibcite{kim2005missing}{59}
\bibcite{BMirkinCForDM2005}{60}
\bibcite{wasito2005nearest}{61}
\bibcite{witten2005data}{62}
\bibcite{yaramakala2005speculative}{63}
\bibcite{basu2004probabilistic}{64}
\bibcite{bilenko2004integrating}{65}
\bibcite{bo2004lsimpute}{66}
\bibcite{chan2004optimization}{67}
\bibcite{dy2004feature}{68}
\bibcite{efron2004least}{69}
\bibcite{farmer2004large}{70}
\bibcite{frigui2004unsupervised}{71}
\bibcite{hamerly2004learning}{72}
\bibcite{jonsson2004evaluation}{73}
\bibcite{ouyang2004gaussian}{74}
\bibcite{rubin2004multiple}{75}
\bibcite{steinbach2004challenges}{76}
\bibcite{steinley2004standardizing}{77}
\bibcite{zhu2004class}{78}
\bibcite{chavez2003probabilistic}{79}
\bibcite{guyon2003introduction}{80}
\bibcite{lattin2003analyzing}{81}
\bibcite{modha2003feature}{82}
\bibcite{pavlenko2003feature}{83}
\bibcite{steinley2003local}{84}
\bibcite{sugar2003finding}{85}
\bibcite{tseng2003pre}{86}
\bibcite{basu2002semi}{87}
\bibcite{mitra2002unsupervised}{88}
\bibcite{ng2002spectral}{89}
\bibcite{yom2002feature}{90}
\bibcite{banerjee2001clickstream}{91}
\bibcite{belkin2001laplacian}{92}
\bibcite{falkenauer2001using}{93}
\bibcite{tibshirani2001estimating}{94}
\bibcite{troyanskaya2001missing}{95}
\bibcite{wagstaff2001constrained}{96}
\bibcite{chen2000nearest}{97}
\bibcite{pelleg2000x}{98}
\bibcite{pestov2000geometry}{99}
\bibcite{shi2000normalized}{100}
\bibcite{vandenbroucke2000unsupervised}{101}
\bibcite{carmone1999hinov}{102}
\bibcite{dash1999handling}{103}
\bibcite{jain1999data}{104}
\bibcite{pena1999empirical}{105}
\bibcite{hernandez1998real}{106}
\bibcite{sugar1998techniques}{107}
\bibcite{wettschereck1997review}{108}
\bibcite{kalnins1996superintegrability}{109}
\bibcite{mirkin1996mathematical}{110}
\bibcite{rubin1996multiple}{111}
\bibcite{schaffer1996empirical}{112}
\bibcite{kononenko1994estimating}{113}
\bibcite{pudil1994floating}{114}
\bibcite{}{115}
\bibcite{skalak1994prototype}{116}
\bibcite{arabie1992combinatorial}{117}
\bibcite{de1988ovwtre}{118}
\bibcite{fowlkes1988variable}{119}
\bibcite{jain1988algorithms}{120}
\bibcite{mandel1988clustering}{121}
\bibcite{milligan1988study}{122}
\bibcite{silhouteeIndex}{123}
\bibcite{de1986optimal}{124}
\bibcite{quinlan1986effect}{125}
\bibcite{haralick1985image}{126}
\bibcite{desarbo1984synthesized}{127}
\bibcite{desarbo1984constrained}{128}
\bibcite{rohlf1982consensus}{129}
\bibcite{milligan1980examination}{130}
\bibcite{milligan1980two}{131}
\bibcite{hartigan1979k}{132}
\bibcite{stoddard1979standardization}{133}
\bibcite{dempster1977maximum}{134}
\bibcite{sripad1977necessary}{135}
\bibcite{hartigan1975clustering}{136}
\bibcite{chIndex}{137}
\bibcite{duda1973pattern}{138}
\bibcite{sneath1973numerical}{139}
\bibcite{cormack1971review}{140}
\bibcite{rand1971objective}{141}
\bibcite{astrahan1970speech}{142}
\bibcite{wishert1969mode}{143}
\bibcite{ball1967clustering}{144}
\bibcite{macqueen1967some}{145}
\bibcite{ball1965isodata}{146}
\bibcite{wardGrouping1963}{147}
\bibcite{fisher1958grouping}{148}
\bibcite{cox1957note}{149}
\bibcite{holzinger1941factor}{150}
\bibcite{driver1932quantitative}{151}
