%!PS-Adobe-3.0 EPSF-3.0
%%Creator: (MATLAB, The Mathworks, Inc. Version 8.5.0.197613 \(R2015a\). Operating System: Windows 7)
%%Title: E:/Documentation/Thesis/fig/Lp/ARI_CluserRecoveryKMeans_Avg.eps
%%CreationDate: 2020-08-03T00:11:58
%%Pages: (atend)
%%BoundingBox: 0 0 650 297
%%LanguageLevel: 2
%%EndComments
%%BeginProlog
%%BeginResource: procset (Apache XML Graphics Std ProcSet) 1.2 0
%%Version: 1.2 0
%%Copyright: (Copyright 2001-2003,2010 The Apache Software Foundation. License terms: http://www.apache.org/licenses/LICENSE-2.0)
/bd{bind def}bind def
/ld{load def}bd
/GR/grestore ld
/M/moveto ld
/LJ/setlinejoin ld
/C/curveto ld
/f/fill ld
/LW/setlinewidth ld
/GC/setgray ld
/t/show ld
/N/newpath ld
/CT/concat ld
/cp/closepath ld
/S/stroke ld
/L/lineto ld
/CC/setcmykcolor ld
/A/ashow ld
/GS/gsave ld
/RC/setrgbcolor ld
/RM/rmoveto ld
/ML/setmiterlimit ld
/re {4 2 roll M
1 index 0 rlineto
0 exch rlineto
neg 0 rlineto
cp } bd
/_ctm matrix def
/_tm matrix def
/BT { _ctm currentmatrix pop matrix _tm copy pop 0 0 moveto } bd
/ET { _ctm setmatrix } bd
/iTm { _ctm setmatrix _tm concat } bd
/Tm { _tm astore pop iTm 0 0 moveto } bd
/ux 0.0 def
/uy 0.0 def
/F {
  /Tp exch def
  /Tf exch def
  Tf findfont Tp scalefont setfont
  /cf Tf def  /cs Tp def
} bd
/ULS {currentpoint /uy exch def /ux exch def} bd
/ULE {
  /Tcx currentpoint pop def
  gsave
  newpath
  cf findfont cs scalefont dup
  /FontMatrix get 0 get /Ts exch def /FontInfo get dup
  /UnderlinePosition get Ts mul /To exch def
  /UnderlineThickness get Ts mul /Tt exch def
  ux uy To add moveto  Tcx uy To add lineto
  Tt setlinewidth stroke
  grestore
} bd
/OLE {
  /Tcx currentpoint pop def
  gsave
  newpath
  cf findfont cs scalefont dup
  /FontMatrix get 0 get /Ts exch def /FontInfo get dup
  /UnderlinePosition get Ts mul /To exch def
  /UnderlineThickness get Ts mul /Tt exch def
  ux uy To add cs add moveto Tcx uy To add cs add lineto
  Tt setlinewidth stroke
  grestore
} bd
/SOE {
  /Tcx currentpoint pop def
  gsave
  newpath
  cf findfont cs scalefont dup
  /FontMatrix get 0 get /Ts exch def /FontInfo get dup
  /UnderlinePosition get Ts mul /To exch def
  /UnderlineThickness get Ts mul /Tt exch def
  ux uy To add cs 10 mul 26 idiv add moveto Tcx uy To add cs 10 mul 26 idiv add lineto
  Tt setlinewidth stroke
  grestore
} bd
/QT {
/Y22 exch store
/X22 exch store
/Y21 exch store
/X21 exch store
currentpoint
/Y21 load 2 mul add 3 div exch
/X21 load 2 mul add 3 div exch
/X21 load 2 mul /X22 load add 3 div
/Y21 load 2 mul /Y22 load add 3 div
/X22 load /Y22 load curveto
} bd
/SSPD {
dup length /d exch dict def
{
/v exch def
/k exch def
currentpagedevice k known {
/cpdv currentpagedevice k get def
v cpdv ne {
/upd false def
/nullv v type /nulltype eq def
/nullcpdv cpdv type /nulltype eq def
nullv nullcpdv or
{
/upd true def
} {
/sametype v type cpdv type eq def
sametype {
v type /arraytype eq {
/vlen v length def
/cpdvlen cpdv length def
vlen cpdvlen eq {
0 1 vlen 1 sub {
/i exch def
/obj v i get def
/cpdobj cpdv i get def
obj cpdobj ne {
/upd true def
exit
} if
} for
} {
/upd true def
} ifelse
} {
v type /dicttype eq {
v {
/dv exch def
/dk exch def
/cpddv cpdv dk get def
dv cpddv ne {
/upd true def
exit
} if
} forall
} {
/upd true def
} ifelse
} ifelse
} if
} ifelse
upd true eq {
d k v put
} if
} if
} if
} forall
d length 0 gt {
d setpagedevice
} if
} bd
%%EndResource
%%BeginResource: procset (Apache XML Graphics EPS ProcSet) 1.0 0
%%Version: 1.0 0
%%Copyright: (Copyright 2002-2003 The Apache Software Foundation. License terms: http://www.apache.org/licenses/LICENSE-2.0)
/BeginEPSF { %def
/b4_Inc_state save def         % Save state for cleanup
/dict_count countdictstack def % Count objects on dict stack
/op_count count 1 sub def      % Count objects on operand stack
userdict begin                 % Push userdict on dict stack
/showpage { } def              % Redefine showpage, { } = null proc
0 setgray 0 setlinecap         % Prepare graphics state
1 setlinewidth 0 setlinejoin
10 setmiterlimit [ ] 0 setdash newpath
/languagelevel where           % If level not equal to 1 then
{pop languagelevel             % set strokeadjust and
1 ne                           % overprint to their defaults.
{false setstrokeadjust false setoverprint
} if
} if
} bd
/EndEPSF { %def
count op_count sub {pop} repeat            % Clean up stacks
countdictstack dict_count sub {end} repeat
b4_Inc_state restore
} bd
%%EndResource
%FOPBeginFontDict
%%IncludeResource: font Courier-Bold
%%IncludeResource: font Helvetica
%%IncludeResource: font Courier-BoldOblique
%%IncludeResource: font Courier-Oblique
%%IncludeResource: font Times-Roman
%%IncludeResource: font Helvetica-BoldOblique
%%IncludeResource: font Helvetica-Bold
%%IncludeResource: font Helvetica-Oblique
%%IncludeResource: font Times-BoldItalic
%%IncludeResource: font Courier
%%IncludeResource: font Times-Italic
%%IncludeResource: font Times-Bold
%%IncludeResource: font Symbol
%%IncludeResource: font ZapfDingbats
%FOPEndFontDict
%%BeginResource: encoding WinAnsiEncoding
/WinAnsiEncoding [
/.notdef /.notdef /.notdef /.notdef /.notdef
/.notdef /.notdef /.notdef /.notdef /.notdef
/.notdef /.notdef /.notdef /.notdef /.notdef
/.notdef /.notdef /.notdef /.notdef /.notdef
/.notdef /.notdef /.notdef /.notdef /.notdef
/.notdef /.notdef /.notdef /.notdef /.notdef
/.notdef /.notdef /space /exclam /quotedbl
/numbersign /dollar /percent /ampersand /quotesingle
/parenleft /parenright /asterisk /plus /comma
/hyphen /period /slash /zero /one
/two /three /four /five /six
/seven /eight /nine /colon /semicolon
/less /equal /greater /question /at
/A /B /C /D /E
/F /G /H /I /J
/K /L /M /N /O
/P /Q /R /S /T
/U /V /W /X /Y
/Z /bracketleft /backslash /bracketright /asciicircum
/underscore /quoteleft /a /b /c
/d /e /f /g /h
/i /j /k /l /m
/n /o /p /q /r
/s /t /u /v /w
/x /y /z /braceleft /bar
/braceright /asciitilde /bullet /Euro /bullet
/quotesinglbase /florin /quotedblbase /ellipsis /dagger
/daggerdbl /circumflex /perthousand /Scaron /guilsinglleft
/OE /bullet /Zcaron /bullet /bullet
/quoteleft /quoteright /quotedblleft /quotedblright /bullet
/endash /emdash /asciitilde /trademark /scaron
/guilsinglright /oe /bullet /zcaron /Ydieresis
/space /exclamdown /cent /sterling /currency
/yen /brokenbar /section /dieresis /copyright
/ordfeminine /guillemotleft /logicalnot /sfthyphen /registered
/macron /degree /plusminus /twosuperior /threesuperior
/acute /mu /paragraph /middot /cedilla
/onesuperior /ordmasculine /guillemotright /onequarter /onehalf
/threequarters /questiondown /Agrave /Aacute /Acircumflex
/Atilde /Adieresis /Aring /AE /Ccedilla
/Egrave /Eacute /Ecircumflex /Edieresis /Igrave
/Iacute /Icircumflex /Idieresis /Eth /Ntilde
/Ograve /Oacute /Ocircumflex /Otilde /Odieresis
/multiply /Oslash /Ugrave /Uacute /Ucircumflex
/Udieresis /Yacute /Thorn /germandbls /agrave
/aacute /acircumflex /atilde /adieresis /aring
/ae /ccedilla /egrave /eacute /ecircumflex
/edieresis /igrave /iacute /icircumflex /idieresis
/eth /ntilde /ograve /oacute /ocircumflex
/otilde /odieresis /divide /oslash /ugrave
/uacute /ucircumflex /udieresis /yacute /thorn
/ydieresis
] def
%%EndResource
%FOPBeginFontReencode
/Courier-Bold findfont
dup length dict begin
  {1 index /FID ne {def} {pop pop} ifelse} forall
  /Encoding WinAnsiEncoding def
  currentdict
end
/Courier-Bold exch definefont pop
/Helvetica findfont
dup length dict begin
  {1 index /FID ne {def} {pop pop} ifelse} forall
  /Encoding WinAnsiEncoding def
  currentdict
end
/Helvetica exch definefont pop
/Courier-BoldOblique findfont
dup length dict begin
  {1 index /FID ne {def} {pop pop} ifelse} forall
  /Encoding WinAnsiEncoding def
  currentdict
end
/Courier-BoldOblique exch definefont pop
/Courier-Oblique findfont
dup length dict begin
  {1 index /FID ne {def} {pop pop} ifelse} forall
  /Encoding WinAnsiEncoding def
  currentdict
end
/Courier-Oblique exch definefont pop
/Times-Roman findfont
dup length dict begin
  {1 index /FID ne {def} {pop pop} ifelse} forall
  /Encoding WinAnsiEncoding def
  currentdict
end
/Times-Roman exch definefont pop
/Helvetica-BoldOblique findfont
dup length dict begin
  {1 index /FID ne {def} {pop pop} ifelse} forall
  /Encoding WinAnsiEncoding def
  currentdict
end
/Helvetica-BoldOblique exch definefont pop
/Helvetica-Bold findfont
dup length dict begin
  {1 index /FID ne {def} {pop pop} ifelse} forall
  /Encoding WinAnsiEncoding def
  currentdict
end
/Helvetica-Bold exch definefont pop
/Helvetica-Oblique findfont
dup length dict begin
  {1 index /FID ne {def} {pop pop} ifelse} forall
  /Encoding WinAnsiEncoding def
  currentdict
end
/Helvetica-Oblique exch definefont pop
/Times-BoldItalic findfont
dup length dict begin
  {1 index /FID ne {def} {pop pop} ifelse} forall
  /Encoding WinAnsiEncoding def
  currentdict
end
/Times-BoldItalic exch definefont pop
/Courier findfont
dup length dict begin
  {1 index /FID ne {def} {pop pop} ifelse} forall
  /Encoding WinAnsiEncoding def
  currentdict
end
/Courier exch definefont pop
/Times-Italic findfont
dup length dict begin
  {1 index /FID ne {def} {pop pop} ifelse} forall
  /Encoding WinAnsiEncoding def
  currentdict
end
/Times-Italic exch definefont pop
/Times-Bold findfont
dup length dict begin
  {1 index /FID ne {def} {pop pop} ifelse} forall
  /Encoding WinAnsiEncoding def
  currentdict
end
/Times-Bold exch definefont pop
%FOPEndFontReencode
%%EndProlog
%%Page: 1 1
%%PageBoundingBox: 0 0 650 297
%%BeginPageSetup
[1 0 0 -1 0 297] CT
%%EndPageSetup
GS
[0.75 0 0 0.75 0 0] CT
1 GC
N
0 0 866 396 re
f
GR
GS
[0.75 0 0 0.75 0 0] CT
1 GC
N
0 0 866 396 re
f
GR
GS
[0.75 0 0 0.75 0 0] CT
1 GC
N
113 352 M
784 352 L
784 30 L
113 30 L
cp
f
GR
GS
[0.75 0 0 0.75 336.37523 281.74999] CT
0.149 GC
/Helvetica 15 F
GS
[1 0 0 1 0 0] CT
-106 16 moveto 
1 -1 scale
(dataset distance coefficient \(p1\)) t 
GR
GR
GS
[0.75 0 0 0.75 0 0] CT
0.149 GC
2 setlinecap
10.0 ML
N
113 352 M
784 352 L
S
GR
GS
[0.75 0 0 0.75 0 0] CT
0.149 GC
2 setlinecap
10.0 ML
N
113 30 M
784 30 L
S
GR
GS
[0.75 0 0 0.75 0 0] CT
0.149 GC
2 setlinecap
10.0 ML
N
113 352 M
113 345.29 L
S
GR
GS
[0.75 0 0 0.75 0 0] CT
0.149 GC
2 setlinecap
10.0 ML
N
187.556 352 M
187.556 345.29 L
S
GR
GS
[0.75 0 0 0.75 0 0] CT
0.149 GC
2 setlinecap
10.0 ML
N
262.111 352 M
262.111 345.29 L
S
GR
GS
[0.75 0 0 0.75 0 0] CT
0.149 GC
2 setlinecap
10.0 ML
N
336.667 352 M
336.667 345.29 L
S
GR
GS
[0.75 0 0 0.75 0 0] CT
0.149 GC
2 setlinecap
10.0 ML
N
411.222 352 M
411.222 345.29 L
S
GR
GS
[0.75 0 0 0.75 0 0] CT
0.149 GC
2 setlinecap
10.0 ML
N
485.778 352 M
485.778 345.29 L
S
GR
GS
[0.75 0 0 0.75 0 0] CT
0.149 GC
2 setlinecap
10.0 ML
N
560.333 352 M
560.333 345.29 L
S
GR
GS
[0.75 0 0 0.75 0 0] CT
0.149 GC
2 setlinecap
10.0 ML
N
634.889 352 M
634.889 345.29 L
S
GR
GS
[0.75 0 0 0.75 0 0] CT
0.149 GC
2 setlinecap
10.0 ML
N
709.444 352 M
709.444 345.29 L
S
GR
GS
[0.75 0 0 0.75 0 0] CT
0.149 GC
2 setlinecap
10.0 ML
N
784 352 M
784 345.29 L
S
GR
GS
[0.75 0 0 0.75 0 0] CT
0.149 GC
2 setlinecap
10.0 ML
N
113 30 M
113 36.71 L
S
GR
GS
[0.75 0 0 0.75 0 0] CT
0.149 GC
2 setlinecap
10.0 ML
N
187.556 30 M
187.556 36.71 L
S
GR
GS
[0.75 0 0 0.75 0 0] CT
0.149 GC
2 setlinecap
10.0 ML
N
262.111 30 M
262.111 36.71 L
S
GR
GS
[0.75 0 0 0.75 0 0] CT
0.149 GC
2 setlinecap
10.0 ML
N
336.667 30 M
336.667 36.71 L
S
GR
GS
[0.75 0 0 0.75 0 0] CT
0.149 GC
2 setlinecap
10.0 ML
N
411.222 30 M
411.222 36.71 L
S
GR
GS
[0.75 0 0 0.75 0 0] CT
0.149 GC
2 setlinecap
10.0 ML
N
485.778 30 M
485.778 36.71 L
S
GR
GS
[0.75 0 0 0.75 0 0] CT
0.149 GC
2 setlinecap
10.0 ML
N
560.333 30 M
560.333 36.71 L
S
GR
GS
[0.75 0 0 0.75 0 0] CT
0.149 GC
2 setlinecap
10.0 ML
N
634.889 30 M
634.889 36.71 L
S
GR
GS
[0.75 0 0 0.75 0 0] CT
0.149 GC
2 setlinecap
10.0 ML
N
709.444 30 M
709.444 36.71 L
S
GR
GS
[0.75 0 0 0.75 0 0] CT
0.149 GC
2 setlinecap
10.0 ML
N
784 30 M
784 36.71 L
S
GR
GS
[0.75 0 0 0.75 84.75 268.00001] CT
0.149 GC
/Helvetica 13 F
GS
[1 0 0 1 0 0] CT
-9.5 14 moveto 
1 -1 scale
(0.5) t 
GR
GR
GS
[0.75 0 0 0.75 140.66667 268.00001] CT
0.149 GC
/Helvetica 13 F
GS
[1 0 0 1 0 0] CT
-4 14 moveto 
1 -1 scale
(1) t 
GR
GR
GS
[0.75 0 0 0.75 196.58334 268.00001] CT
0.149 GC
/Helvetica 13 F
GS
[1 0 0 1 0 0] CT
-9.5 14 moveto 
1 -1 scale
(1.5) t 
GR
GR
GS
[0.75 0 0 0.75 252.49999 268.00001] CT
0.149 GC
/Helvetica 13 F
GS
[1 0 0 1 0 0] CT
-4 14 moveto 
1 -1 scale
(2) t 
GR
GR
GS
[0.75 0 0 0.75 308.41667 268.00001] CT
0.149 GC
/Helvetica 13 F
GS
[1 0 0 1 0 0] CT
-9.5 14 moveto 
1 -1 scale
(2.5) t 
GR
GR
GS
[0.75 0 0 0.75 364.33333 268.00001] CT
0.149 GC
/Helvetica 13 F
GS
[1 0 0 1 0 0] CT
-4 14 moveto 
1 -1 scale
(3) t 
GR
GR
GS
[0.75 0 0 0.75 420.24998 268.00001] CT
0.149 GC
/Helvetica 13 F
GS
[1 0 0 1 0 0] CT
-9.5 14 moveto 
1 -1 scale
(3.5) t 
GR
GR
GS
[0.75 0 0 0.75 476.16669 268.00001] CT
0.149 GC
/Helvetica 13 F
GS
[1 0 0 1 0 0] CT
-4 14 moveto 
1 -1 scale
(4) t 
GR
GR
GS
[0.75 0 0 0.75 532.08334 268.00001] CT
0.149 GC
/Helvetica 13 F
GS
[1 0 0 1 0 0] CT
-9.5 14 moveto 
1 -1 scale
(4.5) t 
GR
GR
GS
[0.75 0 0 0.75 588 268.00001] CT
0.149 GC
/Helvetica 13 F
GS
[1 0 0 1 0 0] CT
-4 14 moveto 
1 -1 scale
(5) t 
GR
GR
GS
[0 -0.75 0.75 0 58.25 143.24989] CT
0.149 GC
/Helvetica 15 F
GS
[1 0 0 1 0 0] CT
-73 -4 moveto 
1 -1 scale
(cluster recovery \(ARI\)) t 
GR
GR
GS
[0.75 0 0 0.75 0 0] CT
0.149 GC
2 setlinecap
10.0 ML
N
113 352 M
113 30 L
S
GR
GS
[0.75 0 0 0.75 0 0] CT
0.149 GC
2 setlinecap
10.0 ML
N
784 352 M
784 30 L
S
GR
GS
[0.75 0 0 0.75 0 0] CT
0.149 GC
2 setlinecap
10.0 ML
N
113 352 M
119.71 352 L
S
GR
GS
[0.75 0 0 0.75 0 0] CT
0.149 GC
2 setlinecap
10.0 ML
N
113 287.6 M
119.71 287.6 L
S
GR
GS
[0.75 0 0 0.75 0 0] CT
0.149 GC
2 setlinecap
10.0 ML
N
113 223.2 M
119.71 223.2 L
S
GR
GS
[0.75 0 0 0.75 0 0] CT
0.149 GC
2 setlinecap
10.0 ML
N
113 158.8 M
119.71 158.8 L
S
GR
GS
[0.75 0 0 0.75 0 0] CT
0.149 GC
2 setlinecap
10.0 ML
N
113 94.4 M
119.71 94.4 L
S
GR
GS
[0.75 0 0 0.75 0 0] CT
0.149 GC
2 setlinecap
10.0 ML
N
113 30 M
119.71 30 L
S
GR
GS
[0.75 0 0 0.75 0 0] CT
0.149 GC
2 setlinecap
10.0 ML
N
784 352 M
777.29 352 L
S
GR
GS
[0.75 0 0 0.75 0 0] CT
0.149 GC
2 setlinecap
10.0 ML
N
784 287.6 M
777.29 287.6 L
S
GR
GS
[0.75 0 0 0.75 0 0] CT
0.149 GC
2 setlinecap
10.0 ML
N
784 223.2 M
777.29 223.2 L
S
GR
GS
[0.75 0 0 0.75 0 0] CT
0.149 GC
2 setlinecap
10.0 ML
N
784 158.8 M
777.29 158.8 L
S
GR
GS
[0.75 0 0 0.75 0 0] CT
0.149 GC
2 setlinecap
10.0 ML
N
784 94.4 M
777.29 94.4 L
S
GR
GS
[0.75 0 0 0.75 0 0] CT
0.149 GC
2 setlinecap
10.0 ML
N
784 30 M
777.29 30 L
S
GR
GS
[0.75 0 0 0.75 80.75 264] CT
0.149 GC
/Helvetica 13 F
GS
[1 0 0 1 0 0] CT
-26 5.5 moveto 
1 -1 scale
(0.75) t 
GR
GR
GS
[0.75 0 0 0.75 80.75 215.69998] CT
0.149 GC
/Helvetica 13 F
GS
[1 0 0 1 0 0] CT
-19 5.5 moveto 
1 -1 scale
(0.8) t 
GR
GR
GS
[0.75 0 0 0.75 80.75 167.39997] CT
0.149 GC
/Helvetica 13 F
GS
[1 0 0 1 0 0] CT
-26 5.5 moveto 
1 -1 scale
(0.85) t 
GR
GR
GS
[0.75 0 0 0.75 80.75 119.10003] CT
0.149 GC
/Helvetica 13 F
GS
[1 0 0 1 0 0] CT
-19 5.5 moveto 
1 -1 scale
(0.9) t 
GR
GR
GS
[0.75 0 0 0.75 80.75 70.80001] CT
0.149 GC
/Helvetica 13 F
GS
[1 0 0 1 0 0] CT
-26 5.5 moveto 
1 -1 scale
(0.95) t 
GR
GR
GS
[0.75 0 0 0.75 80.75 22.5] CT
0.149 GC
/Helvetica 13 F
GS
[1 0 0 1 0 0] CT
-8 5.5 moveto 
1 -1 scale
(1) t 
GR
GR
GS
[0.75 0 0 0.75 0 0] CT
0 0 1 RC
2 LJ
N
113 30 M
127.911 30 L
142.822 30 L
157.733 30 L
172.644 30 L
187.556 30 L
202.467 30.12 L
217.378 30.12 L
232.289 30.238 L
247.2 30.589 L
262.111 31.167 L
277.022 32.369 L
291.933 33.464 L
306.844 35.834 L
321.756 38.383 L
336.667 41.981 L
351.578 45.599 L
366.489 50.391 L
381.4 56.061 L
396.311 61.272 L
411.222 68.054 L
426.133 74.417 L
441.044 81.245 L
455.956 86.924 L
470.867 93.266 L
485.778 100.783 L
500.689 107.116 L
515.6 113.843 L
530.511 119.1 L
545.422 125.567 L
560.333 131.341 L
575.244 137.12 L
590.156 142.897 L
605.067 148.658 L
619.978 154.447 L
634.889 159.28 L
649.8 163.676 L
664.711 168.592 L
679.622 172.972 L
694.533 177.402 L
709.444 182.867 L
724.356 185.749 L
739.267 189.108 L
754.178 193.289 L
769.089 195.669 L
784 198.185 L
S
GR
GS
[0.75 0 0 0.75 0 0] CT
0 1 0 RC
2 LJ
N
113 30 M
127.911 30 L
142.822 30 L
157.733 30 L
172.644 30 L
187.556 30 L
202.467 37.868 L
217.378 30.12 L
232.289 30.238 L
247.2 30.589 L
262.111 39.207 L
277.022 32.369 L
291.933 33.464 L
306.844 35.834 L
321.756 38.383 L
336.667 41.981 L
351.578 45.599 L
366.489 50.391 L
381.4 56.171 L
396.311 61.104 L
411.222 68.054 L
426.133 74.305 L
441.044 81.097 L
455.956 86.818 L
470.867 93.472 L
485.778 100.733 L
500.689 107.176 L
515.6 113.76 L
530.511 119.103 L
545.422 125.777 L
560.333 131.263 L
575.244 137.255 L
590.156 143.046 L
605.067 148.651 L
619.978 154.957 L
634.889 159.438 L
649.8 163.596 L
664.711 168.456 L
679.622 172.671 L
694.533 177.365 L
709.444 182.384 L
724.356 185.887 L
739.267 189.23 L
754.178 193.275 L
769.089 196.12 L
784 198.82 L
S
GR
GS
[0.75 0 0 0.75 0 0] CT
2 LJ
N
113 337.713 M
127.911 325.268 L
142.822 329.486 L
157.733 310.518 L
172.644 298.018 L
187.556 287.243 L
202.467 273.991 L
217.378 255.26 L
232.289 233.784 L
247.2 230.425 L
262.111 221.668 L
277.022 207.091 L
291.933 207.374 L
306.844 203.061 L
321.756 201.043 L
336.667 194.758 L
351.578 194.014 L
366.489 198.703 L
381.4 198.106 L
396.311 205.255 L
411.222 207.892 L
426.133 210.894 L
441.044 218.568 L
455.956 227.346 L
470.867 228.229 L
485.778 236.675 L
500.689 239.113 L
515.6 253.429 L
530.511 251.839 L
545.422 263.239 L
560.333 264.112 L
575.244 269.573 L
590.156 276.175 L
605.067 283.424 L
619.978 287.966 L
634.889 291.65 L
649.8 299.769 L
664.711 304.581 L
679.622 305.405 L
694.533 313.377 L
709.444 318.393 L
724.356 320.249 L
739.267 321.028 L
754.178 326.89 L
769.089 334.433 L
784 337.257 L
S
GR
GS
[0.75 0 0 0.75 0 0] CT
1 0 0 RC
2 LJ
N
113 37.903 M
127.911 42.54 L
142.822 47.86 L
157.733 58.97 L
172.644 71.118 L
187.556 76.994 L
202.467 80.477 L
217.378 78.485 L
232.289 71.449 L
247.2 68.989 L
262.111 69.974 L
277.022 75.91 L
291.933 82.003 L
306.844 85.654 L
321.756 94.503 L
336.667 102.42 L
351.578 112.833 L
366.489 125.05 L
381.4 130.26 L
396.311 141.761 L
411.222 150.963 L
426.133 159.604 L
441.044 169.35 L
455.956 175.913 L
470.867 187.368 L
485.778 196.378 L
500.689 205.159 L
515.6 215.124 L
530.511 223.821 L
545.422 230.983 L
560.333 240.917 L
575.244 248.407 L
590.156 254.621 L
605.067 263.051 L
619.978 269.66 L
634.889 277.49 L
649.8 280.834 L
664.711 286.684 L
679.622 291.122 L
694.533 296.533 L
709.444 300.392 L
724.356 304.823 L
739.267 308.425 L
754.178 312.538 L
769.089 315.921 L
784 320.49 L
S
GR
GS
[0.75 0 0 0.75 336.37532 20.43755] CT
/Helvetica-Bold 15 F
GS
[1 0 0 1 0 0] CT
-112.5 -4 moveto 
1 -1 scale
(Average cluster Recovery \(ARI\)) t 
GR
GR
GS
[0.75 0 0 0.75 0 0] CT
1 GC
N
222 341 M
222 269 L
347 269 L
347 341 L
cp
f
GR
GS
[0.75 0 0 0.75 205.5 209.82477] CT
/Helvetica 12 F
GS
[1 0 0 1 0 0] CT
0 5 moveto 
1 -1 scale
(kMeans) t 
GR
GR
GS
[0.75 0 0 0.75 0 0] CT
0 0 1 RC
2 LJ
N
230 279.766 M
270 279.766 L
S
GR
GS
[0.75 0 0 0.75 205.5 222.44158] CT
/Helvetica 12 F
GS
[1 0 0 1 0 0] CT
0 5 moveto 
1 -1 scale
(iKMeans) t 
GR
GR
GS
[0.75 0 0 0.75 0 0] CT
0 1 0 RC
2 LJ
N
230 296.589 M
270 296.589 L
S
GR
GS
[0.75 0 0 0.75 205.5 235.05842] CT
/Helvetica 12 F
GS
[1 0 0 1 0 0] CT
0 5 moveto 
1 -1 scale
(MWKMeans) t 
GR
GR
GS
[0.75 0 0 0.75 0 0] CT
2 LJ
N
230 313.411 M
270 313.411 L
S
GR
GS
[0.75 0 0 0.75 205.5 247.67523] CT
/Helvetica 12 F
GS
[1 0 0 1 0 0] CT
0 5 moveto 
1 -1 scale
(iMWKMeans) t 
GR
GR
GS
[0.75 0 0 0.75 0 0] CT
1 0 0 RC
2 LJ
N
230 330.234 M
270 330.234 L
S
GR
GS
[0.75 0 0 0.75 0 0] CT
0.149 GC
2 LJ
N
222 341 M
222 269 L
347 269 L
347 341 L
222 341 L
S
GR
%%Trailer
%%Pages: 1
%%EOF
