%!PS-Adobe-3.0 EPSF-3.0
%%Creator: (MATLAB, The Mathworks, Inc. Version 8.5.0.197613 \(R2015a\). Operating System: Windows 7)
%%Title: E:/Documentation/Thesis/fig/Lp/ARI_CluserRecoveryKMeans_Max.eps
%%CreationDate: 2020-08-02T23:42:44
%%Pages: (atend)
%%BoundingBox: 0 0 650 297
%%LanguageLevel: 2
%%EndComments
%%BeginProlog
%%BeginResource: procset (Apache XML Graphics Std ProcSet) 1.2 0
%%Version: 1.2 0
%%Copyright: (Copyright 2001-2003,2010 The Apache Software Foundation. License terms: http://www.apache.org/licenses/LICENSE-2.0)
/bd{bind def}bind def
/ld{load def}bd
/GR/grestore ld
/M/moveto ld
/LJ/setlinejoin ld
/C/curveto ld
/f/fill ld
/LW/setlinewidth ld
/GC/setgray ld
/t/show ld
/N/newpath ld
/CT/concat ld
/cp/closepath ld
/S/stroke ld
/L/lineto ld
/CC/setcmykcolor ld
/A/ashow ld
/GS/gsave ld
/RC/setrgbcolor ld
/RM/rmoveto ld
/ML/setmiterlimit ld
/re {4 2 roll M
1 index 0 rlineto
0 exch rlineto
neg 0 rlineto
cp } bd
/_ctm matrix def
/_tm matrix def
/BT { _ctm currentmatrix pop matrix _tm copy pop 0 0 moveto } bd
/ET { _ctm setmatrix } bd
/iTm { _ctm setmatrix _tm concat } bd
/Tm { _tm astore pop iTm 0 0 moveto } bd
/ux 0.0 def
/uy 0.0 def
/F {
  /Tp exch def
  /Tf exch def
  Tf findfont Tp scalefont setfont
  /cf Tf def  /cs Tp def
} bd
/ULS {currentpoint /uy exch def /ux exch def} bd
/ULE {
  /Tcx currentpoint pop def
  gsave
  newpath
  cf findfont cs scalefont dup
  /FontMatrix get 0 get /Ts exch def /FontInfo get dup
  /UnderlinePosition get Ts mul /To exch def
  /UnderlineThickness get Ts mul /Tt exch def
  ux uy To add moveto  Tcx uy To add lineto
  Tt setlinewidth stroke
  grestore
} bd
/OLE {
  /Tcx currentpoint pop def
  gsave
  newpath
  cf findfont cs scalefont dup
  /FontMatrix get 0 get /Ts exch def /FontInfo get dup
  /UnderlinePosition get Ts mul /To exch def
  /UnderlineThickness get Ts mul /Tt exch def
  ux uy To add cs add moveto Tcx uy To add cs add lineto
  Tt setlinewidth stroke
  grestore
} bd
/SOE {
  /Tcx currentpoint pop def
  gsave
  newpath
  cf findfont cs scalefont dup
  /FontMatrix get 0 get /Ts exch def /FontInfo get dup
  /UnderlinePosition get Ts mul /To exch def
  /UnderlineThickness get Ts mul /Tt exch def
  ux uy To add cs 10 mul 26 idiv add moveto Tcx uy To add cs 10 mul 26 idiv add lineto
  Tt setlinewidth stroke
  grestore
} bd
/QT {
/Y22 exch store
/X22 exch store
/Y21 exch store
/X21 exch store
currentpoint
/Y21 load 2 mul add 3 div exch
/X21 load 2 mul add 3 div exch
/X21 load 2 mul /X22 load add 3 div
/Y21 load 2 mul /Y22 load add 3 div
/X22 load /Y22 load curveto
} bd
/SSPD {
dup length /d exch dict def
{
/v exch def
/k exch def
currentpagedevice k known {
/cpdv currentpagedevice k get def
v cpdv ne {
/upd false def
/nullv v type /nulltype eq def
/nullcpdv cpdv type /nulltype eq def
nullv nullcpdv or
{
/upd true def
} {
/sametype v type cpdv type eq def
sametype {
v type /arraytype eq {
/vlen v length def
/cpdvlen cpdv length def
vlen cpdvlen eq {
0 1 vlen 1 sub {
/i exch def
/obj v i get def
/cpdobj cpdv i get def
obj cpdobj ne {
/upd true def
exit
} if
} for
} {
/upd true def
} ifelse
} {
v type /dicttype eq {
v {
/dv exch def
/dk exch def
/cpddv cpdv dk get def
dv cpddv ne {
/upd true def
exit
} if
} forall
} {
/upd true def
} ifelse
} ifelse
} if
} ifelse
upd true eq {
d k v put
} if
} if
} if
} forall
d length 0 gt {
d setpagedevice
} if
} bd
%%EndResource
%%BeginResource: procset (Apache XML Graphics EPS ProcSet) 1.0 0
%%Version: 1.0 0
%%Copyright: (Copyright 2002-2003 The Apache Software Foundation. License terms: http://www.apache.org/licenses/LICENSE-2.0)
/BeginEPSF { %def
/b4_Inc_state save def         % Save state for cleanup
/dict_count countdictstack def % Count objects on dict stack
/op_count count 1 sub def      % Count objects on operand stack
userdict begin                 % Push userdict on dict stack
/showpage { } def              % Redefine showpage, { } = null proc
0 setgray 0 setlinecap         % Prepare graphics state
1 setlinewidth 0 setlinejoin
10 setmiterlimit [ ] 0 setdash newpath
/languagelevel where           % If level not equal to 1 then
{pop languagelevel             % set strokeadjust and
1 ne                           % overprint to their defaults.
{false setstrokeadjust false setoverprint
} if
} if
} bd
/EndEPSF { %def
count op_count sub {pop} repeat            % Clean up stacks
countdictstack dict_count sub {end} repeat
b4_Inc_state restore
} bd
%%EndResource
%FOPBeginFontDict
%%IncludeResource: font Courier-Bold
%%IncludeResource: font Helvetica
%%IncludeResource: font Courier-BoldOblique
%%IncludeResource: font Courier-Oblique
%%IncludeResource: font Times-Roman
%%IncludeResource: font Helvetica-BoldOblique
%%IncludeResource: font Helvetica-Bold
%%IncludeResource: font Helvetica-Oblique
%%IncludeResource: font Times-BoldItalic
%%IncludeResource: font Courier
%%IncludeResource: font Times-Italic
%%IncludeResource: font Times-Bold
%%IncludeResource: font Symbol
%%IncludeResource: font ZapfDingbats
%FOPEndFontDict
%%BeginResource: encoding WinAnsiEncoding
/WinAnsiEncoding [
/.notdef /.notdef /.notdef /.notdef /.notdef
/.notdef /.notdef /.notdef /.notdef /.notdef
/.notdef /.notdef /.notdef /.notdef /.notdef
/.notdef /.notdef /.notdef /.notdef /.notdef
/.notdef /.notdef /.notdef /.notdef /.notdef
/.notdef /.notdef /.notdef /.notdef /.notdef
/.notdef /.notdef /space /exclam /quotedbl
/numbersign /dollar /percent /ampersand /quotesingle
/parenleft /parenright /asterisk /plus /comma
/hyphen /period /slash /zero /one
/two /three /four /five /six
/seven /eight /nine /colon /semicolon
/less /equal /greater /question /at
/A /B /C /D /E
/F /G /H /I /J
/K /L /M /N /O
/P /Q /R /S /T
/U /V /W /X /Y
/Z /bracketleft /backslash /bracketright /asciicircum
/underscore /quoteleft /a /b /c
/d /e /f /g /h
/i /j /k /l /m
/n /o /p /q /r
/s /t /u /v /w
/x /y /z /braceleft /bar
/braceright /asciitilde /bullet /Euro /bullet
/quotesinglbase /florin /quotedblbase /ellipsis /dagger
/daggerdbl /circumflex /perthousand /Scaron /guilsinglleft
/OE /bullet /Zcaron /bullet /bullet
/quoteleft /quoteright /quotedblleft /quotedblright /bullet
/endash /emdash /asciitilde /trademark /scaron
/guilsinglright /oe /bullet /zcaron /Ydieresis
/space /exclamdown /cent /sterling /currency
/yen /brokenbar /section /dieresis /copyright
/ordfeminine /guillemotleft /logicalnot /sfthyphen /registered
/macron /degree /plusminus /twosuperior /threesuperior
/acute /mu /paragraph /middot /cedilla
/onesuperior /ordmasculine /guillemotright /onequarter /onehalf
/threequarters /questiondown /Agrave /Aacute /Acircumflex
/Atilde /Adieresis /Aring /AE /Ccedilla
/Egrave /Eacute /Ecircumflex /Edieresis /Igrave
/Iacute /Icircumflex /Idieresis /Eth /Ntilde
/Ograve /Oacute /Ocircumflex /Otilde /Odieresis
/multiply /Oslash /Ugrave /Uacute /Ucircumflex
/Udieresis /Yacute /Thorn /germandbls /agrave
/aacute /acircumflex /atilde /adieresis /aring
/ae /ccedilla /egrave /eacute /ecircumflex
/edieresis /igrave /iacute /icircumflex /idieresis
/eth /ntilde /ograve /oacute /ocircumflex
/otilde /odieresis /divide /oslash /ugrave
/uacute /ucircumflex /udieresis /yacute /thorn
/ydieresis
] def
%%EndResource
%FOPBeginFontReencode
/Courier-Bold findfont
dup length dict begin
  {1 index /FID ne {def} {pop pop} ifelse} forall
  /Encoding WinAnsiEncoding def
  currentdict
end
/Courier-Bold exch definefont pop
/Helvetica findfont
dup length dict begin
  {1 index /FID ne {def} {pop pop} ifelse} forall
  /Encoding WinAnsiEncoding def
  currentdict
end
/Helvetica exch definefont pop
/Courier-BoldOblique findfont
dup length dict begin
  {1 index /FID ne {def} {pop pop} ifelse} forall
  /Encoding WinAnsiEncoding def
  currentdict
end
/Courier-BoldOblique exch definefont pop
/Courier-Oblique findfont
dup length dict begin
  {1 index /FID ne {def} {pop pop} ifelse} forall
  /Encoding WinAnsiEncoding def
  currentdict
end
/Courier-Oblique exch definefont pop
/Times-Roman findfont
dup length dict begin
  {1 index /FID ne {def} {pop pop} ifelse} forall
  /Encoding WinAnsiEncoding def
  currentdict
end
/Times-Roman exch definefont pop
/Helvetica-BoldOblique findfont
dup length dict begin
  {1 index /FID ne {def} {pop pop} ifelse} forall
  /Encoding WinAnsiEncoding def
  currentdict
end
/Helvetica-BoldOblique exch definefont pop
/Helvetica-Bold findfont
dup length dict begin
  {1 index /FID ne {def} {pop pop} ifelse} forall
  /Encoding WinAnsiEncoding def
  currentdict
end
/Helvetica-Bold exch definefont pop
/Helvetica-Oblique findfont
dup length dict begin
  {1 index /FID ne {def} {pop pop} ifelse} forall
  /Encoding WinAnsiEncoding def
  currentdict
end
/Helvetica-Oblique exch definefont pop
/Times-BoldItalic findfont
dup length dict begin
  {1 index /FID ne {def} {pop pop} ifelse} forall
  /Encoding WinAnsiEncoding def
  currentdict
end
/Times-BoldItalic exch definefont pop
/Courier findfont
dup length dict begin
  {1 index /FID ne {def} {pop pop} ifelse} forall
  /Encoding WinAnsiEncoding def
  currentdict
end
/Courier exch definefont pop
/Times-Italic findfont
dup length dict begin
  {1 index /FID ne {def} {pop pop} ifelse} forall
  /Encoding WinAnsiEncoding def
  currentdict
end
/Times-Italic exch definefont pop
/Times-Bold findfont
dup length dict begin
  {1 index /FID ne {def} {pop pop} ifelse} forall
  /Encoding WinAnsiEncoding def
  currentdict
end
/Times-Bold exch definefont pop
%FOPEndFontReencode
%%EndProlog
%%Page: 1 1
%%PageBoundingBox: 0 0 650 297
%%BeginPageSetup
[1 0 0 -1 0 297] CT
%%EndPageSetup
GS
[0.75 0 0 0.75 0 0] CT
1 GC
N
0 0 867 396 re
f
GR
GS
[0.75 0 0 0.75 0 0] CT
1 GC
N
0 0 867 396 re
f
GR
GS
[0.75 0 0 0.75 0 0] CT
1 GC
N
113 352 M
785 352 L
785 30 L
113 30 L
cp
f
GR
GS
[0.75 0 0 0.75 336.75023 281.74997] CT
0.149 GC
/Helvetica 15 F
GS
[1 0 0 1 0 0] CT
-106 16 moveto 
1 -1 scale
(dataset distance coefficient \(p1\)) t 
GR
GR
GS
[0.75 0 0 0.75 0 0] CT
0.149 GC
2 setlinecap
10.0 ML
N
113 352 M
785 352 L
S
GR
GS
[0.75 0 0 0.75 0 0] CT
0.149 GC
2 setlinecap
10.0 ML
N
113 30 M
785 30 L
S
GR
GS
[0.75 0 0 0.75 0 0] CT
0.149 GC
2 setlinecap
10.0 ML
N
113 352 M
113 345.28 L
S
GR
GS
[0.75 0 0 0.75 0 0] CT
0.149 GC
2 setlinecap
10.0 ML
N
187.667 352 M
187.667 345.28 L
S
GR
GS
[0.75 0 0 0.75 0 0] CT
0.149 GC
2 setlinecap
10.0 ML
N
262.333 352 M
262.333 345.28 L
S
GR
GS
[0.75 0 0 0.75 0 0] CT
0.149 GC
2 setlinecap
10.0 ML
N
337 352 M
337 345.28 L
S
GR
GS
[0.75 0 0 0.75 0 0] CT
0.149 GC
2 setlinecap
10.0 ML
N
411.667 352 M
411.667 345.28 L
S
GR
GS
[0.75 0 0 0.75 0 0] CT
0.149 GC
2 setlinecap
10.0 ML
N
486.333 352 M
486.333 345.28 L
S
GR
GS
[0.75 0 0 0.75 0 0] CT
0.149 GC
2 setlinecap
10.0 ML
N
561 352 M
561 345.28 L
S
GR
GS
[0.75 0 0 0.75 0 0] CT
0.149 GC
2 setlinecap
10.0 ML
N
635.667 352 M
635.667 345.28 L
S
GR
GS
[0.75 0 0 0.75 0 0] CT
0.149 GC
2 setlinecap
10.0 ML
N
710.333 352 M
710.333 345.28 L
S
GR
GS
[0.75 0 0 0.75 0 0] CT
0.149 GC
2 setlinecap
10.0 ML
N
785 352 M
785 345.28 L
S
GR
GS
[0.75 0 0 0.75 0 0] CT
0.149 GC
2 setlinecap
10.0 ML
N
113 30 M
113 36.72 L
S
GR
GS
[0.75 0 0 0.75 0 0] CT
0.149 GC
2 setlinecap
10.0 ML
N
187.667 30 M
187.667 36.72 L
S
GR
GS
[0.75 0 0 0.75 0 0] CT
0.149 GC
2 setlinecap
10.0 ML
N
262.333 30 M
262.333 36.72 L
S
GR
GS
[0.75 0 0 0.75 0 0] CT
0.149 GC
2 setlinecap
10.0 ML
N
337 30 M
337 36.72 L
S
GR
GS
[0.75 0 0 0.75 0 0] CT
0.149 GC
2 setlinecap
10.0 ML
N
411.667 30 M
411.667 36.72 L
S
GR
GS
[0.75 0 0 0.75 0 0] CT
0.149 GC
2 setlinecap
10.0 ML
N
486.333 30 M
486.333 36.72 L
S
GR
GS
[0.75 0 0 0.75 0 0] CT
0.149 GC
2 setlinecap
10.0 ML
N
561 30 M
561 36.72 L
S
GR
GS
[0.75 0 0 0.75 0 0] CT
0.149 GC
2 setlinecap
10.0 ML
N
635.667 30 M
635.667 36.72 L
S
GR
GS
[0.75 0 0 0.75 0 0] CT
0.149 GC
2 setlinecap
10.0 ML
N
710.333 30 M
710.333 36.72 L
S
GR
GS
[0.75 0 0 0.75 0 0] CT
0.149 GC
2 setlinecap
10.0 ML
N
785 30 M
785 36.72 L
S
GR
GS
[0.75 0 0 0.75 84.75 268.00001] CT
0.149 GC
/Helvetica 13 F
GS
[1 0 0 1 0 0] CT
-9.5 14 moveto 
1 -1 scale
(0.5) t 
GR
GR
GS
[0.75 0 0 0.75 140.75 268.00001] CT
0.149 GC
/Helvetica 13 F
GS
[1 0 0 1 0 0] CT
-4 14 moveto 
1 -1 scale
(1) t 
GR
GR
GS
[0.75 0 0 0.75 196.75001 268.00001] CT
0.149 GC
/Helvetica 13 F
GS
[1 0 0 1 0 0] CT
-9.5 14 moveto 
1 -1 scale
(1.5) t 
GR
GR
GS
[0.75 0 0 0.75 252.75 268.00001] CT
0.149 GC
/Helvetica 13 F
GS
[1 0 0 1 0 0] CT
-4 14 moveto 
1 -1 scale
(2) t 
GR
GR
GS
[0.75 0 0 0.75 308.74999 268.00001] CT
0.149 GC
/Helvetica 13 F
GS
[1 0 0 1 0 0] CT
-9.5 14 moveto 
1 -1 scale
(2.5) t 
GR
GR
GS
[0.75 0 0 0.75 364.75001 268.00001] CT
0.149 GC
/Helvetica 13 F
GS
[1 0 0 1 0 0] CT
-4 14 moveto 
1 -1 scale
(3) t 
GR
GR
GS
[0.75 0 0 0.75 420.75 268.00001] CT
0.149 GC
/Helvetica 13 F
GS
[1 0 0 1 0 0] CT
-9.5 14 moveto 
1 -1 scale
(3.5) t 
GR
GR
GS
[0.75 0 0 0.75 476.75002 268.00001] CT
0.149 GC
/Helvetica 13 F
GS
[1 0 0 1 0 0] CT
-4 14 moveto 
1 -1 scale
(4) t 
GR
GR
GS
[0.75 0 0 0.75 532.74998 268.00001] CT
0.149 GC
/Helvetica 13 F
GS
[1 0 0 1 0 0] CT
-9.5 14 moveto 
1 -1 scale
(4.5) t 
GR
GR
GS
[0.75 0 0 0.75 588.75 268.00001] CT
0.149 GC
/Helvetica 13 F
GS
[1 0 0 1 0 0] CT
-4 14 moveto 
1 -1 scale
(5) t 
GR
GR
GS
[0 -0.75 0.75 0 58.25 143.24989] CT
0.149 GC
/Helvetica 15 F
GS
[1 0 0 1 0 0] CT
-73 -4 moveto 
1 -1 scale
(cluster recovery \(ARI\)) t 
GR
GR
GS
[0.75 0 0 0.75 0 0] CT
0.149 GC
2 setlinecap
10.0 ML
N
113 352 M
113 30 L
S
GR
GS
[0.75 0 0 0.75 0 0] CT
0.149 GC
2 setlinecap
10.0 ML
N
785 352 M
785 30 L
S
GR
GS
[0.75 0 0 0.75 0 0] CT
0.149 GC
2 setlinecap
10.0 ML
N
113 352 M
119.72 352 L
S
GR
GS
[0.75 0 0 0.75 0 0] CT
0.149 GC
2 setlinecap
10.0 ML
N
113 306 M
119.72 306 L
S
GR
GS
[0.75 0 0 0.75 0 0] CT
0.149 GC
2 setlinecap
10.0 ML
N
113 260 M
119.72 260 L
S
GR
GS
[0.75 0 0 0.75 0 0] CT
0.149 GC
2 setlinecap
10.0 ML
N
113 214 M
119.72 214 L
S
GR
GS
[0.75 0 0 0.75 0 0] CT
0.149 GC
2 setlinecap
10.0 ML
N
113 168 M
119.72 168 L
S
GR
GS
[0.75 0 0 0.75 0 0] CT
0.149 GC
2 setlinecap
10.0 ML
N
113 122 M
119.72 122 L
S
GR
GS
[0.75 0 0 0.75 0 0] CT
0.149 GC
2 setlinecap
10.0 ML
N
113 76 M
119.72 76 L
S
GR
GS
[0.75 0 0 0.75 0 0] CT
0.149 GC
2 setlinecap
10.0 ML
N
113 30 M
119.72 30 L
S
GR
GS
[0.75 0 0 0.75 0 0] CT
0.149 GC
2 setlinecap
10.0 ML
N
785 352 M
778.28 352 L
S
GR
GS
[0.75 0 0 0.75 0 0] CT
0.149 GC
2 setlinecap
10.0 ML
N
785 306 M
778.28 306 L
S
GR
GS
[0.75 0 0 0.75 0 0] CT
0.149 GC
2 setlinecap
10.0 ML
N
785 260 M
778.28 260 L
S
GR
GS
[0.75 0 0 0.75 0 0] CT
0.149 GC
2 setlinecap
10.0 ML
N
785 214 M
778.28 214 L
S
GR
GS
[0.75 0 0 0.75 0 0] CT
0.149 GC
2 setlinecap
10.0 ML
N
785 168 M
778.28 168 L
S
GR
GS
[0.75 0 0 0.75 0 0] CT
0.149 GC
2 setlinecap
10.0 ML
N
785 122 M
778.28 122 L
S
GR
GS
[0.75 0 0 0.75 0 0] CT
0.149 GC
2 setlinecap
10.0 ML
N
785 76 M
778.28 76 L
S
GR
GS
[0.75 0 0 0.75 0 0] CT
0.149 GC
2 setlinecap
10.0 ML
N
785 30 M
778.28 30 L
S
GR
GS
[0.75 0 0 0.75 80.75 263.99998] CT
0.149 GC
/Helvetica 13 F
GS
[1 0 0 1 0 0] CT
-26 5.5 moveto 
1 -1 scale
(0.86) t 
GR
GR
GS
[0.75 0 0 0.75 80.75 229.5] CT
0.149 GC
/Helvetica 13 F
GS
[1 0 0 1 0 0] CT
-26 5.5 moveto 
1 -1 scale
(0.88) t 
GR
GR
GS
[0.75 0 0 0.75 80.75 195.00005] CT
0.149 GC
/Helvetica 13 F
GS
[1 0 0 1 0 0] CT
-19 5.5 moveto 
1 -1 scale
(0.9) t 
GR
GR
GS
[0.75 0 0 0.75 80.75 160.49997] CT
0.149 GC
/Helvetica 13 F
GS
[1 0 0 1 0 0] CT
-26 5.5 moveto 
1 -1 scale
(0.92) t 
GR
GR
GS
[0.75 0 0 0.75 80.75 126] CT
0.149 GC
/Helvetica 13 F
GS
[1 0 0 1 0 0] CT
-26 5.5 moveto 
1 -1 scale
(0.94) t 
GR
GR
GS
[0.75 0 0 0.75 80.75 91.50003] CT
0.149 GC
/Helvetica 13 F
GS
[1 0 0 1 0 0] CT
-26 5.5 moveto 
1 -1 scale
(0.96) t 
GR
GR
GS
[0.75 0 0 0.75 80.75 56.99997] CT
0.149 GC
/Helvetica 13 F
GS
[1 0 0 1 0 0] CT
-26 5.5 moveto 
1 -1 scale
(0.98) t 
GR
GR
GS
[0.75 0 0 0.75 80.75 22.5] CT
0.149 GC
/Helvetica 13 F
GS
[1 0 0 1 0 0] CT
-8 5.5 moveto 
1 -1 scale
(1) t 
GR
GR
GS
[0.75 0 0 0.75 0 0] CT
0 0 1 RC
2 LJ
N
113 30 M
127.933 30 L
142.867 30 L
157.8 30 L
172.733 30 L
187.667 30 L
202.6 30.214 L
217.533 30.214 L
232.467 30.426 L
247.4 31.052 L
262.333 32.084 L
277.267 34.23 L
292.2 36.186 L
307.133 40.419 L
322.067 44.969 L
337 51.394 L
351.933 57.856 L
366.867 66.412 L
381.8 76.537 L
396.733 85.843 L
411.667 97.954 L
426.6 109.316 L
441.533 121.509 L
456.467 131.651 L
471.4 142.975 L
486.333 156.398 L
501.267 167.708 L
516.2 179.719 L
531.133 189.107 L
546.067 200.655 L
561 210.966 L
575.933 221.285 L
590.867 231.602 L
605.8 241.888 L
620.733 252.226 L
635.667 260.858 L
650.6 268.708 L
665.533 277.486 L
680.467 285.306 L
695.4 293.218 L
710.333 302.977 L
725.267 308.124 L
740.2 314.121 L
755.133 321.587 L
770.067 325.837 L
785 330.33 L
S
GR
GS
[0.75 0 0 0.75 0 0] CT
0 1 0 RC
2 LJ
N
113 30 M
127.933 30 L
142.867 30 L
157.8 30 L
172.733 30 L
187.667 30 L
202.6 44.049 L
217.533 30.214 L
232.467 30.426 L
247.4 31.052 L
262.333 46.44 L
277.267 34.23 L
292.2 36.186 L
307.133 40.419 L
322.067 44.969 L
337 51.394 L
351.933 57.856 L
366.867 66.412 L
381.8 76.735 L
396.733 85.543 L
411.667 97.954 L
426.6 109.116 L
441.533 121.244 L
456.467 131.461 L
471.4 143.343 L
486.333 156.309 L
501.267 167.815 L
516.2 179.571 L
531.133 189.112 L
546.067 201.03 L
561 210.826 L
575.933 221.527 L
590.867 231.867 L
605.8 241.877 L
620.733 253.137 L
635.667 261.139 L
650.6 268.563 L
665.533 277.242 L
680.467 284.77 L
695.4 293.153 L
710.333 302.115 L
725.267 308.37 L
740.2 314.339 L
755.133 321.562 L
770.067 326.644 L
785 331.465 L
S
GR
GS
[0.75 0 0 0.75 0 0] CT
2 LJ
N
113 30 M
127.933 30 L
142.867 30 L
157.8 30 L
172.733 30 L
187.667 30 L
202.6 30 L
217.533 30.107 L
232.467 30.214 L
247.4 30.321 L
262.333 31.052 L
277.267 32.07 L
292.2 33.61 L
307.133 36.253 L
322.067 40.187 L
337 44.35 L
351.933 50.488 L
366.867 57.391 L
381.8 64.58 L
396.733 71.67 L
411.667 81.441 L
426.6 91.428 L
441.533 100.724 L
456.467 110.877 L
471.4 120.447 L
486.333 131.637 L
501.267 142.285 L
516.2 152.954 L
531.133 161.594 L
546.067 170.81 L
561 179.968 L
575.933 190.355 L
590.867 198.442 L
605.8 206.958 L
620.733 215.983 L
635.667 225.868 L
650.6 233.482 L
665.533 239.636 L
680.467 246.751 L
695.4 255.46 L
710.333 259.955 L
725.267 266.003 L
740.2 272.021 L
755.133 277.357 L
770.067 283.434 L
785 287.792 L
S
GR
GS
[0.75 0 0 0.75 0 0] CT
1 0 0 RC
2 LJ
N
113 30 M
127.933 30 L
142.867 30 L
157.8 30 L
172.733 30 L
187.667 30 L
202.6 30 L
217.533 30 L
232.467 30.107 L
247.4 30.426 L
262.333 31.156 L
277.267 31.965 L
292.2 33.715 L
307.133 35.75 L
322.067 40.007 L
337 44.139 L
351.933 50.764 L
366.867 57.162 L
381.8 65.176 L
396.733 72.296 L
411.667 80.858 L
426.6 91.992 L
441.533 101.121 L
456.467 111.687 L
471.4 121.833 L
486.333 132.991 L
501.267 142.343 L
516.2 151.859 L
531.133 161.76 L
546.067 171.433 L
561 182.158 L
575.933 190.612 L
590.867 201.269 L
605.8 208.416 L
620.733 217.325 L
635.667 225.647 L
650.6 233.033 L
665.533 240.014 L
680.467 247.74 L
695.4 254.808 L
710.333 260.172 L
725.267 266.865 L
740.2 272.881 L
755.133 279.156 L
770.067 284.464 L
785 288.994 L
S
GR
GS
[0.75 0 0 0.75 336.75032 20.43747] CT
/Helvetica-Bold 15 F
GS
[1 0 0 1 0 0] CT
-341 -4 moveto 
1 -1 scale
(Feeding MWKMeans and iMWKMeans with distance coefficient which maximize the peformance) t 
GR
GR
GS
[0.75 0 0 0.75 0 0] CT
1 GC
N
155 326 M
155 255 L
280 255 L
280 326 L
cp
f
GR
GS
[0.75 0 0 0.75 155.25 199.21262] CT
/Helvetica 12 F
GS
[1 0 0 1 0 0] CT
0 5 moveto 
1 -1 scale
(kMeans) t 
GR
GR
GS
[0.75 0 0 0.75 0 0] CT
0 0 1 RC
2 LJ
N
163 265.617 M
203 265.617 L
S
GR
GS
[0.75 0 0 0.75 155.25 211.6542] CT
/Helvetica 12 F
GS
[1 0 0 1 0 0] CT
0 5 moveto 
1 -1 scale
(iKMeans) t 
GR
GR
GS
[0.75 0 0 0.75 0 0] CT
0 1 0 RC
2 LJ
N
163 282.206 M
203 282.206 L
S
GR
GS
[0.75 0 0 0.75 155.25 224.0958] CT
/Helvetica 12 F
GS
[1 0 0 1 0 0] CT
0 5 moveto 
1 -1 scale
(MWKMeans) t 
GR
GR
GS
[0.75 0 0 0.75 0 0] CT
2 LJ
N
163 298.794 M
203 298.794 L
S
GR
GS
[0.75 0 0 0.75 155.25 236.53738] CT
/Helvetica 12 F
GS
[1 0 0 1 0 0] CT
0 5 moveto 
1 -1 scale
(iMWKMeans) t 
GR
GR
GS
[0.75 0 0 0.75 0 0] CT
1 0 0 RC
2 LJ
N
163 315.383 M
203 315.383 L
S
GR
GS
[0.75 0 0 0.75 0 0] CT
0.149 GC
2 LJ
N
155 326 M
155 255 L
280 255 L
280 326 L
155 326 L
S
GR
%%Trailer
%%Pages: 1
%%EOF
